%YAML 1.1
%TAG !u! tag:unity3d.com,2011:
--- !u!74 &7400000
AnimationClip:
  m_ObjectHideFlags: 0
  m_PrefabParentObject: {fileID: 0}
  m_PrefabInternal: {fileID: 0}
  m_Name: InfiniteBee
  serializedVersion: 6
  m_Legacy: 0
  m_Compressed: 0
  m_UseHighQualityCurve: 1
  m_RotationCurves: []
  m_CompressedRotationCurves: []
  m_EulerCurves: []
  m_PositionCurves:
  - curve:
      serializedVersion: 2
      m_Curve:
      - serializedVersion: 2
        time: 0
        value: {x: 283, y: 183, z: -10}
        inSlope: {x: 0, y: 0, z: 0}
        outSlope: {x: 0, y: 0, z: 0}
        tangentMode: 0
      - serializedVersion: 2
        time: 0.5
        value: {x: 26, y: 46, z: -10}
        inSlope: {x: -578, y: -322, z: 0}
        outSlope: {x: -578, y: -322, z: 0}
        tangentMode: 0
      - serializedVersion: 2
        time: 1
        value: {x: -295, y: -139, z: -10}
        inSlope: {x: -582, y: 0, z: 0}
        outSlope: {x: -582, y: 0, z: 0}
        tangentMode: 0
      - serializedVersion: 2
        time: 1.5
        value: {x: -556, y: -12, z: -10}
        inSlope: {x: 0, y: 307, z: 0}
        outSlope: {x: 0, y: 307, z: 0}
        tangentMode: 0
      - serializedVersion: 2
        time: 2
        value: {x: -284, y: 168, z: -10}
        inSlope: {x: 451, y: 0, z: 0}
        outSlope: {x: 451, y: 0, z: 0}
        tangentMode: 0
      - serializedVersion: 2
        time: 2.5
        value: {x: -105, y: -99, z: -10}
        inSlope: {x: 380, y: 0, z: 0}
        outSlope: {x: 380, y: 0, z: 0}
        tangentMode: 0
      - serializedVersion: 2
        time: 3
        value: {x: 96, y: 54, z: -10}
        inSlope: {x: 0, y: 0, z: 0}
        outSlope: {x: 0, y: 0, z: 0}
        tangentMode: 0
      - serializedVersion: 2
        time: 3.4833333
        value: {x: -360, y: -64, z: -10}
        inSlope: {x: 0, y: -282.412, z: 0}
        outSlope: {x: 0, y: -282.412, z: 0}
        tangentMode: 0
      - serializedVersion: 2
        time: 3.9166667
        value: {x: -266.59918, y: -204.87769, z: -10}
        inSlope: {x: 289.45114, y: 0, z: 0}
        outSlope: {x: 289.45114, y: 0, z: 0}
        tangentMode: 0
      - serializedVersion: 2
        time: 4
        value: {x: -244, y: -203.45972, z: -10}
        inSlope: {x: 247.69232, y: 33.376465, z: 0}
        outSlope: {x: 247.69232, y: 33.376465, z: 0}
        tangentMode: 0
      - serializedVersion: 2
        time: 4.7833333
        value: {x: -38, y: -107, z: -10}
        inSlope: {x: 226.75325, y: 155.03247, z: 0}
        outSlope: {x: 226.75325, y: 155.03247, z: 0}
        tangentMode: 0
      - serializedVersion: 2
        time: 5.2833333
        value: {x: 47, y: 7, z: -10}
        inSlope: {x: 0, y: 0, z: 0}
        outSlope: {x: 0, y: 0, z: 0}
        tangentMode: 0
      - serializedVersion: 2
        time: 5.766667
        value: {x: -116, y: 2, z: -10}
        inSlope: {x: -106.0465, y: 0, z: 0}
        outSlope: {x: -106.0465, y: 0, z: 0}
        tangentMode: 0
      - serializedVersion: 2
        time: 6
        value: {x: -135, y: 63, z: -10}
        inSlope: {x: 0, y: 0, z: 0}
        outSlope: {x: 0, y: 0, z: 0}
        tangentMode: 0
      - serializedVersion: 2
        time: 6.3
        value: {x: -135, y: -56, z: -10}
        inSlope: {x: 0, y: 0, z: 0}
        outSlope: {x: 0, y: 0, z: 0}
        tangentMode: 0
      - serializedVersion: 2
        time: 6.633333
        value: {x: -133, y: -14, z: -10}
        inSlope: {x: 0, y: 228.57149, z: 0}
        outSlope: {x: 0, y: 228.57149, z: 0}
        tangentMode: 0
      - serializedVersion: 2
        time: 7
        value: {x: -889, y: 104, z: -10}
        inSlope: {x: 0, y: 0, z: 0}
        outSlope: {x: 0, y: 0, z: 0}
        tangentMode: 0
      m_PreInfinity: 2
      m_PostInfinity: 2
      m_RotationOrder: 4
    path: 
  m_ScaleCurves: []
  m_FloatCurves: []
  m_PPtrCurves: []
  m_SampleRate: 60
  m_WrapMode: 0
  m_Bounds:
    m_Center: {x: 0, y: 0, z: 0}
    m_Extent: {x: 0, y: 0, z: 0}
  m_ClipBindingConstant:
    genericBindings:
    - serializedVersion: 2
      path: 0
      attribute: 1
      script: {fileID: 0}
      typeID: 4
      customType: 0
      isPPtrCurve: 0
    pptrCurveMapping: []
  m_AnimationClipSettings:
    serializedVersion: 2
    m_AdditiveReferencePoseClip: {fileID: 0}
    m_AdditiveReferencePoseTime: 0
    m_StartTime: 0
    m_StopTime: 7
    m_OrientationOffsetY: 0
    m_Level: 0
    m_CycleOffset: 0
    m_HasAdditiveReferencePose: 0
    m_LoopTime: 1
    m_LoopBlend: 0
    m_LoopBlendOrientation: 0
    m_LoopBlendPositionY: 0
    m_LoopBlendPositionXZ: 0
    m_KeepOriginalOrientation: 0
    m_KeepOriginalPositionY: 1
    m_KeepOriginalPositionXZ: 0
    m_HeightFromFeet: 0
    m_Mirror: 0
  m_EditorCurves:
  - curve:
      serializedVersion: 2
      m_Curve:
      - serializedVersion: 2
        time: 0
        value: 283
        inSlope: 0
        outSlope: 0
        tangentMode: 136
      - serializedVersion: 2
        time: 0.5
        value: 26
        inSlope: -578
        outSlope: -578
        tangentMode: 136
      - serializedVersion: 2
        time: 1
        value: -295
        inSlope: -582
        outSlope: -582
        tangentMode: 136
      - serializedVersion: 2
        time: 1.5
        value: -556
        inSlope: 0
        outSlope: 0
        tangentMode: 136
      - serializedVersion: 2
        time: 2
        value: -284
        inSlope: 451
        outSlope: 451
        tangentMode: 136
      - serializedVersion: 2
        time: 2.5
        value: -105
        inSlope: 380
        outSlope: 380
        tangentMode: 136
      - serializedVersion: 2
        time: 3
        value: 96
        inSlope: 0
        outSlope: 0
        tangentMode: 136
      - serializedVersion: 2
        time: 3.4833333
        value: -360
        inSlope: 0
        outSlope: 0
        tangentMode: 136
      - serializedVersion: 2
        time: 4
        value: -244
        inSlope: 247.69232
        outSlope: 247.69232
        tangentMode: 136
      - serializedVersion: 2
        time: 4.7833333
        value: -38
        inSlope: 226.75325
        outSlope: 226.75325
        tangentMode: 136
      - serializedVersion: 2
        time: 5.2833333
        value: 47
        inSlope: 0
        outSlope: 0
        tangentMode: 136
      - serializedVersion: 2
        time: 5.766667
        value: -116
        inSlope: -106.0465
        outSlope: -106.0465
        tangentMode: 136
      - serializedVersion: 2
        time: 6
        value: -135
        inSlope: 0
        outSlope: 0
        tangentMode: 136
      - serializedVersion: 2
        time: 6.3
        value: -135
        inSlope: 0
        outSlope: 0
        tangentMode: 136
      - serializedVersion: 2
        time: 6.633333
        value: -133
        inSlope: 0
        outSlope: 0
        tangentMode: 136
      - serializedVersion: 2
        time: 7
        value: -889
        inSlope: 0
        outSlope: 0
        tangentMode: 136
      m_PreInfinity: 2
      m_PostInfinity: 2
      m_RotationOrder: 4
    attribute: m_LocalPosition.x
    path: 
    classID: 4
    script: {fileID: 0}
  - curve:
      serializedVersion: 2
      m_Curve:
      - serializedVersion: 2
        time: 0
        value: 183
        inSlope: 0
        outSlope: 0
        tangentMode: 136
      - serializedVersion: 2
        time: 0.5
        value: 46
        inSlope: -322
        outSlope: -322
        tangentMode: 136
      - serializedVersion: 2
        time: 1
        value: -139
        inSlope: 0
        outSlope: 0
        tangentMode: 136
      - serializedVersion: 2
        time: 1.5
        value: -12
        inSlope: 307
        outSlope: 307
        tangentMode: 136
      - serializedVersion: 2
        time: 2
        value: 168
        inSlope: 0
        outSlope: 0
        tangentMode: 136
      - serializedVersion: 2
        time: 2.5
        value: -99
        inSlope: 0
        outSlope: 0
        tangentMode: 136
      - serializedVersion: 2
        time: 3
        value: 54
        inSlope: 0
        outSlope: 0
        tangentMode: 136
      - serializedVersion: 2
        time: 3.4833333
        value: -64
        inSlope: -282.412
        outSlope: -282.412
        tangentMode: 136
      - serializedVersion: 2
        time: 3.9166667
        value: -204.87769
        inSlope: 0
        outSlope: 0
        tangentMode: 136
      - serializedVersion: 2
        time: 4.7833333
        value: -107
        inSlope: 155.03247
        outSlope: 155.03247
        tangentMode: 136
      - serializedVersion: 2
        time: 5.2833333
        value: 7
        inSlope: 0
        outSlope: 0
        tangentMode: 136
      - serializedVersion: 2
        time: 5.766667
        value: 2
        inSlope: 0
        outSlope: 0
        tangentMode: 136
      - serializedVersion: 2
        time: 6
        value: 63
        inSlope: 0
        outSlope: 0
        tangentMode: 136
      - serializedVersion: 2
        time: 6.3
        value: -56
        inSlope: 0
        outSlope: 0
        tangentMode: 136
      - serializedVersion: 2
        time: 6.633333
        value: -14
        inSlope: 228.57149
        outSlope: 228.57149
        tangentMode: 136
      - serializedVersion: 2
        time: 7
        value: 104
        inSlope: 0
        outSlope: 0
        tangentMode: 136
      m_PreInfinity: 2
      m_PostInfinity: 2
      m_RotationOrder: 4
    attribute: m_LocalPosition.y
    path: 
    classID: 4
    script: {fileID: 0}
  - curve:
      serializedVersion: 2
      m_Curve:
      - serializedVersion: 2
        time: 0
        value: -10
        inSlope: 0
        outSlope: 0
        tangentMode: 136
      - serializedVersion: 2
        time: 0.5
        value: -10
        inSlope: 0
        outSlope: 0
        tangentMode: 136
      - serializedVersion: 2
        time: 1
        value: -10
        inSlope: 0
        outSlope: 0
        tangentMode: 136
      - serializedVersion: 2
        time: 1.5
        value: -10
        inSlope: 0
        outSlope: 0
        tangentMode: 136
      - serializedVersion: 2
        time: 2
        value: -10
        inSlope: 0
        outSlope: 0
        tangentMode: 136
      - serializedVersion: 2
        time: 2.5
        value: -10
        inSlope: 0
        outSlope: 0
        tangentMode: 136
      - serializedVersion: 2
        time: 3
        value: -10
        inSlope: 0
        outSlope: 0
        tangentMode: 136
      - serializedVersion: 2
        time: 3.4833333
        value: -10
        inSlope: 0
        outSlope: 0
        tangentMode: 136
      - serializedVersion: 2
        time: 4
        value: -10
        inSlope: 0
        outSlope: 0
        tangentMode: 136
      - serializedVersion: 2
        time: 4.7833333
        value: -10
        inSlope: 0
        outSlope: 0
        tangentMode: 136
      - serializedVersion: 2
        time: 5.2833333
        value: -10
        inSlope: 0
        outSlope: 0
        tangentMode: 136
      - serializedVersion: 2
        time: 5.766667
        value: -10
        inSlope: 0
        outSlope: 0
        tangentMode: 136
      - serializedVersion: 2
        time: 6
        value: -10
        inSlope: 0
        outSlope: 0
        tangentMode: 136
      - serializedVersion: 2
        time: 6.3
        value: -10
        inSlope: 0
        outSlope: 0
        tangentMode: 136
      - serializedVersion: 2
        time: 6.633333
        value: -10
        inSlope: 0
        outSlope: 0
        tangentMode: 136
      - serializedVersion: 2
        time: 7
        value: -10
        inSlope: 0
        outSlope: 0
        tangentMode: 136
      m_PreInfinity: 2
      m_PostInfinity: 2
      m_RotationOrder: 4
    attribute: m_LocalPosition.z
    path: 
    classID: 4
    script: {fileID: 0}
  m_EulerEditorCurves: []
  m_HasGenericRootTransform: 1
  m_HasMotionFloatCurves: 0
  m_GenerateMotionCurves: 0
  m_Events: []
