%YAML 1.1
%TAG !u! tag:unity3d.com,2011:
--- !u!1001 &100100000
Prefab:
  m_ObjectHideFlags: 1
  serializedVersion: 2
  m_Modification:
    m_TransformParent: {fileID: 0}
    m_Modifications: []
    m_RemovedComponents: []
  m_ParentPrefab: {fileID: 0}
  m_RootGameObject: {fileID: 1878576108819114}
  m_IsPrefabParent: 1
--- !u!1 &1878576108819114
GameObject:
  m_ObjectHideFlags: 0
  m_PrefabParentObject: {fileID: 0}
  m_PrefabInternal: {fileID: 100100000}
  serializedVersion: 5
  m_Component:
  - component: {fileID: 4445772284573246}
  - component: {fileID: 114600099319712092}
  m_Layer: 0
  m_Name: ImgNumStageFont
  m_TagString: Untagged
  m_Icon: {fileID: 0}
  m_NavMeshLayer: 0
  m_StaticEditorFlags: 0
  m_IsActive: 0
--- !u!4 &4445772284573246
Transform:
  m_ObjectHideFlags: 1
  m_PrefabParentObject: {fileID: 0}
  m_PrefabInternal: {fileID: 100100000}
  m_GameObject: {fileID: 1878576108819114}
  m_LocalRotation: {x: 0, y: 0, z: 0, w: 1}
  m_LocalPosition: {x: 0, y: 0, z: 0}
  m_LocalScale: {x: 1, y: 1, z: 1}
  m_Children: []
  m_Father: {fileID: 0}
  m_RootOrder: 0
  m_LocalEulerAnglesHint: {x: 0, y: 0, z: 0}
--- !u!114 &114600099319712092
MonoBehaviour:
  m_ObjectHideFlags: 1
  m_PrefabParentObject: {fileID: 0}
  m_PrefabInternal: {fileID: 100100000}
  m_GameObject: {fileID: 1878576108819114}
  m_Enabled: 1
  m_EditorHideFlags: 0
  m_Script: {fileID: 11500000, guid: 84c7a4b4ee15890498f818262bca0312, type: 3}
  m_Name: 
  m_EditorClassIdentifier: 
  textures: []
  textureRefs: []
  spriteSheets: []
  fonts: []
  defaults:
    additive: 0
    scale: {x: 1, y: 1, z: 1}
    anchor: 4
    pad: 0
    colliderType: 0
  platforms:
  - name: 
    spriteCollection: {fileID: 0}
  managedSpriteCollection: 0
  linkParent: {fileID: 0}
  loadable: 0
  atlasFormat: 0
  maxTextureSize: 2048
  forceTextureSize: 0
  forcedTextureWidth: 2048
  forcedTextureHeight: 2048
  textureCompression: 0
  atlasWidth: 512
  atlasHeight: 512
  forceSquareAtlas: 1
  atlasWastage: 76.67847
  allowMultipleAtlases: 0
  removeDuplicates: 1
  textureParams:
  - name: 7
    disableTrimming: 0
    additive: 0
    scale: {x: 1, y: 1, z: 1}
    texture: {fileID: 2800000, guid: b5718df8159f36f499b861dab77e203d, type: 3}
    materialId: 0
    anchor: 4
    anchorX: 0
    anchorY: 0
    overrideMesh: {fileID: 0}
    doubleSidedSprite: 0
    customSpriteGeometry: 0
    geometryIslands: []
    dice: 0
    diceUnitX: 64
    diceUnitY: 64
    diceFilter: 0
    pad: 0
    extraPadding: 0
    source: 0
    fromSpriteSheet: 0
    hasSpriteSheetId: 0
    spriteSheetId: 0
    spriteSheetX: 0
    spriteSheetY: 0
    extractRegion: 0
    regionX: 0
    regionY: 0
    regionW: 0
    regionH: 0
    regionId: 0
    colliderType: 0
    colliderData: []
    boxColliderMin: {x: 0, y: 0}
    boxColliderMax: {x: 0, y: 0}
    polyColliderIslands: []
    polyColliderCap: 1
    colliderConvex: 0
    colliderSmoothSphereCollisions: 0
    colliderColor: 0
    attachPoints: []
  - name: 6
    disableTrimming: 0
    additive: 0
    scale: {x: 1, y: 1, z: 1}
    texture: {fileID: 2800000, guid: 1dacd42e9f950fd428988a7f23eaf944, type: 3}
    materialId: 0
    anchor: 4
    anchorX: 0
    anchorY: 0
    overrideMesh: {fileID: 0}
    doubleSidedSprite: 0
    customSpriteGeometry: 0
    geometryIslands: []
    dice: 0
    diceUnitX: 64
    diceUnitY: 64
    diceFilter: 0
    pad: 0
    extraPadding: 0
    source: 0
    fromSpriteSheet: 0
    hasSpriteSheetId: 0
    spriteSheetId: 0
    spriteSheetX: 0
    spriteSheetY: 0
    extractRegion: 0
    regionX: 0
    regionY: 0
    regionW: 0
    regionH: 0
    regionId: 0
    colliderType: 0
    colliderData: []
    boxColliderMin: {x: 0, y: 0}
    boxColliderMax: {x: 0, y: 0}
    polyColliderIslands: []
    polyColliderCap: 1
    colliderConvex: 0
    colliderSmoothSphereCollisions: 0
    colliderColor: 0
    attachPoints: []
  - name: 1
    disableTrimming: 0
    additive: 0
    scale: {x: 1, y: 1, z: 1}
    texture: {fileID: 2800000, guid: 8d8926bc98558454dad2a41cec3b832e, type: 3}
    materialId: 0
    anchor: 4
    anchorX: 0
    anchorY: 0
    overrideMesh: {fileID: 0}
    doubleSidedSprite: 0
    customSpriteGeometry: 0
    geometryIslands: []
    dice: 0
    diceUnitX: 64
    diceUnitY: 64
    diceFilter: 0
    pad: 0
    extraPadding: 0
    source: 0
    fromSpriteSheet: 0
    hasSpriteSheetId: 0
    spriteSheetId: 0
    spriteSheetX: 0
    spriteSheetY: 0
    extractRegion: 0
    regionX: 0
    regionY: 0
    regionW: 0
    regionH: 0
    regionId: 0
    colliderType: 0
    colliderData: []
    boxColliderMin: {x: 0, y: 0}
    boxColliderMax: {x: 0, y: 0}
    polyColliderIslands: []
    polyColliderCap: 1
    colliderConvex: 0
    colliderSmoothSphereCollisions: 0
    colliderColor: 0
    attachPoints: []
  - name: 0
    disableTrimming: 0
    additive: 0
    scale: {x: 1, y: 1, z: 1}
    texture: {fileID: 2800000, guid: a55d8e9f1a1f891439778c5546bc2d5e, type: 3}
    materialId: 0
    anchor: 4
    anchorX: 0
    anchorY: 0
    overrideMesh: {fileID: 0}
    doubleSidedSprite: 0
    customSpriteGeometry: 0
    geometryIslands: []
    dice: 0
    diceUnitX: 64
    diceUnitY: 64
    diceFilter: 0
    pad: 0
    extraPadding: 0
    source: 0
    fromSpriteSheet: 0
    hasSpriteSheetId: 0
    spriteSheetId: 0
    spriteSheetX: 0
    spriteSheetY: 0
    extractRegion: 0
    regionX: 0
    regionY: 0
    regionW: 0
    regionH: 0
    regionId: 0
    colliderType: 0
    colliderData: []
    boxColliderMin: {x: 0, y: 0}
    boxColliderMax: {x: 0, y: 0}
    polyColliderIslands: []
    polyColliderCap: 1
    colliderConvex: 0
    colliderSmoothSphereCollisions: 0
    colliderColor: 0
    attachPoints: []
  - name: 5
    disableTrimming: 0
    additive: 0
    scale: {x: 1, y: 1, z: 1}
    texture: {fileID: 2800000, guid: 7f7f479f76bca514aa57665dfc1328d3, type: 3}
    materialId: 0
    anchor: 4
    anchorX: 0
    anchorY: 0
    overrideMesh: {fileID: 0}
    doubleSidedSprite: 0
    customSpriteGeometry: 0
    geometryIslands: []
    dice: 0
    diceUnitX: 64
    diceUnitY: 64
    diceFilter: 0
    pad: 0
    extraPadding: 0
    source: 0
    fromSpriteSheet: 0
    hasSpriteSheetId: 0
    spriteSheetId: 0
    spriteSheetX: 0
    spriteSheetY: 0
    extractRegion: 0
    regionX: 0
    regionY: 0
    regionW: 0
    regionH: 0
    regionId: 0
    colliderType: 0
    colliderData: []
    boxColliderMin: {x: 0, y: 0}
    boxColliderMax: {x: 0, y: 0}
    polyColliderIslands: []
    polyColliderCap: 1
    colliderConvex: 0
    colliderSmoothSphereCollisions: 0
    colliderColor: 0
    attachPoints: []
  - name: 3
    disableTrimming: 0
    additive: 0
    scale: {x: 1, y: 1, z: 1}
    texture: {fileID: 2800000, guid: 4aa8ec1800ec23d4cbfbe95aab83dad2, type: 3}
    materialId: 0
    anchor: 4
    anchorX: 0
    anchorY: 0
    overrideMesh: {fileID: 0}
    doubleSidedSprite: 0
    customSpriteGeometry: 0
    geometryIslands: []
    dice: 0
    diceUnitX: 64
    diceUnitY: 64
    diceFilter: 0
    pad: 0
    extraPadding: 0
    source: 0
    fromSpriteSheet: 0
    hasSpriteSheetId: 0
    spriteSheetId: 0
    spriteSheetX: 0
    spriteSheetY: 0
    extractRegion: 0
    regionX: 0
    regionY: 0
    regionW: 0
    regionH: 0
    regionId: 0
    colliderType: 0
    colliderData: []
    boxColliderMin: {x: 0, y: 0}
    boxColliderMax: {x: 0, y: 0}
    polyColliderIslands: []
    polyColliderCap: 1
    colliderConvex: 0
    colliderSmoothSphereCollisions: 0
    colliderColor: 0
    attachPoints: []
  - name: 8
    disableTrimming: 0
    additive: 0
    scale: {x: 1, y: 1, z: 1}
    texture: {fileID: 2800000, guid: a084d2bbf5be02f4097793bfb1b2ad4d, type: 3}
    materialId: 0
    anchor: 4
    anchorX: 0
    anchorY: 0
    overrideMesh: {fileID: 0}
    doubleSidedSprite: 0
    customSpriteGeometry: 0
    geometryIslands: []
    dice: 0
    diceUnitX: 64
    diceUnitY: 64
    diceFilter: 0
    pad: 0
    extraPadding: 0
    source: 0
    fromSpriteSheet: 0
    hasSpriteSheetId: 0
    spriteSheetId: 0
    spriteSheetX: 0
    spriteSheetY: 0
    extractRegion: 0
    regionX: 0
    regionY: 0
    regionW: 0
    regionH: 0
    regionId: 0
    colliderType: 0
    colliderData: []
    boxColliderMin: {x: 0, y: 0}
    boxColliderMax: {x: 0, y: 0}
    polyColliderIslands: []
    polyColliderCap: 1
    colliderConvex: 0
    colliderSmoothSphereCollisions: 0
    colliderColor: 0
    attachPoints: []
  - name: 2
    disableTrimming: 0
    additive: 0
    scale: {x: 1, y: 1, z: 1}
    texture: {fileID: 2800000, guid: 1abd72d24a41dc04ca5a33e7515e0305, type: 3}
    materialId: 0
    anchor: 4
    anchorX: 0
    anchorY: 0
    overrideMesh: {fileID: 0}
    doubleSidedSprite: 0
    customSpriteGeometry: 0
    geometryIslands: []
    dice: 0
    diceUnitX: 64
    diceUnitY: 64
    diceFilter: 0
    pad: 0
    extraPadding: 0
    source: 0
    fromSpriteSheet: 0
    hasSpriteSheetId: 0
    spriteSheetId: 0
    spriteSheetX: 0
    spriteSheetY: 0
    extractRegion: 0
    regionX: 0
    regionY: 0
    regionW: 0
    regionH: 0
    regionId: 0
    colliderType: 0
    colliderData: []
    boxColliderMin: {x: 0, y: 0}
    boxColliderMax: {x: 0, y: 0}
    polyColliderIslands: []
    polyColliderCap: 1
    colliderConvex: 0
    colliderSmoothSphereCollisions: 0
    colliderColor: 0
    attachPoints: []
  - name: 9
    disableTrimming: 0
    additive: 0
    scale: {x: 1, y: 1, z: 1}
    texture: {fileID: 2800000, guid: b84f8782cac47314f8f289028932c715, type: 3}
    materialId: 0
    anchor: 4
    anchorX: 0
    anchorY: 0
    overrideMesh: {fileID: 0}
    doubleSidedSprite: 0
    customSpriteGeometry: 0
    geometryIslands: []
    dice: 0
    diceUnitX: 64
    diceUnitY: 64
    diceFilter: 0
    pad: 0
    extraPadding: 0
    source: 0
    fromSpriteSheet: 0
    hasSpriteSheetId: 0
    spriteSheetId: 0
    spriteSheetX: 0
    spriteSheetY: 0
    extractRegion: 0
    regionX: 0
    regionY: 0
    regionW: 0
    regionH: 0
    regionId: 0
    colliderType: 0
    colliderData: []
    boxColliderMin: {x: 0, y: 0}
    boxColliderMax: {x: 0, y: 0}
    polyColliderIslands: []
    polyColliderCap: 1
    colliderConvex: 0
    colliderSmoothSphereCollisions: 0
    colliderColor: 0
    attachPoints: []
  - name: 4
    disableTrimming: 0
    additive: 0
    scale: {x: 1, y: 1, z: 1}
    texture: {fileID: 2800000, guid: fde5a8c2ff4688f4396952b56f66f400, type: 3}
    materialId: 0
    anchor: 4
    anchorX: 0
    anchorY: 0
    overrideMesh: {fileID: 0}
    doubleSidedSprite: 0
    customSpriteGeometry: 0
    geometryIslands: []
    dice: 0
    diceUnitX: 64
    diceUnitY: 64
    diceFilter: 0
    pad: 0
    extraPadding: 0
    source: 0
    fromSpriteSheet: 0
    hasSpriteSheetId: 0
    spriteSheetId: 0
    spriteSheetX: 0
    spriteSheetY: 0
    extractRegion: 0
    regionX: 0
    regionY: 0
    regionW: 0
    regionH: 0
    regionId: 0
    colliderType: 0
    colliderData: []
    boxColliderMin: {x: 0, y: 0}
    boxColliderMax: {x: 0, y: 0}
    polyColliderIslands: []
    polyColliderCap: 1
    colliderConvex: 0
    colliderSmoothSphereCollisions: 0
    colliderColor: 0
    attachPoints: []
  spriteCollection: {fileID: 114494391134380312, guid: a8f4ba6055d588143b84f9e497472ebf,
    type: 2}
  premultipliedAlpha: 0
  altMaterials:
  - {fileID: 2100000, guid: cc2c36a40134f624497ccda1812451f0, type: 2}
  atlasMaterials:
  - {fileID: 2100000, guid: cc2c36a40134f624497ccda1812451f0, type: 2}
  atlasTextures:
  - {fileID: 2800000, guid: 6d81f879c11cc064ab2550ae57a18b0e, type: 3}
  atlasTextureFiles: []
  useTk2dCamera: 0
  targetHeight: 640
  targetOrthoSize: 10
  sizeDef:
    type: 1
    orthoSize: 10
    pixelsPerMeter: 1
    width: 960
    height: 640
  globalScale: 1
  globalTextureRescale: 1
  attachPointTestSprites: []
  pixelPerfectPointSampled: 0
  filterMode: 1
  wrapMode: 1
  userDefinedTextureSettings: 0
  mipmapEnabled: 0
  anisoLevel: 1
  physicsEngine: 0
  physicsDepth: 0.1
  disableTrimming: 0
  disableRotation: 0
  normalGenerationMode: 0
  padAmount: -1
  autoUpdate: 1
  editorDisplayScale: 1
  version: 4
  assetName: 
  linkedSpriteCollections: []
