%YAML 1.1
%TAG !u! tag:unity3d.com,2011:
--- !u!1001 &100100000
Prefab:
  m_ObjectHideFlags: 1
  serializedVersion: 2
  m_Modification:
    m_TransformParent: {fileID: 0}
    m_Modifications: []
    m_RemovedComponents: []
  m_ParentPrefab: {fileID: 0}
  m_RootGameObject: {fileID: 1924264422885776}
  m_IsPrefabParent: 1
--- !u!1 &1924264422885776
GameObject:
  m_ObjectHideFlags: 0
  m_PrefabParentObject: {fileID: 0}
  m_PrefabInternal: {fileID: 100100000}
  serializedVersion: 5
  m_Component:
  - component: {fileID: 4600392112837102}
  - component: {fileID: 114093733817711428}
  m_Layer: 0
  m_Name: Title
  m_TagString: Untagged
  m_Icon: {fileID: 0}
  m_NavMeshLayer: 0
  m_StaticEditorFlags: 0
  m_IsActive: 1
--- !u!4 &4600392112837102
Transform:
  m_ObjectHideFlags: 1
  m_PrefabParentObject: {fileID: 0}
  m_PrefabInternal: {fileID: 100100000}
  m_GameObject: {fileID: 1924264422885776}
  m_LocalRotation: {x: 0, y: 0, z: 0, w: 1}
  m_LocalPosition: {x: 0, y: 0, z: 0}
  m_LocalScale: {x: 1, y: 1, z: 1}
  m_Children: []
  m_Father: {fileID: 0}
  m_RootOrder: 0
  m_LocalEulerAnglesHint: {x: 0, y: 0, z: 0}
--- !u!114 &114093733817711428
MonoBehaviour:
  m_ObjectHideFlags: 1
  m_PrefabParentObject: {fileID: 0}
  m_PrefabInternal: {fileID: 100100000}
  m_GameObject: {fileID: 1924264422885776}
  m_Enabled: 1
  m_EditorHideFlags: 0
  m_Script: {fileID: 11500000, guid: d546f34a90531a14eaba82a43b05b86b, type: 3}
  m_Name: 
  m_EditorClassIdentifier: 
  version: 3
  materialIdsValid: 1
  needMaterialInstance: 0
  spriteDefinitions:
  - name: T10
    boundsData:
    - {x: 0, y: -0.5, z: 0}
    - {x: 106, y: 17, z: 0}
    untrimmedBoundsData:
    - {x: 0, y: -0.5, z: 0}
    - {x: 106, y: 17, z: 0}
    texelSize: {x: 1, y: 1}
    positions:
    - {x: -53, y: -9, z: 0}
    - {x: 53, y: -9, z: 0}
    - {x: -53, y: 8, z: 0}
    - {x: 53, y: 8, z: 0}
    normals: []
    tangents: []
    uvs:
    - {x: 0.96093845, y: 0.36035255}
    - {x: 0.96093845, y: 0.4638662}
    - {x: 0.9775381, y: 0.36035255}
    - {x: 0.9775381, y: 0.4638662}
    normalizedUvs:
    - {x: 0, y: 0}
    - {x: 0, y: 1}
    - {x: 1, y: 0}
    - {x: 1, y: 1}
    indices: 000000000300000001000000020000000300000000000000
    material: {fileID: 2100000, guid: a73bff62bc341dc4e8f105e73b537656, type: 2}
    materialId: 0
    materialIndexData: 000000000000000006000000
    sourceTextureGUID: 47c3bc6277cf4ea45816acc91a1f67f4
    extractRegion: 0
    regionX: 0
    regionY: 0
    regionW: 0
    regionH: 0
    flipped: 1
    complexGeometry: 0
    physicsEngine: 0
    colliderType: 0
    customColliders: []
    colliderVertices: []
    colliderIndicesFwd: 
    colliderIndicesBack: 
    colliderConvex: 0
    colliderSmoothSphereCollisions: 0
    polygonCollider2D: []
    edgeCollider2D: []
    attachPoints: []
  - name: T5
    boundsData:
    - {x: 0, y: 0, z: 0}
    - {x: 74, y: 68, z: 0}
    untrimmedBoundsData:
    - {x: 0, y: 0, z: 0}
    - {x: 74, y: 68, z: 0}
    texelSize: {x: 1, y: 1}
    positions:
    - {x: -37, y: -34, z: 0}
    - {x: 37, y: -34, z: 0}
    - {x: -37, y: 34, z: 0}
    - {x: 37, y: 34, z: 0}
    normals: []
    tangents: []
    uvs:
    - {x: 0.38281348, y: 0.4082041}
    - {x: 0.45507714, y: 0.4082041}
    - {x: 0.38281348, y: 0.4746084}
    - {x: 0.45507714, y: 0.4746084}
    normalizedUvs:
    - {x: 0, y: 0}
    - {x: 1, y: 0}
    - {x: 0, y: 1}
    - {x: 1, y: 1}
    indices: 000000000300000001000000020000000300000000000000
    material: {fileID: 2100000, guid: a73bff62bc341dc4e8f105e73b537656, type: 2}
    materialId: 0
    materialIndexData: 000000000000000006000000
    sourceTextureGUID: 651284eccb5dcc34cae481d3de9387f0
    extractRegion: 0
    regionX: 0
    regionY: 0
    regionW: 0
    regionH: 0
    flipped: 0
    complexGeometry: 0
    physicsEngine: 0
    colliderType: 0
    customColliders: []
    colliderVertices: []
    colliderIndicesFwd: 
    colliderIndicesBack: 
    colliderConvex: 0
    colliderSmoothSphereCollisions: 0
    polygonCollider2D: []
    edgeCollider2D: []
    attachPoints: []
  - name: T9
    boundsData:
    - {x: 0, y: 0, z: 0}
    - {x: 206, y: 180, z: 0}
    untrimmedBoundsData:
    - {x: 0, y: 0, z: 0}
    - {x: 206, y: 180, z: 0}
    texelSize: {x: 1, y: 1}
    positions:
    - {x: -103, y: -90, z: 0}
    - {x: 103, y: -90, z: 0}
    - {x: -103, y: 90, z: 0}
    - {x: 103, y: 90, z: 0}
    normals: []
    tangents: []
    uvs:
    - {x: 0.13183692, y: 0.5566416}
    - {x: 0.13183692, y: 0.75781155}
    - {x: 0.3076162, y: 0.5566416}
    - {x: 0.3076162, y: 0.75781155}
    normalizedUvs:
    - {x: 0, y: 0}
    - {x: 0, y: 1}
    - {x: 1, y: 0}
    - {x: 1, y: 1}
    indices: 000000000300000001000000020000000300000000000000
    material: {fileID: 2100000, guid: a73bff62bc341dc4e8f105e73b537656, type: 2}
    materialId: 0
    materialIndexData: 000000000000000006000000
    sourceTextureGUID: 12c3134727e3a454c91bfc2f548a5d3b
    extractRegion: 0
    regionX: 0
    regionY: 0
    regionW: 0
    regionH: 0
    flipped: 1
    complexGeometry: 0
    physicsEngine: 0
    colliderType: 0
    customColliders: []
    colliderVertices: []
    colliderIndicesFwd: 
    colliderIndicesBack: 
    colliderConvex: 0
    colliderSmoothSphereCollisions: 0
    polygonCollider2D: []
    edgeCollider2D: []
    attachPoints: []
  - name: T15
    boundsData:
    - {x: 0.5, y: 0, z: 0}
    - {x: 133, y: 196, z: 0}
    untrimmedBoundsData:
    - {x: 0, y: 0, z: 0}
    - {x: 134, y: 196, z: 0}
    texelSize: {x: 1, y: 1}
    positions:
    - {x: -66, y: -98, z: 0}
    - {x: 67, y: -98, z: 0}
    - {x: -66, y: 98, z: 0}
    - {x: 67, y: 98, z: 0}
    normals: []
    tangents: []
    uvs:
    - {x: 0.8271494, y: 0.36035255}
    - {x: 0.9570303, y: 0.36035255}
    - {x: 0.8271494, y: 0.55175686}
    - {x: 0.9570303, y: 0.55175686}
    normalizedUvs:
    - {x: 0, y: 0}
    - {x: 1, y: 0}
    - {x: 0, y: 1}
    - {x: 1, y: 1}
    indices: 000000000300000001000000020000000300000000000000
    material: {fileID: 2100000, guid: a73bff62bc341dc4e8f105e73b537656, type: 2}
    materialId: 0
    materialIndexData: 000000000000000006000000
    sourceTextureGUID: 8be7eac083528564ab0b01ed8d6b3547
    extractRegion: 0
    regionX: 0
    regionY: 0
    regionW: 0
    regionH: 0
    flipped: 0
    complexGeometry: 0
    physicsEngine: 0
    colliderType: 0
    customColliders: []
    colliderVertices: []
    colliderIndicesFwd: 
    colliderIndicesBack: 
    colliderConvex: 0
    colliderSmoothSphereCollisions: 0
    polygonCollider2D: []
    edgeCollider2D: []
    attachPoints: []
  - name: T21
    boundsData:
    - {x: 0, y: 0, z: 0}
    - {x: 46, y: 52, z: 0}
    untrimmedBoundsData:
    - {x: 0, y: 0, z: 0}
    - {x: 46, y: 52, z: 0}
    texelSize: {x: 1, y: 1}
    positions:
    - {x: -23, y: -26, z: 0}
    - {x: 23, y: -26, z: 0}
    - {x: -23, y: 26, z: 0}
    - {x: 23, y: 26, z: 0}
    normals: []
    tangents: []
    uvs:
    - {x: 0.0019541015, y: 0.70312595}
    - {x: 0.046874024, y: 0.70312595}
    - {x: 0.0019541015, y: 0.7539053}
    - {x: 0.046874024, y: 0.7539053}
    normalizedUvs:
    - {x: 0, y: 0}
    - {x: 1, y: 0}
    - {x: 0, y: 1}
    - {x: 1, y: 1}
    indices: 000000000300000001000000020000000300000000000000
    material: {fileID: 2100000, guid: a73bff62bc341dc4e8f105e73b537656, type: 2}
    materialId: 0
    materialIndexData: 000000000000000006000000
    sourceTextureGUID: bbe9a9cf9a02ce0478f042f4984b6496
    extractRegion: 0
    regionX: 0
    regionY: 0
    regionW: 0
    regionH: 0
    flipped: 0
    complexGeometry: 0
    physicsEngine: 0
    colliderType: 0
    customColliders: []
    colliderVertices: []
    colliderIndicesFwd: 
    colliderIndicesBack: 
    colliderConvex: 0
    colliderSmoothSphereCollisions: 0
    polygonCollider2D: []
    edgeCollider2D: []
    attachPoints: []
  - name: T4
    boundsData:
    - {x: 0, y: 0, z: 0}
    - {x: 252, y: 192, z: 0}
    untrimmedBoundsData:
    - {x: 0, y: 0, z: 0}
    - {x: 252, y: 192, z: 0}
    texelSize: {x: 1, y: 1}
    positions:
    - {x: -126, y: -96, z: 0}
    - {x: 126, y: -96, z: 0}
    - {x: -126, y: 96, z: 0}
    - {x: 126, y: 96, z: 0}
    normals: []
    tangents: []
    uvs:
    - {x: 0.0019541015, y: 0.76269627}
    - {x: 0.24804589, y: 0.76269627}
    - {x: 0.0019541015, y: 0.95019436}
    - {x: 0.24804589, y: 0.95019436}
    normalizedUvs:
    - {x: 0, y: 0}
    - {x: 1, y: 0}
    - {x: 0, y: 1}
    - {x: 1, y: 1}
    indices: 000000000300000001000000020000000300000000000000
    material: {fileID: 2100000, guid: a73bff62bc341dc4e8f105e73b537656, type: 2}
    materialId: 0
    materialIndexData: 000000000000000006000000
    sourceTextureGUID: f001a8fd5c6b1014292542860231f7fb
    extractRegion: 0
    regionX: 0
    regionY: 0
    regionW: 0
    regionH: 0
    flipped: 0
    complexGeometry: 0
    physicsEngine: 0
    colliderType: 0
    customColliders: []
    colliderVertices: []
    colliderIndicesFwd: 
    colliderIndicesBack: 
    colliderConvex: 0
    colliderSmoothSphereCollisions: 0
    polygonCollider2D: []
    edgeCollider2D: []
    attachPoints: []
  - name: T7
    boundsData:
    - {x: 0, y: -0.5, z: 0}
    - {x: 72, y: 39, z: 0}
    untrimmedBoundsData:
    - {x: 0, y: -0.5, z: 0}
    - {x: 72, y: 39, z: 0}
    texelSize: {x: 1, y: 1}
    positions:
    - {x: -36, y: -20, z: 0}
    - {x: 36, y: -20, z: 0}
    - {x: -36, y: 19, z: 0}
    - {x: 36, y: 19, z: 0}
    normals: []
    tangents: []
    uvs:
    - {x: 0.94531345, y: 0.6884775}
    - {x: 0.94531345, y: 0.7587881}
    - {x: 0.9833975, y: 0.6884775}
    - {x: 0.9833975, y: 0.7587881}
    normalizedUvs:
    - {x: 0, y: 0}
    - {x: 0, y: 1}
    - {x: 1, y: 0}
    - {x: 1, y: 1}
    indices: 000000000300000001000000020000000300000000000000
    material: {fileID: 2100000, guid: a73bff62bc341dc4e8f105e73b537656, type: 2}
    materialId: 0
    materialIndexData: 000000000000000006000000
    sourceTextureGUID: 65795bc453c91c8489b3c7aec10bdc62
    extractRegion: 0
    regionX: 0
    regionY: 0
    regionW: 0
    regionH: 0
    flipped: 1
    complexGeometry: 0
    physicsEngine: 0
    colliderType: 0
    customColliders: []
    colliderVertices: []
    colliderIndicesFwd: 
    colliderIndicesBack: 
    colliderConvex: 0
    colliderSmoothSphereCollisions: 0
    polygonCollider2D: []
    edgeCollider2D: []
    attachPoints: []
  - name: T8
    boundsData:
    - {x: 0.5, y: 0, z: 0}
    - {x: 35, y: 34, z: 0}
    untrimmedBoundsData:
    - {x: 0.5, y: 0, z: 0}
    - {x: 35, y: 34, z: 0}
    texelSize: {x: 1, y: 1}
    positions:
    - {x: -17, y: -17, z: 0}
    - {x: 18, y: -17, z: 0}
    - {x: -17, y: 17, z: 0}
    - {x: 18, y: 17, z: 0}
    normals: []
    tangents: []
    uvs:
    - {x: 0.96093845, y: 0.53125095}
    - {x: 0.99511623, y: 0.53125095}
    - {x: 0.96093845, y: 0.5644522}
    - {x: 0.99511623, y: 0.5644522}
    normalizedUvs:
    - {x: 0, y: 0}
    - {x: 1, y: 0}
    - {x: 0, y: 1}
    - {x: 1, y: 1}
    indices: 000000000300000001000000020000000300000000000000
    material: {fileID: 2100000, guid: a73bff62bc341dc4e8f105e73b537656, type: 2}
    materialId: 0
    materialIndexData: 000000000000000006000000
    sourceTextureGUID: 6c874724141544c48945d15a2ebfc153
    extractRegion: 0
    regionX: 0
    regionY: 0
    regionW: 0
    regionH: 0
    flipped: 0
    complexGeometry: 0
    physicsEngine: 0
    colliderType: 0
    customColliders: []
    colliderVertices: []
    colliderIndicesFwd: 
    colliderIndicesBack: 
    colliderConvex: 0
    colliderSmoothSphereCollisions: 0
    polygonCollider2D: []
    edgeCollider2D: []
    attachPoints: []
  - name: T19
    boundsData:
    - {x: 0.5, y: -0.5, z: 0}
    - {x: 181, y: 161, z: 0}
    untrimmedBoundsData:
    - {x: 0.5, y: -0.5, z: 0}
    - {x: 181, y: 161, z: 0}
    texelSize: {x: 1, y: 1}
    positions:
    - {x: -90, y: -81, z: 0}
    - {x: 91, y: -81, z: 0}
    - {x: -90, y: 80, z: 0}
    - {x: 91, y: 80, z: 0}
    normals: []
    tangents: []
    uvs:
    - {x: 0.8378916, y: 0.0019541015}
    - {x: 0.8378916, y: 0.17870995}
    - {x: 0.99511623, y: 0.0019541015}
    - {x: 0.99511623, y: 0.17870995}
    normalizedUvs:
    - {x: 0, y: 0}
    - {x: 0, y: 1}
    - {x: 1, y: 0}
    - {x: 1, y: 1}
    indices: 000000000300000001000000020000000300000000000000
    material: {fileID: 2100000, guid: a73bff62bc341dc4e8f105e73b537656, type: 2}
    materialId: 0
    materialIndexData: 000000000000000006000000
    sourceTextureGUID: 5eac717eb21616d43ab419ca8125c36d
    extractRegion: 0
    regionX: 0
    regionY: 0
    regionW: 0
    regionH: 0
    flipped: 1
    complexGeometry: 0
    physicsEngine: 0
    colliderType: 0
    customColliders: []
    colliderVertices: []
    colliderIndicesFwd: 
    colliderIndicesBack: 
    colliderConvex: 0
    colliderSmoothSphereCollisions: 0
    polygonCollider2D: []
    edgeCollider2D: []
    attachPoints: []
  - name: T16
    boundsData:
    - {x: 0, y: -0.5, z: 0}
    - {x: 82, y: 95, z: 0}
    untrimmedBoundsData:
    - {x: 0, y: -0.5, z: 0}
    - {x: 82, y: 95, z: 0}
    texelSize: {x: 1, y: 1}
    positions:
    - {x: -41, y: -48, z: 0}
    - {x: 41, y: -48, z: 0}
    - {x: -41, y: 47, z: 0}
    - {x: 41, y: 47, z: 0}
    normals: []
    tangents: []
    uvs:
    - {x: 0.38281348, y: 0.32421973}
    - {x: 0.38281348, y: 0.4042959}
    - {x: 0.47558495, y: 0.32421973}
    - {x: 0.47558495, y: 0.4042959}
    normalizedUvs:
    - {x: 0, y: 0}
    - {x: 0, y: 1}
    - {x: 1, y: 0}
    - {x: 1, y: 1}
    indices: 000000000300000001000000020000000300000000000000
    material: {fileID: 2100000, guid: a73bff62bc341dc4e8f105e73b537656, type: 2}
    materialId: 0
    materialIndexData: 000000000000000006000000
    sourceTextureGUID: 4d8a5e81cb0d678408428be2ae7ad546
    extractRegion: 0
    regionX: 0
    regionY: 0
    regionW: 0
    regionH: 0
    flipped: 1
    complexGeometry: 0
    physicsEngine: 0
    colliderType: 0
    customColliders: []
    colliderVertices: []
    colliderIndicesFwd: 
    colliderIndicesBack: 
    colliderConvex: 0
    colliderSmoothSphereCollisions: 0
    polygonCollider2D: []
    edgeCollider2D: []
    attachPoints: []
  - name: T18
    boundsData:
    - {x: 1, y: 0, z: 0}
    - {x: 90, y: 102, z: 0}
    untrimmedBoundsData:
    - {x: 0.5, y: 0, z: 0}
    - {x: 91, y: 102, z: 0}
    texelSize: {x: 1, y: 1}
    positions:
    - {x: -44, y: -51, z: 0}
    - {x: 46, y: -51, z: 0}
    - {x: -44, y: 51, z: 0}
    - {x: 46, y: 51, z: 0}
    normals: []
    tangents: []
    uvs:
    - {x: 0.2910166, y: 0.32421973}
    - {x: 0.37890527, y: 0.32421973}
    - {x: 0.2910166, y: 0.42382714}
    - {x: 0.37890527, y: 0.42382714}
    normalizedUvs:
    - {x: 0, y: 0}
    - {x: 1, y: 0}
    - {x: 0, y: 1}
    - {x: 1, y: 1}
    indices: 000000000300000001000000020000000300000000000000
    material: {fileID: 2100000, guid: a73bff62bc341dc4e8f105e73b537656, type: 2}
    materialId: 0
    materialIndexData: 000000000000000006000000
    sourceTextureGUID: dccb970407f74f346b42a28ed1a236be
    extractRegion: 0
    regionX: 0
    regionY: 0
    regionW: 0
    regionH: 0
    flipped: 0
    complexGeometry: 0
    physicsEngine: 0
    colliderType: 0
    customColliders: []
    colliderVertices: []
    colliderIndicesFwd: 
    colliderIndicesBack: 
    colliderConvex: 0
    colliderSmoothSphereCollisions: 0
    polygonCollider2D: []
    edgeCollider2D: []
    attachPoints: []
  - name: T17
    boundsData:
    - {x: 0.5, y: 0, z: 0}
    - {x: 61, y: 22, z: 0}
    untrimmedBoundsData:
    - {x: 0.5, y: 0, z: 0}
    - {x: 61, y: 22, z: 0}
    texelSize: {x: 1, y: 1}
    positions:
    - {x: -30, y: -11, z: 0}
    - {x: 31, y: -11, z: 0}
    - {x: -30, y: 11, z: 0}
    - {x: 31, y: 11, z: 0}
    normals: []
    tangents: []
    uvs:
    - {x: 0.96093845, y: 0.46777442}
    - {x: 0.96093845, y: 0.5273428}
    - {x: 0.9824209, y: 0.46777442}
    - {x: 0.9824209, y: 0.5273428}
    normalizedUvs:
    - {x: 0, y: 0}
    - {x: 0, y: 1}
    - {x: 1, y: 0}
    - {x: 1, y: 1}
    indices: 000000000300000001000000020000000300000000000000
    material: {fileID: 2100000, guid: a73bff62bc341dc4e8f105e73b537656, type: 2}
    materialId: 0
    materialIndexData: 000000000000000006000000
    sourceTextureGUID: 0ac2bdb420c24144a9a2ee58d6477be7
    extractRegion: 0
    regionX: 0
    regionY: 0
    regionW: 0
    regionH: 0
    flipped: 1
    complexGeometry: 0
    physicsEngine: 0
    colliderType: 0
    customColliders: []
    colliderVertices: []
    colliderIndicesFwd: 
    colliderIndicesBack: 
    colliderConvex: 0
    colliderSmoothSphereCollisions: 0
    polygonCollider2D: []
    edgeCollider2D: []
    attachPoints: []
  - name: T6
    boundsData:
    - {x: 0.5, y: -0.5, z: 0}
    - {x: 53, y: 19, z: 0}
    untrimmedBoundsData:
    - {x: 0.5, y: -0.5, z: 0}
    - {x: 53, y: 19, z: 0}
    texelSize: {x: 1, y: 1}
    positions:
    - {x: -26, y: -10, z: 0}
    - {x: 27, y: -10, z: 0}
    - {x: -26, y: 9, z: 0}
    - {x: 27, y: 9, z: 0}
    normals: []
    tangents: []
    uvs:
    - {x: 0.0019541015, y: 0.9541025}
    - {x: 0.05370996, y: 0.9541025}
    - {x: 0.0019541015, y: 0.9726553}
    - {x: 0.05370996, y: 0.9726553}
    normalizedUvs:
    - {x: 0, y: 0}
    - {x: 1, y: 0}
    - {x: 0, y: 1}
    - {x: 1, y: 1}
    indices: 000000000300000001000000020000000300000000000000
    material: {fileID: 2100000, guid: a73bff62bc341dc4e8f105e73b537656, type: 2}
    materialId: 0
    materialIndexData: 000000000000000006000000
    sourceTextureGUID: 3354f1d41511b1740a17db7bccdcb1ab
    extractRegion: 0
    regionX: 0
    regionY: 0
    regionW: 0
    regionH: 0
    flipped: 0
    complexGeometry: 0
    physicsEngine: 0
    colliderType: 0
    customColliders: []
    colliderVertices: []
    colliderIndicesFwd: 
    colliderIndicesBack: 
    colliderConvex: 0
    colliderSmoothSphereCollisions: 0
    polygonCollider2D: []
    edgeCollider2D: []
    attachPoints: []
  - name: T13
    boundsData:
    - {x: 0.5, y: 0, z: 0}
    - {x: 139, y: 96, z: 0}
    untrimmedBoundsData:
    - {x: 0.5, y: 0, z: 0}
    - {x: 139, y: 96, z: 0}
    texelSize: {x: 1, y: 1}
    positions:
    - {x: -69, y: -48, z: 0}
    - {x: 70, y: -48, z: 0}
    - {x: -69, y: 48, z: 0}
    - {x: 70, y: 48, z: 0}
    normals: []
    tangents: []
    uvs:
    - {x: 0.19336036, y: 0.32421973}
    - {x: 0.19336036, y: 0.45995995}
    - {x: 0.2871084, y: 0.32421973}
    - {x: 0.2871084, y: 0.45995995}
    normalizedUvs:
    - {x: 0, y: 0}
    - {x: 0, y: 1}
    - {x: 1, y: 0}
    - {x: 1, y: 1}
    indices: 000000000300000001000000020000000300000000000000
    material: {fileID: 2100000, guid: a73bff62bc341dc4e8f105e73b537656, type: 2}
    materialId: 0
    materialIndexData: 000000000000000006000000
    sourceTextureGUID: ac466c0d8e8d1734b93b107ba163b268
    extractRegion: 0
    regionX: 0
    regionY: 0
    regionW: 0
    regionH: 0
    flipped: 1
    complexGeometry: 0
    physicsEngine: 0
    colliderType: 0
    customColliders: []
    colliderVertices: []
    colliderIndicesFwd: 
    colliderIndicesBack: 
    colliderConvex: 0
    colliderSmoothSphereCollisions: 0
    polygonCollider2D: []
    edgeCollider2D: []
    attachPoints: []
  - name: T3
    boundsData:
    - {x: 0, y: -0.5, z: 0}
    - {x: 62, y: 71, z: 0}
    untrimmedBoundsData:
    - {x: 0, y: -0.5, z: 0}
    - {x: 62, y: 71, z: 0}
    texelSize: {x: 1, y: 1}
    positions:
    - {x: -31, y: -36, z: 0}
    - {x: 31, y: -36, z: 0}
    - {x: -31, y: 35, z: 0}
    - {x: 31, y: 35, z: 0}
    normals: []
    tangents: []
    uvs:
    - {x: 0.050782226, y: 0.69629}
    - {x: 0.050782226, y: 0.756835}
    - {x: 0.12011621, y: 0.69629}
    - {x: 0.12011621, y: 0.756835}
    normalizedUvs:
    - {x: 0, y: 0}
    - {x: 0, y: 1}
    - {x: 1, y: 0}
    - {x: 1, y: 1}
    indices: 000000000300000001000000020000000300000000000000
    material: {fileID: 2100000, guid: a73bff62bc341dc4e8f105e73b537656, type: 2}
    materialId: 0
    materialIndexData: 000000000000000006000000
    sourceTextureGUID: 20fe528da5c4ff54999874ff3a890644
    extractRegion: 0
    regionX: 0
    regionY: 0
    regionW: 0
    regionH: 0
    flipped: 1
    complexGeometry: 0
    physicsEngine: 0
    colliderType: 0
    customColliders: []
    colliderVertices: []
    colliderIndicesFwd: 
    colliderIndicesBack: 
    colliderConvex: 0
    colliderSmoothSphereCollisions: 0
    polygonCollider2D: []
    edgeCollider2D: []
    attachPoints: []
  - name: T11
    boundsData:
    - {x: 0.5, y: -0.5, z: 0}
    - {x: 133, y: 73, z: 0}
    untrimmedBoundsData:
    - {x: 0.5, y: -0.5, z: 0}
    - {x: 133, y: 73, z: 0}
    texelSize: {x: 1, y: 1}
    positions:
    - {x: -66, y: -37, z: 0}
    - {x: 67, y: -37, z: 0}
    - {x: -66, y: 36, z: 0}
    - {x: 67, y: 36, z: 0}
    normals: []
    tangents: []
    uvs:
    - {x: 0.19336036, y: 0.46386817}
    - {x: 0.3232412, y: 0.46386817}
    - {x: 0.19336036, y: 0.5351553}
    - {x: 0.3232412, y: 0.5351553}
    normalizedUvs:
    - {x: 0, y: 0}
    - {x: 1, y: 0}
    - {x: 0, y: 1}
    - {x: 1, y: 1}
    indices: 000000000300000001000000020000000300000000000000
    material: {fileID: 2100000, guid: a73bff62bc341dc4e8f105e73b537656, type: 2}
    materialId: 0
    materialIndexData: 000000000000000006000000
    sourceTextureGUID: a325ac041b795f14a8ca27c0d587f08a
    extractRegion: 0
    regionX: 0
    regionY: 0
    regionW: 0
    regionH: 0
    flipped: 0
    complexGeometry: 0
    physicsEngine: 0
    colliderType: 0
    customColliders: []
    colliderVertices: []
    colliderIndicesFwd: 
    colliderIndicesBack: 
    colliderConvex: 0
    colliderSmoothSphereCollisions: 0
    polygonCollider2D: []
    edgeCollider2D: []
    attachPoints: []
  - name: T12
    boundsData:
    - {x: 0, y: 0, z: 0}
    - {x: 234, y: 192, z: 0}
    untrimmedBoundsData:
    - {x: 0, y: 0, z: 0}
    - {x: 234, y: 192, z: 0}
    texelSize: {x: 1, y: 1}
    positions:
    - {x: -117, y: -96, z: 0}
    - {x: 117, y: -96, z: 0}
    - {x: -117, y: 96, z: 0}
    - {x: 117, y: 96, z: 0}
    normals: []
    tangents: []
    uvs:
    - {x: 0.0019541015, y: 0.32421973}
    - {x: 0.0019541015, y: 0.5527334}
    - {x: 0.18945214, y: 0.32421973}
    - {x: 0.18945214, y: 0.5527334}
    normalizedUvs:
    - {x: 0, y: 0}
    - {x: 0, y: 1}
    - {x: 1, y: 0}
    - {x: 1, y: 1}
    indices: 000000000300000001000000020000000300000000000000
    material: {fileID: 2100000, guid: a73bff62bc341dc4e8f105e73b537656, type: 2}
    materialId: 0
    materialIndexData: 000000000000000006000000
    sourceTextureGUID: 1085e680b704bea43831fc153e54197c
    extractRegion: 0
    regionX: 0
    regionY: 0
    regionW: 0
    regionH: 0
    flipped: 1
    complexGeometry: 0
    physicsEngine: 0
    colliderType: 0
    customColliders: []
    colliderVertices: []
    colliderIndicesFwd: 
    colliderIndicesBack: 
    colliderConvex: 0
    colliderSmoothSphereCollisions: 0
    polygonCollider2D: []
    edgeCollider2D: []
    attachPoints: []
  - name: T1
    boundsData:
    - {x: 0.5, y: 0, z: 0}
    - {x: 275, y: 322, z: 0}
    untrimmedBoundsData:
    - {x: 0.5, y: 0, z: 0}
    - {x: 275, y: 322, z: 0}
    texelSize: {x: 1, y: 1}
    positions:
    - {x: -137, y: -161, z: 0}
    - {x: 138, y: -161, z: 0}
    - {x: -137, y: 161, z: 0}
    - {x: 138, y: 161, z: 0}
    normals: []
    tangents: []
    uvs:
    - {x: 0.50879, y: 0.29199317}
    - {x: 0.50879, y: 0.5605459}
    - {x: 0.82324123, y: 0.29199317}
    - {x: 0.82324123, y: 0.5605459}
    normalizedUvs:
    - {x: 0, y: 0}
    - {x: 0, y: 1}
    - {x: 1, y: 0}
    - {x: 1, y: 1}
    indices: 000000000300000001000000020000000300000000000000
    material: {fileID: 2100000, guid: a73bff62bc341dc4e8f105e73b537656, type: 2}
    materialId: 0
    materialIndexData: 000000000000000006000000
    sourceTextureGUID: 577e38db6393bd34b90ae44a1befd1c8
    extractRegion: 0
    regionX: 0
    regionY: 0
    regionW: 0
    regionH: 0
    flipped: 1
    complexGeometry: 0
    physicsEngine: 0
    colliderType: 0
    customColliders: []
    colliderVertices: []
    colliderIndicesFwd: 
    colliderIndicesBack: 
    colliderConvex: 0
    colliderSmoothSphereCollisions: 0
    polygonCollider2D: []
    edgeCollider2D: []
    attachPoints: []
  - name: T14
    boundsData:
    - {x: 0.5, y: 0, z: 0}
    - {x: 155, y: 178, z: 0}
    untrimmedBoundsData:
    - {x: 0.5, y: 0, z: 0}
    - {x: 155, y: 178, z: 0}
    texelSize: {x: 1, y: 1}
    positions:
    - {x: -77, y: -89, z: 0}
    - {x: 78, y: -89, z: 0}
    - {x: -77, y: 89, z: 0}
    - {x: 78, y: 89, z: 0}
    normals: []
    tangents: []
    uvs:
    - {x: 0.8378916, y: 0.18261817}
    - {x: 0.98925686, y: 0.18261817}
    - {x: 0.8378916, y: 0.35644433}
    - {x: 0.98925686, y: 0.35644433}
    normalizedUvs:
    - {x: 0, y: 0}
    - {x: 1, y: 0}
    - {x: 0, y: 1}
    - {x: 1, y: 1}
    indices: 000000000300000001000000020000000300000000000000
    material: {fileID: 2100000, guid: a73bff62bc341dc4e8f105e73b537656, type: 2}
    materialId: 0
    materialIndexData: 000000000000000006000000
    sourceTextureGUID: 6350d67bca5338a4ab2fe2dc449b8948
    extractRegion: 0
    regionX: 0
    regionY: 0
    regionW: 0
    regionH: 0
    flipped: 0
    complexGeometry: 0
    physicsEngine: 0
    colliderType: 0
    customColliders: []
    colliderVertices: []
    colliderIndicesFwd: 
    colliderIndicesBack: 
    colliderConvex: 0
    colliderSmoothSphereCollisions: 0
    polygonCollider2D: []
    edgeCollider2D: []
    attachPoints: []
  - name: T2
    boundsData:
    - {x: 0.5, y: -0.5, z: 0}
    - {x: 129, y: 131, z: 0}
    untrimmedBoundsData:
    - {x: 0.5, y: -0.5, z: 0}
    - {x: 129, y: 131, z: 0}
    texelSize: {x: 1, y: 1}
    positions:
    - {x: -64, y: -66, z: 0}
    - {x: 65, y: -66, z: 0}
    - {x: -64, y: 65, z: 0}
    - {x: 65, y: 65, z: 0}
    normals: []
    tangents: []
    uvs:
    - {x: 0.0019541015, y: 0.5644541}
    - {x: 0.1279287, y: 0.5644541}
    - {x: 0.0019541015, y: 0.69238186}
    - {x: 0.1279287, y: 0.69238186}
    normalizedUvs:
    - {x: 0, y: 0}
    - {x: 1, y: 0}
    - {x: 0, y: 1}
    - {x: 1, y: 1}
    indices: 000000000300000001000000020000000300000000000000
    material: {fileID: 2100000, guid: a73bff62bc341dc4e8f105e73b537656, type: 2}
    materialId: 0
    materialIndexData: 000000000000000006000000
    sourceTextureGUID: d3bc56a5b219ea54eaa9050445b23d3d
    extractRegion: 0
    regionX: 0
    regionY: 0
    regionW: 0
    regionH: 0
    flipped: 0
    complexGeometry: 0
    physicsEngine: 0
    colliderType: 0
    customColliders: []
    colliderVertices: []
    colliderIndicesFwd: 
    colliderIndicesBack: 
    colliderConvex: 0
    colliderSmoothSphereCollisions: 0
    polygonCollider2D: []
    edgeCollider2D: []
    attachPoints: []
  - name: T_text
    boundsData:
    - {x: -0.5, y: 0, z: 0}
    - {x: 515, y: 326, z: 0}
    untrimmedBoundsData:
    - {x: 0, y: 0, z: 0}
    - {x: 516, y: 326, z: 0}
    texelSize: {x: 1, y: 1}
    positions:
    - {x: -258, y: -163, z: 0}
    - {x: 257, y: -163, z: 0}
    - {x: -258, y: 163, z: 0}
    - {x: 257, y: 163, z: 0}
    normals: []
    tangents: []
    uvs:
    - {x: 0.0019541015, y: 0.0019541015}
    - {x: 0.50488186, y: 0.0019541015}
    - {x: 0.0019541015, y: 0.32031152}
    - {x: 0.50488186, y: 0.32031152}
    normalizedUvs:
    - {x: 0, y: 0}
    - {x: 0.99999994, y: 0}
    - {x: 0, y: 1}
    - {x: 0.99999994, y: 1}
    indices: 000000000300000001000000020000000300000000000000
    material: {fileID: 2100000, guid: a73bff62bc341dc4e8f105e73b537656, type: 2}
    materialId: 0
    materialIndexData: 000000000000000006000000
    sourceTextureGUID: df0afda4ec8c28841a23f2632c531282
    extractRegion: 0
    regionX: 0
    regionY: 0
    regionW: 0
    regionH: 0
    flipped: 0
    complexGeometry: 0
    physicsEngine: 0
    colliderType: 0
    customColliders: []
    colliderVertices: []
    colliderIndicesFwd: 
    colliderIndicesBack: 
    colliderConvex: 0
    colliderSmoothSphereCollisions: 0
    polygonCollider2D: []
    edgeCollider2D: []
    attachPoints: []
  - name: T22
    boundsData:
    - {x: 0.5, y: -0.5, z: 0}
    - {x: 333, y: 293, z: 0}
    untrimmedBoundsData:
    - {x: 0.5, y: -0.5, z: 0}
    - {x: 333, y: 293, z: 0}
    texelSize: {x: 1, y: 1}
    positions:
    - {x: -166, y: -147, z: 0}
    - {x: 167, y: -147, z: 0}
    - {x: -166, y: 146, z: 0}
    - {x: 167, y: 146, z: 0}
    normals: []
    tangents: []
    uvs:
    - {x: 0.50879, y: 0.0019541015}
    - {x: 0.8339834, y: 0.0019541015}
    - {x: 0.50879, y: 0.28808495}
    - {x: 0.8339834, y: 0.28808495}
    normalizedUvs:
    - {x: 0, y: 0}
    - {x: 1, y: 0}
    - {x: 0, y: 1}
    - {x: 1, y: 1}
    indices: 000000000300000001000000020000000300000000000000
    material: {fileID: 2100000, guid: a73bff62bc341dc4e8f105e73b537656, type: 2}
    materialId: 0
    materialIndexData: 000000000000000006000000
    sourceTextureGUID: e9440736423544343811c440ecb690c6
    extractRegion: 0
    regionX: 0
    regionY: 0
    regionW: 0
    regionH: 0
    flipped: 0
    complexGeometry: 0
    physicsEngine: 0
    colliderType: 0
    customColliders: []
    colliderVertices: []
    colliderIndicesFwd: 
    colliderIndicesBack: 
    colliderConvex: 0
    colliderSmoothSphereCollisions: 0
    polygonCollider2D: []
    edgeCollider2D: []
    attachPoints: []
  - name: T20
    boundsData:
    - {x: -0.5, y: 0.5, z: 0}
    - {x: 117, y: 147, z: 0}
    untrimmedBoundsData:
    - {x: 0, y: 0, z: 0}
    - {x: 118, y: 148, z: 0}
    texelSize: {x: 1, y: 1}
    positions:
    - {x: -59, y: -73, z: 0}
    - {x: 58, y: -73, z: 0}
    - {x: -59, y: 74, z: 0}
    - {x: 58, y: 74, z: 0}
    normals: []
    tangents: []
    uvs:
    - {x: 0.8271494, y: 0.555665}
    - {x: 0.9414053, y: 0.555665}
    - {x: 0.8271494, y: 0.6992178}
    - {x: 0.9414053, y: 0.6992178}
    normalizedUvs:
    - {x: 0, y: 0}
    - {x: 1, y: 0}
    - {x: 0, y: 1}
    - {x: 1, y: 1}
    indices: 000000000300000001000000020000000300000000000000
    material: {fileID: 2100000, guid: a73bff62bc341dc4e8f105e73b537656, type: 2}
    materialId: 0
    materialIndexData: 000000000000000006000000
    sourceTextureGUID: be8c9fa11c910914aa5e2b022b1dd10e
    extractRegion: 0
    regionX: 0
    regionY: 0
    regionW: 0
    regionH: 0
    flipped: 0
    complexGeometry: 0
    physicsEngine: 0
    colliderType: 0
    customColliders: []
    colliderVertices: []
    colliderIndicesFwd: 
    colliderIndicesBack: 
    colliderConvex: 0
    colliderSmoothSphereCollisions: 0
    polygonCollider2D: []
    edgeCollider2D: []
    attachPoints: []
  - name: impact
    boundsData:
    - {x: 0, y: -0.5, z: 0}
    - {x: 52, y: 119, z: 0}
    untrimmedBoundsData:
    - {x: 0, y: -0.5, z: 0}
    - {x: 52, y: 119, z: 0}
    texelSize: {x: 1, y: 1}
    positions:
    - {x: -26, y: -60, z: 0}
    - {x: 26, y: -60, z: 0}
    - {x: -26, y: 59, z: 0}
    - {x: 26, y: 59, z: 0}
    normals: []
    tangents: []
    uvs:
    - {x: 0.94531345, y: 0.5683603}
    - {x: 0.9960928, y: 0.5683603}
    - {x: 0.94531345, y: 0.68456936}
    - {x: 0.9960928, y: 0.68456936}
    normalizedUvs:
    - {x: 0, y: 0}
    - {x: 1, y: 0}
    - {x: 0, y: 1}
    - {x: 1, y: 1}
    indices: 000000000300000001000000020000000300000000000000
    material: {fileID: 2100000, guid: a73bff62bc341dc4e8f105e73b537656, type: 2}
    materialId: 0
    materialIndexData: 000000000000000006000000
    sourceTextureGUID: 77d0e123cb0ff4742a8c2c23670f314c
    extractRegion: 0
    regionX: 0
    regionY: 0
    regionW: 0
    regionH: 0
    flipped: 0
    complexGeometry: 0
    physicsEngine: 0
    colliderType: 0
    customColliders: []
    colliderVertices: []
    colliderIndicesFwd: 
    colliderIndicesBack: 
    colliderConvex: 0
    colliderSmoothSphereCollisions: 0
    polygonCollider2D: []
    edgeCollider2D: []
    attachPoints: []
  - name: title_e
    boundsData:
    - {x: 0, y: -0.5, z: 0}
    - {x: 24, y: 25, z: 0}
    untrimmedBoundsData:
    - {x: 0, y: -0.5, z: 0}
    - {x: 24, y: 25, z: 0}
    texelSize: {x: 1, y: 1}
    positions:
    - {x: -12, y: -13, z: 0}
    - {x: 12, y: -13, z: 0}
    - {x: -12, y: 12, z: 0}
    - {x: 12, y: 12, z: 0}
    normals: []
    tangents: []
    uvs:
    - {x: 0.1455088, y: 0.9541025}
    - {x: 0.16894433, y: 0.9541025}
    - {x: 0.1455088, y: 0.9785147}
    - {x: 0.16894433, y: 0.9785147}
    normalizedUvs:
    - {x: 0, y: 0}
    - {x: 1, y: 0}
    - {x: 0, y: 1}
    - {x: 1, y: 1}
    indices: 000000000300000001000000020000000300000000000000
    material: {fileID: 2100000, guid: a73bff62bc341dc4e8f105e73b537656, type: 2}
    materialId: 0
    materialIndexData: 000000000000000006000000
    sourceTextureGUID: a78523bdfd7c8aa46ae21022afd9c776
    extractRegion: 0
    regionX: 0
    regionY: 0
    regionW: 0
    regionH: 0
    flipped: 0
    complexGeometry: 0
    physicsEngine: 0
    colliderType: 0
    customColliders: []
    colliderVertices: []
    colliderIndicesFwd: 
    colliderIndicesBack: 
    colliderConvex: 0
    colliderSmoothSphereCollisions: 0
    polygonCollider2D: []
    edgeCollider2D: []
    attachPoints: []
  - name: title_i
    boundsData:
    - {x: 0, y: -0.5, z: 0}
    - {x: 12, y: 25, z: 0}
    untrimmedBoundsData:
    - {x: 0, y: -0.5, z: 0}
    - {x: 12, y: 25, z: 0}
    texelSize: {x: 1, y: 1}
    positions:
    - {x: -6, y: -13, z: 0}
    - {x: 6, y: -13, z: 0}
    - {x: -6, y: 12, z: 0}
    - {x: 6, y: 12, z: 0}
    normals: []
    tangents: []
    uvs:
    - {x: 0.98144627, y: 0.36035255}
    - {x: 0.9931631, y: 0.36035255}
    - {x: 0.98144627, y: 0.38476464}
    - {x: 0.9931631, y: 0.38476464}
    normalizedUvs:
    - {x: 0, y: 0}
    - {x: 1, y: 0}
    - {x: 0, y: 1}
    - {x: 1, y: 1}
    indices: 000000000300000001000000020000000300000000000000
    material: {fileID: 2100000, guid: a73bff62bc341dc4e8f105e73b537656, type: 2}
    materialId: 0
    materialIndexData: 000000000000000006000000
    sourceTextureGUID: 32d5dc822b3ac1741afa9a20372d2611
    extractRegion: 0
    regionX: 0
    regionY: 0
    regionW: 0
    regionH: 0
    flipped: 0
    complexGeometry: 0
    physicsEngine: 0
    colliderType: 0
    customColliders: []
    colliderVertices: []
    colliderIndicesFwd: 
    colliderIndicesBack: 
    colliderConvex: 0
    colliderSmoothSphereCollisions: 0
    polygonCollider2D: []
    edgeCollider2D: []
    attachPoints: []
  - name: title_m
    boundsData:
    - {x: 0, y: -0.5, z: 0}
    - {x: 32, y: 25, z: 0}
    untrimmedBoundsData:
    - {x: 0, y: -0.5, z: 0}
    - {x: 32, y: 25, z: 0}
    texelSize: {x: 1, y: 1}
    positions:
    - {x: -16, y: -13, z: 0}
    - {x: 16, y: -13, z: 0}
    - {x: -16, y: 12, z: 0}
    - {x: 16, y: 12, z: 0}
    normals: []
    tangents: []
    uvs:
    - {x: 0.05957129, y: 0.9541025}
    - {x: 0.05957129, y: 0.9853506}
    - {x: 0.0839834, y: 0.9541025}
    - {x: 0.0839834, y: 0.9853506}
    normalizedUvs:
    - {x: 0, y: 0}
    - {x: 0, y: 1}
    - {x: 1, y: 0}
    - {x: 1, y: 1}
    indices: 000000000300000001000000020000000300000000000000
    material: {fileID: 2100000, guid: a73bff62bc341dc4e8f105e73b537656, type: 2}
    materialId: 0
    materialIndexData: 000000000000000006000000
    sourceTextureGUID: aabf112bc43cf2041a2b2e7b0781dca3
    extractRegion: 0
    regionX: 0
    regionY: 0
    regionW: 0
    regionH: 0
    flipped: 1
    complexGeometry: 0
    physicsEngine: 0
    colliderType: 0
    customColliders: []
    colliderVertices: []
    colliderIndicesFwd: 
    colliderIndicesBack: 
    colliderConvex: 0
    colliderSmoothSphereCollisions: 0
    polygonCollider2D: []
    edgeCollider2D: []
    attachPoints: []
  - name: title_h
    boundsData:
    - {x: 0.00000047683716, y: -0.5, z: 0}
    - {x: 26, y: 25, z: 0}
    untrimmedBoundsData:
    - {x: 0.5, y: -0.5, z: 0}
    - {x: 27, y: 25, z: 0}
    texelSize: {x: 1, y: 1}
    positions:
    - {x: -13, y: -13, z: 0}
    - {x: 13.000001, y: -13, z: 0}
    - {x: -13, y: 12, z: 0}
    - {x: 13.000001, y: 12, z: 0}
    normals: []
    tangents: []
    uvs:
    - {x: 0.117188476, y: 0.9541025}
    - {x: 0.117188476, y: 0.97949123}
    - {x: 0.14160058, y: 0.9541025}
    - {x: 0.14160058, y: 0.97949123}
    normalizedUvs:
    - {x: 0, y: 0}
    - {x: 0, y: 1}
    - {x: 1, y: 0}
    - {x: 1, y: 1}
    indices: 000000000300000001000000020000000300000000000000
    material: {fileID: 2100000, guid: a73bff62bc341dc4e8f105e73b537656, type: 2}
    materialId: 0
    materialIndexData: 000000000000000006000000
    sourceTextureGUID: 30abdab4fc77fbd44900c919d5baf366
    extractRegion: 0
    regionX: 0
    regionY: 0
    regionW: 0
    regionH: 0
    flipped: 1
    complexGeometry: 0
    physicsEngine: 0
    colliderType: 0
    customColliders: []
    colliderVertices: []
    colliderIndicesFwd: 
    colliderIndicesBack: 
    colliderConvex: 0
    colliderSmoothSphereCollisions: 0
    polygonCollider2D: []
    edgeCollider2D: []
    attachPoints: []
  - name: title_o
    boundsData:
    - {x: 0.5, y: 0, z: 0}
    - {x: 27, y: 26, z: 0}
    untrimmedBoundsData:
    - {x: 0.5, y: 0, z: 0}
    - {x: 27, y: 26, z: 0}
    texelSize: {x: 1, y: 1}
    positions:
    - {x: -13, y: -13, z: 0}
    - {x: 14, y: -13, z: 0}
    - {x: -13, y: 13, z: 0}
    - {x: 14, y: 13, z: 0}
    normals: []
    tangents: []
    uvs:
    - {x: 0.0878916, y: 0.9541025}
    - {x: 0.0878916, y: 0.9804678}
    - {x: 0.113280274, y: 0.9541025}
    - {x: 0.113280274, y: 0.9804678}
    normalizedUvs:
    - {x: 0, y: 0}
    - {x: 0, y: 1}
    - {x: 1, y: 0}
    - {x: 1, y: 1}
    indices: 000000000300000001000000020000000300000000000000
    material: {fileID: 2100000, guid: a73bff62bc341dc4e8f105e73b537656, type: 2}
    materialId: 0
    materialIndexData: 000000000000000006000000
    sourceTextureGUID: 3e977548d67ca57468292566b47e8baa
    extractRegion: 0
    regionX: 0
    regionY: 0
    regionW: 0
    regionH: 0
    flipped: 1
    complexGeometry: 0
    physicsEngine: 0
    colliderType: 0
    customColliders: []
    colliderVertices: []
    colliderIndicesFwd: 
    colliderIndicesBack: 
    colliderConvex: 0
    colliderSmoothSphereCollisions: 0
    polygonCollider2D: []
    edgeCollider2D: []
    attachPoints: []
  - name: title_p
    boundsData:
    - {x: -0.5, y: -0.5, z: 0}
    - {x: 23, y: 25, z: 0}
    untrimmedBoundsData:
    - {x: 0, y: -0.5, z: 0}
    - {x: 24, y: 25, z: 0}
    texelSize: {x: 1, y: 1}
    positions:
    - {x: -12, y: -13, z: 0}
    - {x: 11, y: -13, z: 0}
    - {x: -12, y: 12, z: 0}
    - {x: 11, y: 12, z: 0}
    normals: []
    tangents: []
    uvs:
    - {x: 0.17285255, y: 0.9541025}
    - {x: 0.19531152, y: 0.9541025}
    - {x: 0.17285255, y: 0.9785147}
    - {x: 0.19531152, y: 0.9785147}
    normalizedUvs:
    - {x: 0, y: 0}
    - {x: 1, y: 0}
    - {x: 0, y: 1}
    - {x: 1, y: 1}
    indices: 000000000300000001000000020000000300000000000000
    material: {fileID: 2100000, guid: a73bff62bc341dc4e8f105e73b537656, type: 2}
    materialId: 0
    materialIndexData: 000000000000000006000000
    sourceTextureGUID: 084c8a5763b38e54a8776edd50c02b94
    extractRegion: 0
    regionX: 0
    regionY: 0
    regionW: 0
    regionH: 0
    flipped: 0
    complexGeometry: 0
    physicsEngine: 0
    colliderType: 0
    customColliders: []
    colliderVertices: []
    colliderIndicesFwd: 
    colliderIndicesBack: 
    colliderConvex: 0
    colliderSmoothSphereCollisions: 0
    polygonCollider2D: []
    edgeCollider2D: []
    attachPoints: []
  - name: title_s
    boundsData:
    - {x: 0.5, y: 0, z: 0}
    - {x: 21, y: 26, z: 0}
    untrimmedBoundsData:
    - {x: 0.5, y: 0, z: 0}
    - {x: 21, y: 26, z: 0}
    texelSize: {x: 1, y: 1}
    positions:
    - {x: -10, y: -13, z: 0}
    - {x: 11, y: -13, z: 0}
    - {x: -10, y: 13, z: 0}
    - {x: 11, y: 13, z: 0}
    normals: []
    tangents: []
    uvs:
    - {x: 0.0019541015, y: 0.97656345}
    - {x: 0.0019541015, y: 0.99706936}
    - {x: 0.027342774, y: 0.97656345}
    - {x: 0.027342774, y: 0.99706936}
    normalizedUvs:
    - {x: 0, y: 0}
    - {x: 0, y: 1}
    - {x: 1, y: 0}
    - {x: 1, y: 1}
    indices: 000000000300000001000000020000000300000000000000
    material: {fileID: 2100000, guid: a73bff62bc341dc4e8f105e73b537656, type: 2}
    materialId: 0
    materialIndexData: 000000000000000006000000
    sourceTextureGUID: b75bf9d1f48b1764d95bc0932dc579e1
    extractRegion: 0
    regionX: 0
    regionY: 0
    regionW: 0
    regionH: 0
    flipped: 1
    complexGeometry: 0
    physicsEngine: 0
    colliderType: 0
    customColliders: []
    colliderVertices: []
    colliderIndicesFwd: 
    colliderIndicesBack: 
    colliderConvex: 0
    colliderSmoothSphereCollisions: 0
    polygonCollider2D: []
    edgeCollider2D: []
    attachPoints: []
  - name: title_t
    boundsData:
    - {x: -0.5, y: -0.5, z: 0}
    - {x: 21, y: 25, z: 0}
    untrimmedBoundsData:
    - {x: 0, y: -0.5, z: 0}
    - {x: 22, y: 25, z: 0}
    texelSize: {x: 1, y: 1}
    positions:
    - {x: -11, y: -13, z: 0}
    - {x: 10, y: -13, z: 0}
    - {x: -11, y: 12, z: 0}
    - {x: 10, y: 12, z: 0}
    normals: []
    tangents: []
    uvs:
    - {x: 0.031250976, y: 0.97656345}
    - {x: 0.031250976, y: 0.99706936}
    - {x: 0.055663086, y: 0.97656345}
    - {x: 0.055663086, y: 0.99706936}
    normalizedUvs:
    - {x: 0, y: 0}
    - {x: 0, y: 1}
    - {x: 1, y: 0}
    - {x: 1, y: 1}
    indices: 000000000300000001000000020000000300000000000000
    material: {fileID: 2100000, guid: a73bff62bc341dc4e8f105e73b537656, type: 2}
    materialId: 0
    materialIndexData: 000000000000000006000000
    sourceTextureGUID: 90604ff10fec54648a5204b0550959e9
    extractRegion: 0
    regionX: 0
    regionY: 0
    regionW: 0
    regionH: 0
    flipped: 1
    complexGeometry: 0
    physicsEngine: 0
    colliderType: 0
    customColliders: []
    colliderVertices: []
    colliderIndicesFwd: 
    colliderIndicesBack: 
    colliderConvex: 0
    colliderSmoothSphereCollisions: 0
    polygonCollider2D: []
    edgeCollider2D: []
    attachPoints: []
  premultipliedAlpha: 0
  material: {fileID: 0}
  materials:
  - {fileID: 2100000, guid: a73bff62bc341dc4e8f105e73b537656, type: 2}
  textures:
  - {fileID: 2800000, guid: ad96aef68348db244b43c56099bfde6a, type: 3}
  pngTextures: []
  materialPngTextureId: 00000000
  textureFilterMode: 1
  textureMipMaps: 0
  allowMultipleAtlases: 0
  spriteCollectionGUID: b84d7f7fc3c559043a1778da48299dde
  spriteCollectionName: Title
  assetName: 
  loadable: 0
  invOrthoSize: 2
  halfTargetHeight: 0.5
  buildKey: 1825190477
  dataGuid: 2aefc9b1d9f6ac54b86a24bd46d21d20
  managedSpriteCollection: 0
  hasPlatformData: 0
  spriteCollectionPlatforms: []
  spriteCollectionPlatformGUIDs: []
