%YAML 1.1
%TAG !u! tag:unity3d.com,2011:
--- !u!1001 &100100000
Prefab:
  m_ObjectHideFlags: 1
  serializedVersion: 2
  m_Modification:
    m_TransformParent: {fileID: 0}
    m_Modifications: []
    m_RemovedComponents: []
  m_ParentPrefab: {fileID: 0}
  m_RootGameObject: {fileID: 1568528770452970}
  m_IsPrefabParent: 1
--- !u!1 &1568528770452970
GameObject:
  m_ObjectHideFlags: 0
  m_PrefabParentObject: {fileID: 0}
  m_PrefabInternal: {fileID: 100100000}
  serializedVersion: 5
  m_Component:
  - component: {fileID: 4385386052656734}
  - component: {fileID: 114494391134380312}
  m_Layer: 0
  m_Name: ImgNumStageFont
  m_TagString: Untagged
  m_Icon: {fileID: 0}
  m_NavMeshLayer: 0
  m_StaticEditorFlags: 0
  m_IsActive: 1
--- !u!4 &4385386052656734
Transform:
  m_ObjectHideFlags: 1
  m_PrefabParentObject: {fileID: 0}
  m_PrefabInternal: {fileID: 100100000}
  m_GameObject: {fileID: 1568528770452970}
  m_LocalRotation: {x: 0, y: 0, z: 0, w: 1}
  m_LocalPosition: {x: 0, y: 0, z: 0}
  m_LocalScale: {x: 1, y: 1, z: 1}
  m_Children: []
  m_Father: {fileID: 0}
  m_RootOrder: 0
  m_LocalEulerAnglesHint: {x: 0, y: 0, z: 0}
--- !u!114 &114494391134380312
MonoBehaviour:
  m_ObjectHideFlags: 1
  m_PrefabParentObject: {fileID: 0}
  m_PrefabInternal: {fileID: 100100000}
  m_GameObject: {fileID: 1568528770452970}
  m_Enabled: 1
  m_EditorHideFlags: 0
  m_Script: {fileID: 11500000, guid: d546f34a90531a14eaba82a43b05b86b, type: 3}
  m_Name: 
  m_EditorClassIdentifier: 
  version: 3
  materialIdsValid: 1
  needMaterialInstance: 0
  spriteDefinitions:
  - name: 7
    boundsData:
    - {x: 0.5, y: 0, z: 0}
    - {x: 65, y: 78, z: 0}
    untrimmedBoundsData:
    - {x: 0.5, y: 0, z: 0}
    - {x: 65, y: 78, z: 0}
    texelSize: {x: 1, y: 1}
    positions:
    - {x: -32, y: -39, z: 0}
    - {x: 33, y: -39, z: 0}
    - {x: -32, y: 39, z: 0}
    - {x: 33, y: 39, z: 0}
    normals: []
    tangents: []
    uvs:
    - {x: 0.15625195, y: 0.003908203}
    - {x: 0.28320116, y: 0.003908203}
    - {x: 0.15625195, y: 0.15624805}
    - {x: 0.28320116, y: 0.15624805}
    normalizedUvs:
    - {x: 0, y: 0}
    - {x: 1, y: 0}
    - {x: 0, y: 1}
    - {x: 1, y: 1}
    indices: 000000000300000001000000020000000300000000000000
    material: {fileID: 2100000, guid: cc2c36a40134f624497ccda1812451f0, type: 2}
    materialId: 0
    sourceTextureGUID: b5718df8159f36f499b861dab77e203d
    extractRegion: 0
    regionX: 0
    regionY: 0
    regionW: 0
    regionH: 0
    flipped: 0
    complexGeometry: 0
    physicsEngine: 0
    colliderType: 0
    customColliders: []
    colliderVertices: []
    colliderIndicesFwd: 
    colliderIndicesBack: 
    colliderConvex: 0
    colliderSmoothSphereCollisions: 0
    polygonCollider2D: []
    edgeCollider2D: []
    attachPoints: []
  - name: 6
    boundsData:
    - {x: 0, y: -0.5, z: 0}
    - {x: 72, y: 79, z: 0}
    untrimmedBoundsData:
    - {x: 0, y: -0.5, z: 0}
    - {x: 72, y: 79, z: 0}
    texelSize: {x: 1, y: 1}
    positions:
    - {x: -36, y: -40, z: 0}
    - {x: 36, y: -40, z: 0}
    - {x: -36, y: 39, z: 0}
    - {x: 36, y: 39, z: 0}
    normals: []
    tangents: []
    uvs:
    - {x: 0.003908203, y: 0.32617384}
    - {x: 0.1445293, y: 0.32617384}
    - {x: 0.003908203, y: 0.48046678}
    - {x: 0.1445293, y: 0.48046678}
    normalizedUvs:
    - {x: 0, y: 0}
    - {x: 1, y: 0}
    - {x: 0, y: 1}
    - {x: 1, y: 1}
    indices: 000000000300000001000000020000000300000000000000
    material: {fileID: 2100000, guid: cc2c36a40134f624497ccda1812451f0, type: 2}
    materialId: 0
    sourceTextureGUID: 1dacd42e9f950fd428988a7f23eaf944
    extractRegion: 0
    regionX: 0
    regionY: 0
    regionW: 0
    regionH: 0
    flipped: 0
    complexGeometry: 0
    physicsEngine: 0
    colliderType: 0
    customColliders: []
    colliderVertices: []
    colliderIndicesFwd: 
    colliderIndicesBack: 
    colliderConvex: 0
    colliderSmoothSphereCollisions: 0
    polygonCollider2D: []
    edgeCollider2D: []
    attachPoints: []
  - name: 1
    boundsData:
    - {x: 0, y: 0, z: 0}
    - {x: 58, y: 78, z: 0}
    untrimmedBoundsData:
    - {x: 0, y: 0, z: 0}
    - {x: 58, y: 78, z: 0}
    texelSize: {x: 1, y: 1}
    positions:
    - {x: -29, y: -39, z: 0}
    - {x: 29, y: -39, z: 0}
    - {x: -29, y: 39, z: 0}
    - {x: 29, y: 39, z: 0}
    normals: []
    tangents: []
    uvs:
    - {x: 0.15625195, y: 0.16406445}
    - {x: 0.26952928, y: 0.16406445}
    - {x: 0.15625195, y: 0.31640428}
    - {x: 0.26952928, y: 0.31640428}
    normalizedUvs:
    - {x: 0, y: 0}
    - {x: 1, y: 0}
    - {x: 0, y: 1}
    - {x: 1, y: 1}
    indices: 000000000300000001000000020000000300000000000000
    material: {fileID: 2100000, guid: cc2c36a40134f624497ccda1812451f0, type: 2}
    materialId: 0
    sourceTextureGUID: 8d8926bc98558454dad2a41cec3b832e
    extractRegion: 0
    regionX: 0
    regionY: 0
    regionW: 0
    regionH: 0
    flipped: 0
    complexGeometry: 0
    physicsEngine: 0
    colliderType: 0
    customColliders: []
    colliderVertices: []
    colliderIndicesFwd: 
    colliderIndicesBack: 
    colliderConvex: 0
    colliderSmoothSphereCollisions: 0
    polygonCollider2D: []
    edgeCollider2D: []
    attachPoints: []
  - name: 0
    boundsData:
    - {x: 0, y: -0.5, z: 0}
    - {x: 72, y: 79, z: 0}
    untrimmedBoundsData:
    - {x: 0, y: -0.5, z: 0}
    - {x: 72, y: 79, z: 0}
    texelSize: {x: 1, y: 1}
    positions:
    - {x: -36, y: -40, z: 0}
    - {x: 36, y: -40, z: 0}
    - {x: -36, y: 39, z: 0}
    - {x: 36, y: 39, z: 0}
    normals: []
    tangents: []
    uvs:
    - {x: 0.003908203, y: 0.48828322}
    - {x: 0.1445293, y: 0.48828322}
    - {x: 0.003908203, y: 0.64257616}
    - {x: 0.1445293, y: 0.64257616}
    normalizedUvs:
    - {x: 0, y: 0}
    - {x: 1, y: 0}
    - {x: 0, y: 1}
    - {x: 1, y: 1}
    indices: 000000000300000001000000020000000300000000000000
    material: {fileID: 2100000, guid: cc2c36a40134f624497ccda1812451f0, type: 2}
    materialId: 0
    sourceTextureGUID: a55d8e9f1a1f891439778c5546bc2d5e
    extractRegion: 0
    regionX: 0
    regionY: 0
    regionW: 0
    regionH: 0
    flipped: 0
    complexGeometry: 0
    physicsEngine: 0
    colliderType: 0
    customColliders: []
    colliderVertices: []
    colliderIndicesFwd: 
    colliderIndicesBack: 
    colliderConvex: 0
    colliderSmoothSphereCollisions: 0
    polygonCollider2D: []
    edgeCollider2D: []
    attachPoints: []
  - name: 5
    boundsData:
    - {x: 0.5, y: 0, z: 0}
    - {x: 71, y: 78, z: 0}
    untrimmedBoundsData:
    - {x: 0.5, y: 0, z: 0}
    - {x: 71, y: 78, z: 0}
    texelSize: {x: 1, y: 1}
    positions:
    - {x: -35, y: -39, z: 0}
    - {x: 36, y: -39, z: 0}
    - {x: -35, y: 39, z: 0}
    - {x: 36, y: 39, z: 0}
    normals: []
    tangents: []
    uvs:
    - {x: 0.1523457, y: 0.32617384}
    - {x: 0.29101366, y: 0.32617384}
    - {x: 0.1523457, y: 0.47851366}
    - {x: 0.29101366, y: 0.47851366}
    normalizedUvs:
    - {x: 0, y: 0}
    - {x: 1, y: 0}
    - {x: 0, y: 1}
    - {x: 1, y: 1}
    indices: 000000000300000001000000020000000300000000000000
    material: {fileID: 2100000, guid: cc2c36a40134f624497ccda1812451f0, type: 2}
    materialId: 0
    sourceTextureGUID: 7f7f479f76bca514aa57665dfc1328d3
    extractRegion: 0
    regionX: 0
    regionY: 0
    regionW: 0
    regionH: 0
    flipped: 0
    complexGeometry: 0
    physicsEngine: 0
    colliderType: 0
    customColliders: []
    colliderVertices: []
    colliderIndicesFwd: 
    colliderIndicesBack: 
    colliderConvex: 0
    colliderSmoothSphereCollisions: 0
    polygonCollider2D: []
    edgeCollider2D: []
    attachPoints: []
  - name: 3
    boundsData:
    - {x: 0, y: -0.5, z: 0}
    - {x: 72, y: 79, z: 0}
    untrimmedBoundsData:
    - {x: 0, y: -0.5, z: 0}
    - {x: 72, y: 79, z: 0}
    texelSize: {x: 1, y: 1}
    positions:
    - {x: -36, y: -40, z: 0}
    - {x: 36, y: -40, z: 0}
    - {x: -36, y: 39, z: 0}
    - {x: 36, y: 39, z: 0}
    normals: []
    tangents: []
    uvs:
    - {x: 0.003908203, y: 0.6503926}
    - {x: 0.1445293, y: 0.6503926}
    - {x: 0.003908203, y: 0.80468553}
    - {x: 0.1445293, y: 0.80468553}
    normalizedUvs:
    - {x: 0, y: 0}
    - {x: 1, y: 0}
    - {x: 0, y: 1}
    - {x: 1, y: 1}
    indices: 000000000300000001000000020000000300000000000000
    material: {fileID: 2100000, guid: cc2c36a40134f624497ccda1812451f0, type: 2}
    materialId: 0
    sourceTextureGUID: 4aa8ec1800ec23d4cbfbe95aab83dad2
    extractRegion: 0
    regionX: 0
    regionY: 0
    regionW: 0
    regionH: 0
    flipped: 0
    complexGeometry: 0
    physicsEngine: 0
    colliderType: 0
    customColliders: []
    colliderVertices: []
    colliderIndicesFwd: 
    colliderIndicesBack: 
    colliderConvex: 0
    colliderSmoothSphereCollisions: 0
    polygonCollider2D: []
    edgeCollider2D: []
    attachPoints: []
  - name: 8
    boundsData:
    - {x: 0.5, y: -0.5, z: 0}
    - {x: 71, y: 79, z: 0}
    untrimmedBoundsData:
    - {x: 0.5, y: -0.5, z: 0}
    - {x: 71, y: 79, z: 0}
    texelSize: {x: 1, y: 1}
    positions:
    - {x: -35, y: -40, z: 0}
    - {x: 36, y: -40, z: 0}
    - {x: -35, y: 39, z: 0}
    - {x: 36, y: 39, z: 0}
    normals: []
    tangents: []
    uvs:
    - {x: 0.003908203, y: 0.81250197}
    - {x: 0.14257617, y: 0.81250197}
    - {x: 0.003908203, y: 0.9667949}
    - {x: 0.14257617, y: 0.9667949}
    normalizedUvs:
    - {x: 0, y: 0}
    - {x: 1, y: 0}
    - {x: 0, y: 1}
    - {x: 1, y: 1}
    indices: 000000000300000001000000020000000300000000000000
    material: {fileID: 2100000, guid: cc2c36a40134f624497ccda1812451f0, type: 2}
    materialId: 0
    sourceTextureGUID: a084d2bbf5be02f4097793bfb1b2ad4d
    extractRegion: 0
    regionX: 0
    regionY: 0
    regionW: 0
    regionH: 0
    flipped: 0
    complexGeometry: 0
    physicsEngine: 0
    colliderType: 0
    customColliders: []
    colliderVertices: []
    colliderIndicesFwd: 
    colliderIndicesBack: 
    colliderConvex: 0
    colliderSmoothSphereCollisions: 0
    polygonCollider2D: []
    edgeCollider2D: []
    attachPoints: []
  - name: 2
    boundsData:
    - {x: 0, y: -0.5, z: 0}
    - {x: 74, y: 79, z: 0}
    untrimmedBoundsData:
    - {x: 0, y: -0.5, z: 0}
    - {x: 74, y: 79, z: 0}
    texelSize: {x: 1, y: 1}
    positions:
    - {x: -37, y: -40, z: 0}
    - {x: 37, y: -40, z: 0}
    - {x: -37, y: 39, z: 0}
    - {x: 37, y: 39, z: 0}
    normals: []
    tangents: []
    uvs:
    - {x: 0.003908203, y: 0.003908203}
    - {x: 0.14843555, y: 0.003908203}
    - {x: 0.003908203, y: 0.15820117}
    - {x: 0.14843555, y: 0.15820117}
    normalizedUvs:
    - {x: 0, y: 0}
    - {x: 1, y: 0}
    - {x: 0, y: 1}
    - {x: 1, y: 1}
    indices: 000000000300000001000000020000000300000000000000
    material: {fileID: 2100000, guid: cc2c36a40134f624497ccda1812451f0, type: 2}
    materialId: 0
    sourceTextureGUID: 1abd72d24a41dc04ca5a33e7515e0305
    extractRegion: 0
    regionX: 0
    regionY: 0
    regionW: 0
    regionH: 0
    flipped: 0
    complexGeometry: 0
    physicsEngine: 0
    colliderType: 0
    customColliders: []
    colliderVertices: []
    colliderIndicesFwd: 
    colliderIndicesBack: 
    colliderConvex: 0
    colliderSmoothSphereCollisions: 0
    polygonCollider2D: []
    edgeCollider2D: []
    attachPoints: []
  - name: 9
    boundsData:
    - {x: 0.5, y: -0.5, z: 0}
    - {x: 71, y: 79, z: 0}
    untrimmedBoundsData:
    - {x: 0.5, y: -0.5, z: 0}
    - {x: 71, y: 79, z: 0}
    texelSize: {x: 1, y: 1}
    positions:
    - {x: -35, y: -40, z: 0}
    - {x: 36, y: -40, z: 0}
    - {x: -35, y: 39, z: 0}
    - {x: 36, y: 39, z: 0}
    normals: []
    tangents: []
    uvs:
    - {x: 0.15039258, y: 0.81250197}
    - {x: 0.28906053, y: 0.81250197}
    - {x: 0.15039258, y: 0.9667949}
    - {x: 0.28906053, y: 0.9667949}
    normalizedUvs:
    - {x: 0, y: 0}
    - {x: 1, y: 0}
    - {x: 0, y: 1}
    - {x: 1, y: 1}
    indices: 000000000300000001000000020000000300000000000000
    material: {fileID: 2100000, guid: cc2c36a40134f624497ccda1812451f0, type: 2}
    materialId: 0
    sourceTextureGUID: b84f8782cac47314f8f289028932c715
    extractRegion: 0
    regionX: 0
    regionY: 0
    regionW: 0
    regionH: 0
    flipped: 0
    complexGeometry: 0
    physicsEngine: 0
    colliderType: 0
    customColliders: []
    colliderVertices: []
    colliderIndicesFwd: 
    colliderIndicesBack: 
    colliderConvex: 0
    colliderSmoothSphereCollisions: 0
    polygonCollider2D: []
    edgeCollider2D: []
    attachPoints: []
  - name: 4
    boundsData:
    - {x: 0, y: 0, z: 0}
    - {x: 74, y: 78, z: 0}
    untrimmedBoundsData:
    - {x: 0, y: 0, z: 0}
    - {x: 74, y: 78, z: 0}
    texelSize: {x: 1, y: 1}
    positions:
    - {x: -37, y: -39, z: 0}
    - {x: 37, y: -39, z: 0}
    - {x: -37, y: 39, z: 0}
    - {x: 37, y: 39, z: 0}
    normals: []
    tangents: []
    uvs:
    - {x: 0.003908203, y: 0.16601758}
    - {x: 0.14843555, y: 0.16601758}
    - {x: 0.003908203, y: 0.3183574}
    - {x: 0.14843555, y: 0.3183574}
    normalizedUvs:
    - {x: 0, y: 0}
    - {x: 1, y: 0}
    - {x: 0, y: 1}
    - {x: 1, y: 1}
    indices: 000000000300000001000000020000000300000000000000
    material: {fileID: 2100000, guid: cc2c36a40134f624497ccda1812451f0, type: 2}
    materialId: 0
    sourceTextureGUID: fde5a8c2ff4688f4396952b56f66f400
    extractRegion: 0
    regionX: 0
    regionY: 0
    regionW: 0
    regionH: 0
    flipped: 0
    complexGeometry: 0
    physicsEngine: 0
    colliderType: 0
    customColliders: []
    colliderVertices: []
    colliderIndicesFwd: 
    colliderIndicesBack: 
    colliderConvex: 0
    colliderSmoothSphereCollisions: 0
    polygonCollider2D: []
    edgeCollider2D: []
    attachPoints: []
  premultipliedAlpha: 0
  material: {fileID: 0}
  materials:
  - {fileID: 2100000, guid: cc2c36a40134f624497ccda1812451f0, type: 2}
  textures:
  - {fileID: 2800000, guid: 6d81f879c11cc064ab2550ae57a18b0e, type: 3}
  pngTextures: []
  materialPngTextureId: 00000000
  textureFilterMode: 1
  textureMipMaps: 0
  allowMultipleAtlases: 0
  spriteCollectionGUID: 1c54aa7f3e9e9294e9287735c460057a
  spriteCollectionName: ImgNumStageFont
  assetName: 
  loadable: 0
  invOrthoSize: 2
  halfTargetHeight: 0.5
  buildKey: 1959045763
  dataGuid: a8f4ba6055d588143b84f9e497472ebf
  managedSpriteCollection: 0
  hasPlatformData: 0
  spriteCollectionPlatforms: []
  spriteCollectionPlatformGUIDs: []
