%YAML 1.1
%TAG !u! tag:unity3d.com,2011:
--- !u!1001 &100100000
Prefab:
  m_ObjectHideFlags: 1
  serializedVersion: 2
  m_Modification:
    m_TransformParent: {fileID: 0}
    m_Modifications: []
    m_RemovedComponents: []
  m_ParentPrefab: {fileID: 0}
  m_RootGameObject: {fileID: 1150077882502536}
  m_IsPrefabParent: 1
--- !u!1 &1150077882502536
GameObject:
  m_ObjectHideFlags: 0
  m_PrefabParentObject: {fileID: 0}
  m_PrefabInternal: {fileID: 100100000}
  serializedVersion: 5
  m_Component:
  - component: {fileID: 4469357112919126}
  - component: {fileID: 114621798852636310}
  m_Layer: 0
  m_Name: SpriteCollection 2
  m_TagString: Untagged
  m_Icon: {fileID: 0}
  m_NavMeshLayer: 0
  m_StaticEditorFlags: 0
  m_IsActive: 1
--- !u!4 &4469357112919126
Transform:
  m_ObjectHideFlags: 1
  m_PrefabParentObject: {fileID: 0}
  m_PrefabInternal: {fileID: 100100000}
  m_GameObject: {fileID: 1150077882502536}
  m_LocalRotation: {x: 0, y: 0, z: 0, w: 1}
  m_LocalPosition: {x: 0, y: 0, z: 0}
  m_LocalScale: {x: 1, y: 1, z: 1}
  m_Children: []
  m_Father: {fileID: 0}
  m_RootOrder: 0
  m_LocalEulerAnglesHint: {x: 0, y: 0, z: 0}
--- !u!114 &114621798852636310
MonoBehaviour:
  m_ObjectHideFlags: 1
  m_PrefabParentObject: {fileID: 0}
  m_PrefabInternal: {fileID: 100100000}
  m_GameObject: {fileID: 1150077882502536}
  m_Enabled: 1
  m_EditorHideFlags: 0
  m_Script: {fileID: 11500000, guid: d546f34a90531a14eaba82a43b05b86b, type: 3}
  m_Name: 
  m_EditorClassIdentifier: 
  version: 3
  materialIdsValid: 1
  needMaterialInstance: 1
  spriteDefinitions:
  - name: weight_1
    boundsData:
    - {x: 0, y: 0, z: 0}
    - {x: 154, y: 106, z: 0}
    untrimmedBoundsData:
    - {x: 0, y: 0, z: 0}
    - {x: 154, y: 106, z: 0}
    texelSize: {x: 1, y: 1}
    positions:
    - {x: -77, y: -53, z: 0}
    - {x: 77, y: -53, z: 0}
    - {x: -77, y: 53, z: 0}
    - {x: 77, y: 53, z: 0}
    normals: []
    tangents: []
    uvs:
    - {x: 0.007816406, y: 0.28906447}
    - {x: 0.60937107, y: 0.28906447}
    - {x: 0.007816406, y: 0.49609178}
    - {x: 0.60937107, y: 0.49609178}
    normalizedUvs:
    - {x: 0, y: 0}
    - {x: 1, y: 0}
    - {x: 0, y: 1}
    - {x: 1, y: 1}
    indices: 000000000300000001000000020000000300000000000000
    material: {fileID: 2100000, guid: 6f8806cd9f32bf64ca172b113af707b5, type: 2}
    materialId: 0
    materialIndexData: 000000000000000006000000
    sourceTextureGUID: cdfae5287a0c12440a20863e6e462fe1
    extractRegion: 0
    regionX: 0
    regionY: 0
    regionW: 0
    regionH: 0
    flipped: 0
    complexGeometry: 0
    physicsEngine: 0
    colliderType: 0
    customColliders: []
    colliderVertices: []
    colliderIndicesFwd: 
    colliderIndicesBack: 
    colliderConvex: 0
    colliderSmoothSphereCollisions: 0
    polygonCollider2D: []
    edgeCollider2D: []
    attachPoints: []
  - name: hook
    boundsData:
    - {x: 0, y: -39, z: 0}
    - {x: 50, y: 78, z: 0}
    untrimmedBoundsData:
    - {x: 0, y: -39, z: 0}
    - {x: 50, y: 78, z: 0}
    texelSize: {x: 1, y: 1}
    positions:
    - {x: -25, y: -78, z: 0}
    - {x: 25, y: -78, z: 0}
    - {x: -25, y: 0, z: 0}
    - {x: 25, y: 0, z: 0}
    normals: []
    tangents: []
    uvs:
    - {x: 0.7304727, y: 0.7539082}
    - {x: 0.9257773, y: 0.7539082}
    - {x: 0.7304727, y: 0.90624803}
    - {x: 0.9257773, y: 0.90624803}
    normalizedUvs:
    - {x: 0, y: 0}
    - {x: 1, y: 0}
    - {x: 0, y: 1}
    - {x: 1, y: 1}
    indices: 000000000300000001000000020000000300000000000000
    material: {fileID: 2100000, guid: 6f8806cd9f32bf64ca172b113af707b5, type: 2}
    materialId: 0
    materialIndexData: 000000000000000006000000
    sourceTextureGUID: e6c5d194d0798a64a8723d13f722899f
    extractRegion: 0
    regionX: 0
    regionY: 0
    regionW: 0
    regionH: 0
    flipped: 0
    complexGeometry: 0
    physicsEngine: 0
    colliderType: 0
    customColliders: []
    colliderVertices: []
    colliderIndicesFwd: 
    colliderIndicesBack: 
    colliderConvex: 0
    colliderSmoothSphereCollisions: 0
    polygonCollider2D: []
    edgeCollider2D: []
    attachPoints: []
  - name: hook_line
    boundsData:
    - {x: 0, y: -0.5, z: 0}
    - {x: 14, y: 15, z: 0}
    untrimmedBoundsData:
    - {x: 0, y: -0.5, z: 0}
    - {x: 14, y: 15, z: 0}
    texelSize: {x: 1, y: 1}
    positions:
    - {x: -7, y: -8, z: 0}
    - {x: 7, y: -8, z: 0}
    - {x: -7, y: 7, z: 0}
    - {x: 7, y: 7, z: 0}
    normals: []
    tangents: []
    uvs:
    - {x: 0.93750393, y: 0.12304883}
    - {x: 0.99218357, y: 0.12304883}
    - {x: 0.93750393, y: 0.1523418}
    - {x: 0.99218357, y: 0.1523418}
    normalizedUvs:
    - {x: 0, y: 0}
    - {x: 1, y: 0}
    - {x: 0, y: 1}
    - {x: 1, y: 1}
    indices: 000000000300000001000000020000000300000000000000
    material: {fileID: 2100000, guid: 6f8806cd9f32bf64ca172b113af707b5, type: 2}
    materialId: 0
    materialIndexData: 000000000000000006000000
    sourceTextureGUID: c2fd9b13c9985f64cab75cf3112f35eb
    extractRegion: 0
    regionX: 0
    regionY: 0
    regionW: 0
    regionH: 0
    flipped: 0
    complexGeometry: 0
    physicsEngine: 0
    colliderType: 0
    customColliders: []
    colliderVertices: []
    colliderIndicesFwd: 
    colliderIndicesBack: 
    colliderConvex: 0
    colliderSmoothSphereCollisions: 0
    polygonCollider2D: []
    edgeCollider2D: []
    attachPoints: []
  - name: pulley
    boundsData:
    - {x: 0, y: -0.5, z: 0}
    - {x: 128, y: 147, z: 0}
    untrimmedBoundsData:
    - {x: 0, y: -0.5, z: 0}
    - {x: 128, y: 147, z: 0}
    texelSize: {x: 1, y: 1}
    positions:
    - {x: -64, y: -74, z: 0}
    - {x: 64, y: -74, z: 0}
    - {x: -64, y: 73, z: 0}
    - {x: 64, y: 73, z: 0}
    normals: []
    tangents: []
    uvs:
    - {x: 0.007816406, y: 0.5039082}
    - {x: 0.007816406, y: 0.7539043}
    - {x: 0.5820273, y: 0.5039082}
    - {x: 0.5820273, y: 0.7539043}
    normalizedUvs:
    - {x: 0, y: 0}
    - {x: 0, y: 1}
    - {x: 1, y: 0}
    - {x: 1, y: 1}
    indices: 000000000300000001000000020000000300000000000000
    material: {fileID: 2100000, guid: 6f8806cd9f32bf64ca172b113af707b5, type: 2}
    materialId: 0
    materialIndexData: 000000000000000006000000
    sourceTextureGUID: d2d293a39dc84b2449262c965537cbc2
    extractRegion: 0
    regionX: 0
    regionY: 0
    regionW: 0
    regionH: 0
    flipped: 1
    complexGeometry: 0
    physicsEngine: 0
    colliderType: 0
    customColliders: []
    colliderVertices: []
    colliderIndicesFwd: 
    colliderIndicesBack: 
    colliderConvex: 0
    colliderSmoothSphereCollisions: 0
    polygonCollider2D: []
    edgeCollider2D: []
    attachPoints: []
  - name: hook_line2
    boundsData:
    - {x: 0.5, y: -0.5, z: 0}
    - {x: 109, y: 61, z: 0}
    untrimmedBoundsData:
    - {x: 0.5, y: -0.5, z: 0}
    - {x: 109, y: 61, z: 0}
    texelSize: {x: 1, y: 1}
    positions:
    - {x: -54, y: -31, z: 0}
    - {x: 55, y: -31, z: 0}
    - {x: -54, y: 30, z: 0}
    - {x: 55, y: 30, z: 0}
    normals: []
    tangents: []
    uvs:
    - {x: 0.4765664, y: 0.7617207}
    - {x: 0.4765664, y: 0.9746074}
    - {x: 0.7148398, y: 0.7617207}
    - {x: 0.7148398, y: 0.9746074}
    normalizedUvs:
    - {x: 0, y: 0}
    - {x: 0, y: 1}
    - {x: 1, y: 0}
    - {x: 1, y: 1}
    indices: 000000000300000001000000020000000300000000000000
    material: {fileID: 2100000, guid: 6f8806cd9f32bf64ca172b113af707b5, type: 2}
    materialId: 0
    materialIndexData: 000000000000000006000000
    sourceTextureGUID: 15dde3b8b27698e46be2265a99c4e542
    extractRegion: 0
    regionX: 0
    regionY: 0
    regionW: 0
    regionH: 0
    flipped: 1
    complexGeometry: 0
    physicsEngine: 0
    colliderType: 0
    customColliders: []
    colliderVertices: []
    colliderIndicesFwd: 
    colliderIndicesBack: 
    colliderConvex: 0
    colliderSmoothSphereCollisions: 0
    polygonCollider2D: []
    edgeCollider2D: []
    attachPoints: []
  - name: weight_2
    boundsData:
    - {x: 0, y: 0, z: 0}
    - {x: 122, y: 82, z: 0}
    untrimmedBoundsData:
    - {x: 0, y: 0, z: 0}
    - {x: 122, y: 82, z: 0}
    texelSize: {x: 1, y: 1}
    positions:
    - {x: -61, y: -41, z: 0}
    - {x: 61, y: -41, z: 0}
    - {x: -61, y: 41, z: 0}
    - {x: 61, y: 41, z: 0}
    normals: []
    tangents: []
    uvs:
    - {x: 0.62500393, y: 0.28906447}
    - {x: 0.62500393, y: 0.5273418}
    - {x: 0.94530857, y: 0.28906447}
    - {x: 0.94530857, y: 0.5273418}
    normalizedUvs:
    - {x: 0, y: 0}
    - {x: 0, y: 1}
    - {x: 1, y: 0}
    - {x: 1, y: 1}
    indices: 000000000300000001000000020000000300000000000000
    material: {fileID: 2100000, guid: 6f8806cd9f32bf64ca172b113af707b5, type: 2}
    materialId: 0
    materialIndexData: 000000000000000006000000
    sourceTextureGUID: cc8d7eeab4598b34aa854c18d1cb3e40
    extractRegion: 0
    regionX: 0
    regionY: 0
    regionW: 0
    regionH: 0
    flipped: 1
    complexGeometry: 0
    physicsEngine: 0
    colliderType: 0
    customColliders: []
    colliderVertices: []
    colliderIndicesFwd: 
    colliderIndicesBack: 
    colliderConvex: 0
    colliderSmoothSphereCollisions: 0
    polygonCollider2D: []
    edgeCollider2D: []
    attachPoints: []
  - name: weight_dog_body
    boundsData:
    - {x: 0, y: 0, z: 0}
    - {x: 200, y: 142, z: 0}
    untrimmedBoundsData:
    - {x: 0, y: 0, z: 0}
    - {x: 200, y: 142, z: 0}
    texelSize: {x: 1, y: 1}
    positions:
    - {x: -100, y: -71, z: 0}
    - {x: 100, y: -71, z: 0}
    - {x: -100, y: 71, z: 0}
    - {x: 100, y: 71, z: 0}
    normals: []
    tangents: []
    uvs:
    - {x: 0.007816406, y: 0.003908203}
    - {x: 0.78905857, y: 0.003908203}
    - {x: 0.007816406, y: 0.28124803}
    - {x: 0.78905857, y: 0.28124803}
    normalizedUvs:
    - {x: 0, y: 0}
    - {x: 1, y: 0}
    - {x: 0, y: 1}
    - {x: 1, y: 1}
    indices: 000000000300000001000000020000000300000000000000
    material: {fileID: 2100000, guid: 6f8806cd9f32bf64ca172b113af707b5, type: 2}
    materialId: 0
    materialIndexData: 000000000000000006000000
    sourceTextureGUID: b08486e8abf509c46ae7ca3e6e52d8bd
    extractRegion: 0
    regionX: 0
    regionY: 0
    regionW: 0
    regionH: 0
    flipped: 0
    complexGeometry: 0
    physicsEngine: 0
    colliderType: 0
    customColliders: []
    colliderVertices: []
    colliderIndicesFwd: 
    colliderIndicesBack: 
    colliderConvex: 0
    colliderSmoothSphereCollisions: 0
    polygonCollider2D: []
    edgeCollider2D: []
    attachPoints: []
  - name: Weight_cat_body
    boundsData:
    - {x: -2.000002, y: -0.5, z: 0}
    - {x: 116, y: 119, z: 0}
    untrimmedBoundsData:
    - {x: 0, y: -0.5, z: 0}
    - {x: 120, y: 119, z: 0}
    texelSize: {x: 1, y: 1}
    positions:
    - {x: -60, y: -60, z: 0}
    - {x: 55.999996, y: -60, z: 0}
    - {x: -60, y: 59, z: 0}
    - {x: 55.999996, y: 59, z: 0}
    normals: []
    tangents: []
    uvs:
    - {x: 0.007816406, y: 0.7617207}
    - {x: 0.4609336, y: 0.7617207}
    - {x: 0.007816406, y: 0.99413866}
    - {x: 0.4609336, y: 0.99413866}
    normalizedUvs:
    - {x: 0, y: 0}
    - {x: 1, y: 0}
    - {x: 0, y: 1}
    - {x: 1, y: 1}
    indices: 000000000300000001000000020000000300000000000000
    material: {fileID: 2100000, guid: 6f8806cd9f32bf64ca172b113af707b5, type: 2}
    materialId: 0
    materialIndexData: 000000000000000006000000
    sourceTextureGUID: 447824822b36e8d439536e769eb3bd47
    extractRegion: 0
    regionX: 0
    regionY: 0
    regionW: 0
    regionH: 0
    flipped: 0
    complexGeometry: 0
    physicsEngine: 0
    colliderType: 0
    customColliders: []
    colliderVertices: []
    colliderIndicesFwd: 
    colliderIndicesBack: 
    colliderConvex: 0
    colliderSmoothSphereCollisions: 0
    polygonCollider2D: []
    edgeCollider2D: []
    attachPoints: []
  - name: Weight_cat_tail
    boundsData:
    - {x: -8, y: -26, z: 0}
    - {x: 30, y: 60, z: 0}
    untrimmedBoundsData:
    - {x: -8, y: -26, z: 0}
    - {x: 30, y: 60, z: 0}
    texelSize: {x: 1, y: 1}
    positions:
    - {x: -23, y: -56, z: 0}
    - {x: 7, y: -56, z: 0}
    - {x: -23, y: 4, z: 0}
    - {x: 7, y: 4, z: 0}
    normals: []
    tangents: []
    uvs:
    - {x: 0.80469143, y: 0.12304883}
    - {x: 0.92187107, y: 0.12304883}
    - {x: 0.80469143, y: 0.24023242}
    - {x: 0.92187107, y: 0.24023242}
    normalizedUvs:
    - {x: 0, y: 0}
    - {x: 1, y: 0}
    - {x: 0, y: 1}
    - {x: 1, y: 1}
    indices: 000000000300000001000000020000000300000000000000
    material: {fileID: 2100000, guid: 6f8806cd9f32bf64ca172b113af707b5, type: 2}
    materialId: 0
    materialIndexData: 000000000000000006000000
    sourceTextureGUID: 667624034e13c8140a0e655f4a991d6c
    extractRegion: 0
    regionX: 0
    regionY: 0
    regionW: 0
    regionH: 0
    flipped: 0
    complexGeometry: 0
    physicsEngine: 0
    colliderType: 0
    customColliders: []
    colliderVertices: []
    colliderIndicesFwd: 
    colliderIndicesBack: 
    colliderConvex: 0
    colliderSmoothSphereCollisions: 0
    polygonCollider2D: []
    edgeCollider2D: []
    attachPoints: []
  - name: Weight_cat_head
    boundsData:
    - {x: 0, y: -0.5, z: 0}
    - {x: 38, y: 57, z: 0}
    untrimmedBoundsData:
    - {x: 0, y: -0.5, z: 0}
    - {x: 38, y: 57, z: 0}
    texelSize: {x: 1, y: 1}
    positions:
    - {x: -19, y: -29, z: 0}
    - {x: 19, y: -29, z: 0}
    - {x: -19, y: 28, z: 0}
    - {x: 19, y: 28, z: 0}
    normals: []
    tangents: []
    uvs:
    - {x: 0.80469143, y: 0.003908203}
    - {x: 0.95312107, y: 0.003908203}
    - {x: 0.80469143, y: 0.11523242}
    - {x: 0.95312107, y: 0.11523242}
    normalizedUvs:
    - {x: 0, y: 0}
    - {x: 1, y: 0}
    - {x: 0, y: 1}
    - {x: 1, y: 1}
    indices: 000000000300000001000000020000000300000000000000
    material: {fileID: 2100000, guid: 6f8806cd9f32bf64ca172b113af707b5, type: 2}
    materialId: 0
    materialIndexData: 000000000000000006000000
    sourceTextureGUID: ef9682f6d36cf564588198caccbf6184
    extractRegion: 0
    regionX: 0
    regionY: 0
    regionW: 0
    regionH: 0
    flipped: 0
    complexGeometry: 0
    physicsEngine: 0
    colliderType: 0
    customColliders: []
    colliderVertices: []
    colliderIndicesFwd: 
    colliderIndicesBack: 
    colliderConvex: 0
    colliderSmoothSphereCollisions: 0
    polygonCollider2D: []
    edgeCollider2D: []
    attachPoints: []
  - name: weight_dog_head
    boundsData:
    - {x: 0, y: -0.5, z: 0}
    - {x: 108, y: 97, z: 0}
    untrimmedBoundsData:
    - {x: 0, y: -0.5, z: 0}
    - {x: 108, y: 97, z: 0}
    texelSize: {x: 1, y: 1}
    positions:
    - {x: -54, y: -49, z: 0}
    - {x: 54, y: -49, z: 0}
    - {x: -54, y: 48, z: 0}
    - {x: 54, y: 48, z: 0}
    normals: []
    tangents: []
    uvs:
    - {x: 0.5976602, y: 0.5351582}
    - {x: 0.5976602, y: 0.7460918}
    - {x: 0.97655857, y: 0.5351582}
    - {x: 0.97655857, y: 0.7460918}
    normalizedUvs:
    - {x: 0, y: 0}
    - {x: 0, y: 1}
    - {x: 1, y: 0}
    - {x: 1, y: 1}
    indices: 000000000300000001000000020000000300000000000000
    material: {fileID: 2100000, guid: 6f8806cd9f32bf64ca172b113af707b5, type: 2}
    materialId: 0
    materialIndexData: 000000000000000006000000
    sourceTextureGUID: b666a6be4bfbc5441a557d87b27096d8
    extractRegion: 0
    regionX: 0
    regionY: 0
    regionW: 0
    regionH: 0
    flipped: 1
    complexGeometry: 0
    physicsEngine: 0
    colliderType: 0
    customColliders: []
    colliderVertices: []
    colliderIndicesFwd: 
    colliderIndicesBack: 
    colliderConvex: 0
    colliderSmoothSphereCollisions: 0
    polygonCollider2D: []
    edgeCollider2D: []
    attachPoints: []
  premultipliedAlpha: 0
  material: {fileID: 0}
  materials:
  - {fileID: 2100000, guid: 6f8806cd9f32bf64ca172b113af707b5, type: 2}
  textures: []
  pngTextures:
  - {fileID: 4900000, guid: 09f24fac3f38a464694aeaa593d2f8ad, type: 3}
  materialPngTextureId: 00000000
  textureFilterMode: 1
  textureMipMaps: 0
  allowMultipleAtlases: 0
  spriteCollectionGUID: 47a5e0dc902324648aa86d98a464d76c
  spriteCollectionName: PulleyCollection
  assetName: 
  loadable: 0
  invOrthoSize: 2
  halfTargetHeight: 0.5
  buildKey: 2075238723
  dataGuid: 941c16ac69bda43478718ac3c286dc29
  managedSpriteCollection: 0
  hasPlatformData: 0
  spriteCollectionPlatforms: []
  spriteCollectionPlatformGUIDs: []
