%YAML 1.1
%TAG !u! tag:unity3d.com,2011:
--- !u!1001 &100100000
Prefab:
  m_ObjectHideFlags: 1
  serializedVersion: 2
  m_Modification:
    m_TransformParent: {fileID: 0}
    m_Modifications: []
    m_RemovedComponents: []
  m_ParentPrefab: {fileID: 0}
  m_RootGameObject: {fileID: 1062498743690344}
  m_IsPrefabParent: 1
--- !u!1 &1062498743690344
GameObject:
  m_ObjectHideFlags: 0
  m_PrefabParentObject: {fileID: 0}
  m_PrefabInternal: {fileID: 100100000}
  serializedVersion: 5
  m_Component:
  - component: {fileID: 4178111079600316}
  - component: {fileID: 114437252722545838}
  m_Layer: 0
  m_Name: storycollection
  m_TagString: Untagged
  m_Icon: {fileID: 0}
  m_NavMeshLayer: 0
  m_StaticEditorFlags: 0
  m_IsActive: 1
--- !u!4 &4178111079600316
Transform:
  m_ObjectHideFlags: 1
  m_PrefabParentObject: {fileID: 0}
  m_PrefabInternal: {fileID: 100100000}
  m_GameObject: {fileID: 1062498743690344}
  m_LocalRotation: {x: 0, y: 0, z: 0, w: 1}
  m_LocalPosition: {x: 0, y: 0, z: 0}
  m_LocalScale: {x: 1, y: 1, z: 1}
  m_Children: []
  m_Father: {fileID: 0}
  m_RootOrder: 0
  m_LocalEulerAnglesHint: {x: 0, y: 0, z: 0}
--- !u!114 &114437252722545838
MonoBehaviour:
  m_ObjectHideFlags: 1
  m_PrefabParentObject: {fileID: 0}
  m_PrefabInternal: {fileID: 100100000}
  m_GameObject: {fileID: 1062498743690344}
  m_Enabled: 1
  m_EditorHideFlags: 0
  m_Script: {fileID: 11500000, guid: d546f34a90531a14eaba82a43b05b86b, type: 3}
  m_Name: 
  m_EditorClassIdentifier: 
  version: 3
  materialIdsValid: 1
  needMaterialInstance: 1
  spriteDefinitions:
  - name: story8
    boundsData:
    - {x: 0.5, y: 0, z: 0}
    - {x: 255, y: 230, z: 0}
    untrimmedBoundsData:
    - {x: 0.5, y: 0, z: 0}
    - {x: 255, y: 230, z: 0}
    texelSize: {x: 1, y: 1}
    positions:
    - {x: -127, y: -115, z: 0}
    - {x: 128, y: -115, z: 0}
    - {x: -127, y: 115, z: 0}
    - {x: 128, y: 115, z: 0}
    normals: []
    tangents: []
    uvs:
    - {x: 0.0019541015, y: 0.6269536}
    - {x: 0.25097558, y: 0.6269536}
    - {x: 0.0019541015, y: 0.73925734}
    - {x: 0.25097558, y: 0.73925734}
    normalizedUvs:
    - {x: 0, y: 0}
    - {x: 1, y: 0}
    - {x: 0, y: 1}
    - {x: 1, y: 1}
    indices: 000000000300000001000000020000000300000000000000
    material: {fileID: 2100000, guid: 9bb4bad3e3066b04bb33aa14942f0452, type: 2}
    materialId: 0
    materialIndexData: 000000000000000006000000
    sourceTextureGUID: 789134df78ee8bf4e9c357fab700561d
    extractRegion: 0
    regionX: 0
    regionY: 0
    regionW: 0
    regionH: 0
    flipped: 0
    complexGeometry: 0
    physicsEngine: 0
    colliderType: 0
    customColliders: []
    colliderVertices: []
    colliderIndicesFwd: 
    colliderIndicesBack: 
    colliderConvex: 0
    colliderSmoothSphereCollisions: 0
    polygonCollider2D: []
    edgeCollider2D: []
    attachPoints: []
  - name: story6
    boundsData:
    - {x: 0.5, y: 0, z: 0}
    - {x: 301, y: 230, z: 0}
    untrimmedBoundsData:
    - {x: 0.5, y: 0, z: 0}
    - {x: 301, y: 230, z: 0}
    texelSize: {x: 1, y: 1}
    positions:
    - {x: -150, y: -115, z: 0}
    - {x: 151, y: -115, z: 0}
    - {x: -150, y: 115, z: 0}
    - {x: 151, y: 115, z: 0}
    normals: []
    tangents: []
    uvs:
    - {x: 0.32324317, y: 0.52002}
    - {x: 0.61718655, y: 0.52002}
    - {x: 0.32324317, y: 0.63232374}
    - {x: 0.61718655, y: 0.63232374}
    normalizedUvs:
    - {x: 0, y: 0}
    - {x: 1, y: 0}
    - {x: 0, y: 1}
    - {x: 1, y: 1}
    indices: 000000000300000001000000020000000300000000000000
    material: {fileID: 2100000, guid: 9bb4bad3e3066b04bb33aa14942f0452, type: 2}
    materialId: 0
    materialIndexData: 000000000000000006000000
    sourceTextureGUID: ffc6bd736b9ec174197139bcea75adb3
    extractRegion: 0
    regionX: 0
    regionY: 0
    regionW: 0
    regionH: 0
    flipped: 0
    complexGeometry: 0
    physicsEngine: 0
    colliderType: 0
    customColliders: []
    colliderVertices: []
    colliderIndicesFwd: 
    colliderIndicesBack: 
    colliderConvex: 0
    colliderSmoothSphereCollisions: 0
    polygonCollider2D: []
    edgeCollider2D: []
    attachPoints: []
  - name: story7
    boundsData:
    - {x: 0.5, y: 0, z: 0}
    - {x: 325, y: 230, z: 0}
    untrimmedBoundsData:
    - {x: 0.5, y: 0, z: 0}
    - {x: 325, y: 230, z: 0}
    texelSize: {x: 1, y: 1}
    positions:
    - {x: -162, y: -115, z: 0}
    - {x: 163, y: -115, z: 0}
    - {x: -162, y: 115, z: 0}
    - {x: 163, y: 115, z: 0}
    normals: []
    tangents: []
    uvs:
    - {x: 0.0019541015, y: 0.5126958}
    - {x: 0.31933495, y: 0.5126958}
    - {x: 0.0019541015, y: 0.6249995}
    - {x: 0.31933495, y: 0.6249995}
    normalizedUvs:
    - {x: 0, y: 0}
    - {x: 1, y: 0}
    - {x: 0, y: 1}
    - {x: 1, y: 1}
    indices: 000000000300000001000000020000000300000000000000
    material: {fileID: 2100000, guid: 9bb4bad3e3066b04bb33aa14942f0452, type: 2}
    materialId: 0
    materialIndexData: 000000000000000006000000
    sourceTextureGUID: cbd300e6ba4b05146a483007af45f09e
    extractRegion: 0
    regionX: 0
    regionY: 0
    regionW: 0
    regionH: 0
    flipped: 0
    complexGeometry: 0
    physicsEngine: 0
    colliderType: 0
    customColliders: []
    colliderVertices: []
    colliderIndicesFwd: 
    colliderIndicesBack: 
    colliderConvex: 0
    colliderSmoothSphereCollisions: 0
    polygonCollider2D: []
    edgeCollider2D: []
    attachPoints: []
  - name: story9
    boundsData:
    - {x: 0.5, y: -0.5, z: 0}
    - {x: 511, y: 275, z: 0}
    untrimmedBoundsData:
    - {x: 0.5, y: -0.5, z: 0}
    - {x: 511, y: 275, z: 0}
    texelSize: {x: 1, y: 1}
    positions:
    - {x: -255, y: -138, z: 0}
    - {x: 256, y: -138, z: 0}
    - {x: -255, y: 137, z: 0}
    - {x: 256, y: 137, z: 0}
    normals: []
    tangents: []
    uvs:
    - {x: 0.6308603, y: 0.0009770507}
    - {x: 0.6308603, y: 0.2504878}
    - {x: 0.8994131, y: 0.0009770507}
    - {x: 0.8994131, y: 0.2504878}
    normalizedUvs:
    - {x: 0, y: 0}
    - {x: 0, y: 1}
    - {x: 1, y: 0}
    - {x: 1, y: 1}
    indices: 000000000300000001000000020000000300000000000000
    material: {fileID: 2100000, guid: 9bb4bad3e3066b04bb33aa14942f0452, type: 2}
    materialId: 0
    materialIndexData: 000000000000000006000000
    sourceTextureGUID: e28e87d621ee6164c80471c2a611e000
    extractRegion: 0
    regionX: 0
    regionY: 0
    regionW: 0
    regionH: 0
    flipped: 1
    complexGeometry: 0
    physicsEngine: 0
    colliderType: 0
    customColliders: []
    colliderVertices: []
    colliderIndicesFwd: 
    colliderIndicesBack: 
    colliderConvex: 0
    colliderSmoothSphereCollisions: 0
    polygonCollider2D: []
    edgeCollider2D: []
    attachPoints: []
  - name: story3
    boundsData:
    - {x: 7.5, y: -0.5, z: 0}
    - {x: 479, y: 269, z: 0}
    untrimmedBoundsData:
    - {x: 0, y: -0.5, z: 0}
    - {x: 510, y: 269, z: 0}
    texelSize: {x: 1, y: 1}
    positions:
    - {x: -232, y: -135, z: 0}
    - {x: 247, y: -135, z: 0}
    - {x: -232, y: 134, z: 0}
    - {x: 247, y: 134, z: 0}
    normals: []
    tangents: []
    uvs:
    - {x: 0.0019541015, y: 0.379395}
    - {x: 0.46972558, y: 0.379395}
    - {x: 0.0019541015, y: 0.5107417}
    - {x: 0.46972558, y: 0.5107417}
    normalizedUvs:
    - {x: 0, y: 0}
    - {x: 1, y: 0}
    - {x: 0, y: 1}
    - {x: 1, y: 1}
    indices: 000000000300000001000000020000000300000000000000
    material: {fileID: 2100000, guid: 9bb4bad3e3066b04bb33aa14942f0452, type: 2}
    materialId: 0
    materialIndexData: 000000000000000006000000
    sourceTextureGUID: f510e91e8c646ab46be0d60718c5c0e7
    extractRegion: 0
    regionX: 0
    regionY: 0
    regionW: 0
    regionH: 0
    flipped: 0
    complexGeometry: 0
    physicsEngine: 0
    colliderType: 0
    customColliders: []
    colliderVertices: []
    colliderIndicesFwd: 
    colliderIndicesBack: 
    colliderConvex: 0
    colliderSmoothSphereCollisions: 0
    polygonCollider2D: []
    edgeCollider2D: []
    attachPoints: []
  - name: story8-1
    boundsData:
    - {x: 0.5, y: 0, z: 0}
    - {x: 255, y: 230, z: 0}
    untrimmedBoundsData:
    - {x: 0.5, y: 0, z: 0}
    - {x: 255, y: 230, z: 0}
    texelSize: {x: 1, y: 1}
    positions:
    - {x: -127, y: -115, z: 0}
    - {x: 128, y: -115, z: 0}
    - {x: -127, y: 115, z: 0}
    - {x: 128, y: 115, z: 0}
    normals: []
    tangents: []
    uvs:
    - {x: 0.6210947, y: 0.52002}
    - {x: 0.87011623, y: 0.52002}
    - {x: 0.6210947, y: 0.63232374}
    - {x: 0.87011623, y: 0.63232374}
    normalizedUvs:
    - {x: 0, y: 0}
    - {x: 1, y: 0}
    - {x: 0, y: 1}
    - {x: 1, y: 1}
    indices: 000000000300000001000000020000000300000000000000
    material: {fileID: 2100000, guid: 9bb4bad3e3066b04bb33aa14942f0452, type: 2}
    materialId: 0
    materialIndexData: 000000000000000006000000
    sourceTextureGUID: d8d4af442e3e2864e9e06afc000a946f
    extractRegion: 0
    regionX: 0
    regionY: 0
    regionW: 0
    regionH: 0
    flipped: 0
    complexGeometry: 0
    physicsEngine: 0
    colliderType: 0
    customColliders: []
    colliderVertices: []
    colliderIndicesFwd: 
    colliderIndicesBack: 
    colliderConvex: 0
    colliderSmoothSphereCollisions: 0
    polygonCollider2D: []
    edgeCollider2D: []
    attachPoints: []
  - name: story2
    boundsData:
    - {x: 0, y: -0.5, z: 0}
    - {x: 510, y: 269, z: 0}
    untrimmedBoundsData:
    - {x: 0, y: -0.5, z: 0}
    - {x: 510, y: 269, z: 0}
    texelSize: {x: 1, y: 1}
    positions:
    - {x: -255, y: -135, z: 0}
    - {x: 255, y: -135, z: 0}
    - {x: -255, y: 134, z: 0}
    - {x: 255, y: 134, z: 0}
    normals: []
    tangents: []
    uvs:
    - {x: 0.4785166, y: 0.25244188}
    - {x: 0.97656155, y: 0.25244188}
    - {x: 0.4785166, y: 0.3837886}
    - {x: 0.97656155, y: 0.3837886}
    normalizedUvs:
    - {x: 0, y: 0}
    - {x: 1, y: 0}
    - {x: 0, y: 1}
    - {x: 1, y: 1}
    indices: 000000000300000001000000020000000300000000000000
    material: {fileID: 2100000, guid: 9bb4bad3e3066b04bb33aa14942f0452, type: 2}
    materialId: 0
    materialIndexData: 000000000000000006000000
    sourceTextureGUID: fb869992d96010e47983dd1f33c112fe
    extractRegion: 0
    regionX: 0
    regionY: 0
    regionW: 0
    regionH: 0
    flipped: 0
    complexGeometry: 0
    physicsEngine: 0
    colliderType: 0
    customColliders: []
    colliderVertices: []
    colliderIndicesFwd: 
    colliderIndicesBack: 
    colliderConvex: 0
    colliderSmoothSphereCollisions: 0
    polygonCollider2D: []
    edgeCollider2D: []
    attachPoints: []
  - name: story5
    boundsData:
    - {x: 0.5, y: 0, z: 0}
    - {x: 245, y: 230, z: 0}
    untrimmedBoundsData:
    - {x: 0.5, y: 0, z: 0}
    - {x: 245, y: 230, z: 0}
    texelSize: {x: 1, y: 1}
    positions:
    - {x: -122, y: -115, z: 0}
    - {x: 123, y: -115, z: 0}
    - {x: -122, y: 115, z: 0}
    - {x: 123, y: 115, z: 0}
    normals: []
    tangents: []
    uvs:
    - {x: 0.0019541015, y: 0.7412114}
    - {x: 0.0019541015, y: 0.86083937}
    - {x: 0.22656152, y: 0.7412114}
    - {x: 0.22656152, y: 0.86083937}
    normalizedUvs:
    - {x: 0, y: 0}
    - {x: 0, y: 1}
    - {x: 1, y: 0}
    - {x: 1, y: 1}
    indices: 000000000300000001000000020000000300000000000000
    material: {fileID: 2100000, guid: 9bb4bad3e3066b04bb33aa14942f0452, type: 2}
    materialId: 0
    materialIndexData: 000000000000000006000000
    sourceTextureGUID: 155beef95e1545e4d811951b6b81b83d
    extractRegion: 0
    regionX: 0
    regionY: 0
    regionW: 0
    regionH: 0
    flipped: 1
    complexGeometry: 0
    physicsEngine: 0
    colliderType: 0
    customColliders: []
    colliderVertices: []
    colliderIndicesFwd: 
    colliderIndicesBack: 
    colliderConvex: 0
    colliderSmoothSphereCollisions: 0
    polygonCollider2D: []
    edgeCollider2D: []
    attachPoints: []
  - name: story4
    boundsData:
    - {x: 0.5, y: -0.5, z: 0}
    - {x: 311, y: 271, z: 0}
    untrimmedBoundsData:
    - {x: 0.5, y: -0.5, z: 0}
    - {x: 311, y: 271, z: 0}
    texelSize: {x: 1, y: 1}
    positions:
    - {x: -155, y: -136, z: 0}
    - {x: 156, y: -136, z: 0}
    - {x: -155, y: 135, z: 0}
    - {x: 156, y: 135, z: 0}
    normals: []
    tangents: []
    uvs:
    - {x: 0.4736338, y: 0.38574266}
    - {x: 0.7773428, y: 0.38574266}
    - {x: 0.4736338, y: 0.5180659}
    - {x: 0.7773428, y: 0.5180659}
    normalizedUvs:
    - {x: 0, y: 0}
    - {x: 1, y: 0}
    - {x: 0, y: 1}
    - {x: 1, y: 1}
    indices: 000000000300000001000000020000000300000000000000
    material: {fileID: 2100000, guid: 9bb4bad3e3066b04bb33aa14942f0452, type: 2}
    materialId: 0
    materialIndexData: 000000000000000006000000
    sourceTextureGUID: 4ebf6341293f40c42b7bca034a038443
    extractRegion: 0
    regionX: 0
    regionY: 0
    regionW: 0
    regionH: 0
    flipped: 0
    complexGeometry: 0
    physicsEngine: 0
    colliderType: 0
    customColliders: []
    colliderVertices: []
    colliderIndicesFwd: 
    colliderIndicesBack: 
    colliderConvex: 0
    colliderSmoothSphereCollisions: 0
    polygonCollider2D: []
    edgeCollider2D: []
    attachPoints: []
  - name: story1
    boundsData:
    - {x: 0, y: -0.5, z: 0}
    - {x: 640, y: 333, z: 0}
    untrimmedBoundsData:
    - {x: 0, y: -0.5, z: 0}
    - {x: 640, y: 333, z: 0}
    texelSize: {x: 1, y: 1}
    positions:
    - {x: -320, y: -167, z: 0}
    - {x: 320, y: -167, z: 0}
    - {x: -320, y: 166, z: 0}
    - {x: 320, y: 166, z: 0}
    normals: []
    tangents: []
    uvs:
    - {x: 0.0019541015, y: 0.0009770507}
    - {x: 0.6269522, y: 0.0009770507}
    - {x: 0.0019541015, y: 0.16357373}
    - {x: 0.6269522, y: 0.16357373}
    normalizedUvs:
    - {x: 0, y: 0}
    - {x: 0.99999994, y: 0}
    - {x: 0, y: 1}
    - {x: 0.99999994, y: 1}
    indices: 000000000300000001000000020000000300000000000000
    material: {fileID: 2100000, guid: 9bb4bad3e3066b04bb33aa14942f0452, type: 2}
    materialId: 0
    materialIndexData: 000000000000000006000000
    sourceTextureGUID: 7e1adf945c02ad04ca60f5e5c58eeb78
    extractRegion: 0
    regionX: 0
    regionY: 0
    regionW: 0
    regionH: 0
    flipped: 0
    complexGeometry: 0
    physicsEngine: 0
    colliderType: 0
    customColliders: []
    colliderVertices: []
    colliderIndicesFwd: 
    colliderIndicesBack: 
    colliderConvex: 0
    colliderSmoothSphereCollisions: 0
    polygonCollider2D: []
    edgeCollider2D: []
    attachPoints: []
  - name: story4-1
    boundsData:
    - {x: 0, y: 0, z: 0}
    - {x: 484, y: 434, z: 0}
    untrimmedBoundsData:
    - {x: 0, y: 0, z: 0}
    - {x: 484, y: 434, z: 0}
    texelSize: {x: 1, y: 1}
    positions:
    - {x: -242, y: -217, z: 0}
    - {x: 242, y: -217, z: 0}
    - {x: -242, y: 217, z: 0}
    - {x: 242, y: 217, z: 0}
    normals: []
    tangents: []
    uvs:
    - {x: 0.0019541015, y: 0.16552784}
    - {x: 0.4746084, y: 0.16552784}
    - {x: 0.0019541015, y: 0.37744093}
    - {x: 0.4746084, y: 0.37744093}
    normalizedUvs:
    - {x: 0, y: 0}
    - {x: 1, y: 0}
    - {x: 0, y: 1}
    - {x: 1, y: 1}
    indices: 000000000300000001000000020000000300000000000000
    material: {fileID: 2100000, guid: 9bb4bad3e3066b04bb33aa14942f0452, type: 2}
    materialId: 0
    materialIndexData: 000000000000000006000000
    sourceTextureGUID: e0f6e2572062c8a4bae5ad0c8eb53a40
    extractRegion: 0
    regionX: 0
    regionY: 0
    regionW: 0
    regionH: 0
    flipped: 0
    complexGeometry: 0
    physicsEngine: 0
    colliderType: 0
    customColliders: []
    colliderVertices: []
    colliderIndicesFwd: 
    colliderIndicesBack: 
    colliderConvex: 0
    colliderSmoothSphereCollisions: 0
    polygonCollider2D: []
    edgeCollider2D: []
    attachPoints: []
  - name: story10
    boundsData:
    - {x: 0.5, y: -0.5, z: 0}
    - {x: 205, y: 255, z: 0}
    untrimmedBoundsData:
    - {x: 0.5, y: -0.5, z: 0}
    - {x: 205, y: 255, z: 0}
    texelSize: {x: 1, y: 1}
    positions:
    - {x: -102, y: -128, z: 0}
    - {x: 103, y: -128, z: 0}
    - {x: -102, y: 127, z: 0}
    - {x: 103, y: 127, z: 0}
    normals: []
    tangents: []
    uvs:
    - {x: 0.78125095, y: 0.38574266}
    - {x: 0.98144436, y: 0.38574266}
    - {x: 0.78125095, y: 0.5102534}
    - {x: 0.98144436, y: 0.5102534}
    normalizedUvs:
    - {x: 0, y: 0}
    - {x: 1, y: 0}
    - {x: 0, y: 1}
    - {x: 1, y: 1}
    indices: 000000000300000001000000020000000300000000000000
    material: {fileID: 2100000, guid: 9bb4bad3e3066b04bb33aa14942f0452, type: 2}
    materialId: 0
    materialIndexData: 000000000000000006000000
    sourceTextureGUID: c1df40f3dc6de414a99cc5356d9ffa52
    extractRegion: 0
    regionX: 0
    regionY: 0
    regionW: 0
    regionH: 0
    flipped: 0
    complexGeometry: 0
    physicsEngine: 0
    colliderType: 0
    customColliders: []
    colliderVertices: []
    colliderIndicesFwd: 
    colliderIndicesBack: 
    colliderConvex: 0
    colliderSmoothSphereCollisions: 0
    polygonCollider2D: []
    edgeCollider2D: []
    attachPoints: []
  premultipliedAlpha: 0
  material: {fileID: 0}
  materials:
  - {fileID: 2100000, guid: 9bb4bad3e3066b04bb33aa14942f0452, type: 2}
  textures: []
  pngTextures:
  - {fileID: 4900000, guid: 539ca4c1053ace94d8924a30120c0695, type: 3}
  materialPngTextureId: 00000000
  textureFilterMode: 1
  textureMipMaps: 0
  allowMultipleAtlases: 0
  spriteCollectionGUID: 0699ef2195a1bb44dbc558e40063e7db
  spriteCollectionName: storycollection
  assetName: 
  loadable: 0
  invOrthoSize: 2
  halfTargetHeight: 0.5
  buildKey: 65566319
  dataGuid: 411884c53709b434bbcd949bb55de456
  managedSpriteCollection: 0
  hasPlatformData: 0
  spriteCollectionPlatforms: []
  spriteCollectionPlatformGUIDs: []
