%YAML 1.1
%TAG !u! tag:unity3d.com,2011:
--- !u!1001 &100100000
Prefab:
  m_ObjectHideFlags: 1
  serializedVersion: 2
  m_Modification:
    m_TransformParent: {fileID: 0}
    m_Modifications: []
    m_RemovedComponents: []
  m_ParentPrefab: {fileID: 0}
  m_RootGameObject: {fileID: 1349969081756002}
  m_IsPrefabParent: 1
--- !u!1 &1349969081756002
GameObject:
  m_ObjectHideFlags: 0
  m_PrefabParentObject: {fileID: 0}
  m_PrefabInternal: {fileID: 100100000}
  serializedVersion: 5
  m_Component:
  - component: {fileID: 4845611577549108}
  - component: {fileID: 114663558984643538}
  m_Layer: 0
  m_Name: SpriteCollection 2
  m_TagString: Untagged
  m_Icon: {fileID: 0}
  m_NavMeshLayer: 0
  m_StaticEditorFlags: 0
  m_IsActive: 1
--- !u!4 &4845611577549108
Transform:
  m_ObjectHideFlags: 1
  m_PrefabParentObject: {fileID: 0}
  m_PrefabInternal: {fileID: 100100000}
  m_GameObject: {fileID: 1349969081756002}
  m_LocalRotation: {x: 0, y: 0, z: 0, w: 1}
  m_LocalPosition: {x: 0, y: 0, z: 0}
  m_LocalScale: {x: 1, y: 1, z: 1}
  m_Children: []
  m_Father: {fileID: 0}
  m_RootOrder: 0
  m_LocalEulerAnglesHint: {x: 0, y: 0, z: 0}
--- !u!114 &114663558984643538
MonoBehaviour:
  m_ObjectHideFlags: 1
  m_PrefabParentObject: {fileID: 0}
  m_PrefabInternal: {fileID: 100100000}
  m_GameObject: {fileID: 1349969081756002}
  m_Enabled: 1
  m_EditorHideFlags: 0
  m_Script: {fileID: 11500000, guid: d546f34a90531a14eaba82a43b05b86b, type: 3}
  m_Name: 
  m_EditorClassIdentifier: 
  version: 3
  materialIdsValid: 1
  needMaterialInstance: 1
  spriteDefinitions:
  - name: button_inner
    boundsData:
    - {x: 0, y: -0.5, z: 0}
    - {x: 70, y: 21, z: 0}
    untrimmedBoundsData:
    - {x: 0, y: -0.5, z: 0}
    - {x: 70, y: 21, z: 0}
    texelSize: {x: 1, y: 1}
    positions:
    - {x: -35, y: -11, z: 0}
    - {x: 35, y: -11, z: 0}
    - {x: -35, y: 10, z: 0}
    - {x: 35, y: 10, z: 0}
    normals: []
    tangents: []
    uvs:
    - {x: 0.6972676, y: 0.4394551}
    - {x: 0.6972676, y: 0.5761699}
    - {x: 0.7382793, y: 0.4394551}
    - {x: 0.7382793, y: 0.5761699}
    normalizedUvs:
    - {x: 0, y: 0}
    - {x: 0, y: 1}
    - {x: 1, y: 0}
    - {x: 1, y: 1}
    indices: 000000000300000001000000020000000300000000000000
    material: {fileID: 2100000, guid: 6d1ce1d2ce6ed244982b112d9ab07e49, type: 2}
    materialId: 0
    materialIndexData: 000000000000000006000000
    sourceTextureGUID: 70d6f7de7a1535c4a8de8f60dbfbedf0
    extractRegion: 0
    regionX: 0
    regionY: 0
    regionW: 0
    regionH: 0
    flipped: 1
    complexGeometry: 0
    physicsEngine: 0
    colliderType: 0
    customColliders: []
    colliderVertices: []
    colliderIndicesFwd: 
    colliderIndicesBack: 
    colliderConvex: 0
    colliderSmoothSphereCollisions: 0
    polygonCollider2D: []
    edgeCollider2D: []
    attachPoints: []
  - name: bald_head
    boundsData:
    - {x: 0.5, y: 0, z: 0}
    - {x: 103, y: 120, z: 0}
    untrimmedBoundsData:
    - {x: 0.5, y: 0, z: 0}
    - {x: 103, y: 120, z: 0}
    texelSize: {x: 1, y: 1}
    positions:
    - {x: -51, y: -60, z: 0}
    - {x: 52, y: -60, z: 0}
    - {x: -51, y: 60, z: 0}
    - {x: 52, y: 60, z: 0}
    normals: []
    tangents: []
    uvs:
    - {x: 0.003908203, y: 0.7851582}
    - {x: 0.003908203, y: 0.98632616}
    - {x: 0.2382793, y: 0.7851582}
    - {x: 0.2382793, y: 0.98632616}
    normalizedUvs:
    - {x: 0, y: 0}
    - {x: 0, y: 1}
    - {x: 1, y: 0}
    - {x: 1, y: 1}
    indices: 000000000300000001000000020000000300000000000000
    material: {fileID: 2100000, guid: 6d1ce1d2ce6ed244982b112d9ab07e49, type: 2}
    materialId: 0
    materialIndexData: 000000000000000006000000
    sourceTextureGUID: 4ec6752b39c4c174cab15a422ecc88b9
    extractRegion: 0
    regionX: 0
    regionY: 0
    regionW: 0
    regionH: 0
    flipped: 1
    complexGeometry: 0
    physicsEngine: 0
    colliderType: 0
    customColliders: []
    colliderVertices: []
    colliderIndicesFwd: 
    colliderIndicesBack: 
    colliderConvex: 0
    colliderSmoothSphereCollisions: 0
    polygonCollider2D: []
    edgeCollider2D: []
    attachPoints: []
  - name: BU
    boundsData:
    - {x: 0, y: 0, z: 0}
    - {x: 130, y: 138, z: 0}
    untrimmedBoundsData:
    - {x: 0, y: 0, z: 0}
    - {x: 130, y: 138, z: 0}
    texelSize: {x: 1, y: 1}
    positions:
    - {x: -65, y: -69, z: 0}
    - {x: 65, y: -69, z: 0}
    - {x: -65, y: 69, z: 0}
    - {x: 65, y: 69, z: 0}
    normals: []
    tangents: []
    uvs:
    - {x: 0.41992384, y: 0.30859572}
    - {x: 0.41992384, y: 0.56249803}
    - {x: 0.68945116, y: 0.30859572}
    - {x: 0.68945116, y: 0.56249803}
    normalizedUvs:
    - {x: 0, y: 0}
    - {x: 0, y: 1}
    - {x: 1, y: 0}
    - {x: 1, y: 1}
    indices: 000000000300000001000000020000000300000000000000
    material: {fileID: 2100000, guid: 6d1ce1d2ce6ed244982b112d9ab07e49, type: 2}
    materialId: 0
    materialIndexData: 000000000000000006000000
    sourceTextureGUID: 78d60423381063c4f8b7531b302420ae
    extractRegion: 0
    regionX: 0
    regionY: 0
    regionW: 0
    regionH: 0
    flipped: 1
    complexGeometry: 0
    physicsEngine: 0
    colliderType: 0
    customColliders: []
    colliderVertices: []
    colliderIndicesFwd: 
    colliderIndicesBack: 
    colliderConvex: 0
    colliderSmoothSphereCollisions: 0
    polygonCollider2D: []
    edgeCollider2D: []
    attachPoints: []
  - name: line_vert
    boundsData:
    - {x: 0.5, y: 0, z: 0}
    - {x: 9, y: 62, z: 0}
    untrimmedBoundsData:
    - {x: 0.5, y: 0, z: 0}
    - {x: 9, y: 62, z: 0}
    texelSize: {x: 1, y: 1}
    positions:
    - {x: -4, y: -31, z: 0}
    - {x: 5, y: -31, z: 0}
    - {x: -4, y: 31, z: 0}
    - {x: 5, y: 31, z: 0}
    normals: []
    tangents: []
    uvs:
    - {x: 0.9707051, y: 0.003908203}
    - {x: 0.9882793, y: 0.003908203}
    - {x: 0.9707051, y: 0.12499805}
    - {x: 0.9882793, y: 0.12499805}
    normalizedUvs:
    - {x: 0, y: 0}
    - {x: 1, y: 0}
    - {x: 0, y: 1}
    - {x: 1, y: 1}
    indices: 000000000300000001000000020000000300000000000000
    material: {fileID: 2100000, guid: 6d1ce1d2ce6ed244982b112d9ab07e49, type: 2}
    materialId: 0
    materialIndexData: 000000000000000006000000
    sourceTextureGUID: 33c0d918ef5e0494196e0958afe66a57
    extractRegion: 0
    regionX: 0
    regionY: 0
    regionW: 0
    regionH: 0
    flipped: 0
    complexGeometry: 0
    physicsEngine: 0
    colliderType: 0
    customColliders: []
    colliderVertices: []
    colliderIndicesFwd: 
    colliderIndicesBack: 
    colliderConvex: 0
    colliderSmoothSphereCollisions: 0
    polygonCollider2D: []
    edgeCollider2D: []
    attachPoints: []
  - name: line_hori
    boundsData:
    - {x: 0, y: -0.5, z: 0}
    - {x: 30, y: 3, z: 0}
    untrimmedBoundsData:
    - {x: 0, y: -0.5, z: 0}
    - {x: 30, y: 3, z: 0}
    texelSize: {x: 1, y: 1}
    positions:
    - {x: -15, y: -2, z: 0}
    - {x: 15, y: -2, z: 0}
    - {x: -15, y: 1, z: 0}
    - {x: 15, y: 1, z: 0}
    normals: []
    tangents: []
    uvs:
    - {x: 0.9707051, y: 0.13281445}
    - {x: 0.9707051, y: 0.1914043}
    - {x: 0.97656053, y: 0.13281445}
    - {x: 0.97656053, y: 0.1914043}
    normalizedUvs:
    - {x: 0, y: 0}
    - {x: 0, y: 1}
    - {x: 1, y: 0}
    - {x: 1, y: 1}
    indices: 000000000300000001000000020000000300000000000000
    material: {fileID: 2100000, guid: 6d1ce1d2ce6ed244982b112d9ab07e49, type: 2}
    materialId: 0
    materialIndexData: 000000000000000006000000
    sourceTextureGUID: e14ea117f61caa44a86254b6eb1243d8
    extractRegion: 0
    regionX: 0
    regionY: 0
    regionW: 0
    regionH: 0
    flipped: 1
    complexGeometry: 0
    physicsEngine: 0
    colliderType: 0
    customColliders: []
    colliderVertices: []
    colliderIndicesFwd: 
    colliderIndicesBack: 
    colliderConvex: 0
    colliderSmoothSphereCollisions: 0
    polygonCollider2D: []
    edgeCollider2D: []
    attachPoints: []
  - name: bald2
    boundsData:
    - {x: 0.5, y: -0.5, z: 0}
    - {x: 105, y: 157, z: 0}
    untrimmedBoundsData:
    - {x: 0.5, y: -0.5, z: 0}
    - {x: 105, y: 157, z: 0}
    texelSize: {x: 1, y: 1}
    positions:
    - {x: -52, y: -79, z: 0}
    - {x: 53, y: -79, z: 0}
    - {x: -52, y: 78, z: 0}
    - {x: 53, y: 78, z: 0}
    normals: []
    tangents: []
    uvs:
    - {x: 0.75781447, y: 0.003908203}
    - {x: 0.96288866, y: 0.003908203}
    - {x: 0.75781447, y: 0.3105449}
    - {x: 0.96288866, y: 0.3105449}
    normalizedUvs:
    - {x: 0, y: 0}
    - {x: 1, y: 0}
    - {x: 0, y: 1}
    - {x: 1, y: 1}
    indices: 000000000300000001000000020000000300000000000000
    material: {fileID: 2100000, guid: 6d1ce1d2ce6ed244982b112d9ab07e49, type: 2}
    materialId: 0
    materialIndexData: 000000000000000006000000
    sourceTextureGUID: bcdc57141f8e4d84fab9e9cb4786617f
    extractRegion: 0
    regionX: 0
    regionY: 0
    regionW: 0
    regionH: 0
    flipped: 0
    complexGeometry: 0
    physicsEngine: 0
    colliderType: 0
    customColliders: []
    colliderVertices: []
    colliderIndicesFwd: 
    colliderIndicesBack: 
    colliderConvex: 0
    colliderSmoothSphereCollisions: 0
    polygonCollider2D: []
    edgeCollider2D: []
    attachPoints: []
  - name: dino_eye
    boundsData:
    - {x: 0.5, y: -0.5, z: 0}
    - {x: 63, y: 25, z: 0}
    untrimmedBoundsData:
    - {x: 0.5, y: -0.5, z: 0}
    - {x: 63, y: 25, z: 0}
    texelSize: {x: 1, y: 1}
    positions:
    - {x: -31, y: -13, z: 0}
    - {x: 32, y: -13, z: 0}
    - {x: -31, y: 12, z: 0}
    - {x: 32, y: 12, z: 0}
    normals: []
    tangents: []
    uvs:
    - {x: 0.6972676, y: 0.30859572}
    - {x: 0.6972676, y: 0.43163866}
    - {x: 0.7460918, y: 0.30859572}
    - {x: 0.7460918, y: 0.43163866}
    normalizedUvs:
    - {x: 0, y: 0}
    - {x: 0, y: 1}
    - {x: 1, y: 0}
    - {x: 1, y: 1}
    indices: 000000000300000001000000020000000300000000000000
    material: {fileID: 2100000, guid: 6d1ce1d2ce6ed244982b112d9ab07e49, type: 2}
    materialId: 0
    materialIndexData: 000000000000000006000000
    sourceTextureGUID: 168fbe20c42daf14dbbb973d9c99ad0f
    extractRegion: 0
    regionX: 0
    regionY: 0
    regionW: 0
    regionH: 0
    flipped: 1
    complexGeometry: 0
    physicsEngine: 0
    colliderType: 0
    customColliders: []
    colliderVertices: []
    colliderIndicesFwd: 
    colliderIndicesBack: 
    colliderConvex: 0
    colliderSmoothSphereCollisions: 0
    polygonCollider2D: []
    edgeCollider2D: []
    attachPoints: []
  - name: button_tap
    boundsData:
    - {x: -0.5000038, y: 0, z: 0}
    - {x: 209, y: 168, z: 0}
    untrimmedBoundsData:
    - {x: 0, y: 0, z: 0}
    - {x: 210, y: 168, z: 0}
    texelSize: {x: 1, y: 1}
    positions:
    - {x: -105, y: -84, z: 0}
    - {x: 103.99999, y: -84, z: 0}
    - {x: -105, y: 84, z: 0}
    - {x: 103.99999, y: 84, z: 0}
    normals: []
    tangents: []
    uvs:
    - {x: 0.003908203, y: 0.003908203}
    - {x: 0.4121074, y: 0.003908203}
    - {x: 0.003908203, y: 0.33202928}
    - {x: 0.4121074, y: 0.33202928}
    normalizedUvs:
    - {x: 0, y: 0}
    - {x: 1, y: 0}
    - {x: 0, y: 1}
    - {x: 1, y: 1}
    indices: 000000000300000001000000020000000300000000000000
    material: {fileID: 2100000, guid: 6d1ce1d2ce6ed244982b112d9ab07e49, type: 2}
    materialId: 0
    materialIndexData: 000000000000000006000000
    sourceTextureGUID: 15a7816d2da12ec438864fee587f7c60
    extractRegion: 0
    regionX: 0
    regionY: 0
    regionW: 0
    regionH: 0
    flipped: 0
    complexGeometry: 0
    physicsEngine: 0
    colliderType: 0
    customColliders: []
    colliderVertices: []
    colliderIndicesFwd: 
    colliderIndicesBack: 
    colliderConvex: 0
    colliderSmoothSphereCollisions: 0
    polygonCollider2D: []
    edgeCollider2D: []
    attachPoints: []
  - name: bald1
    boundsData:
    - {x: 0, y: -0.5, z: 0}
    - {x: 152, y: 169, z: 0}
    untrimmedBoundsData:
    - {x: 0, y: -0.5, z: 0}
    - {x: 152, y: 169, z: 0}
    texelSize: {x: 1, y: 1}
    positions:
    - {x: -76, y: -85, z: 0}
    - {x: 76, y: -85, z: 0}
    - {x: -76, y: 84, z: 0}
    - {x: 76, y: 84, z: 0}
    normals: []
    tangents: []
    uvs:
    - {x: 0.41992384, y: 0.003908203}
    - {x: 0.41992384, y: 0.30077928}
    - {x: 0.74999803, y: 0.003908203}
    - {x: 0.74999803, y: 0.30077928}
    normalizedUvs:
    - {x: 0, y: 0}
    - {x: 0, y: 1}
    - {x: 1, y: 0}
    - {x: 1, y: 1}
    indices: 000000000300000001000000020000000300000000000000
    material: {fileID: 2100000, guid: 6d1ce1d2ce6ed244982b112d9ab07e49, type: 2}
    materialId: 0
    materialIndexData: 000000000000000006000000
    sourceTextureGUID: c3da15fded3733c40b9c5c33c90e207b
    extractRegion: 0
    regionX: 0
    regionY: 0
    regionW: 0
    regionH: 0
    flipped: 1
    complexGeometry: 0
    physicsEngine: 0
    colliderType: 0
    customColliders: []
    colliderVertices: []
    colliderIndicesFwd: 
    colliderIndicesBack: 
    colliderConvex: 0
    colliderSmoothSphereCollisions: 0
    polygonCollider2D: []
    edgeCollider2D: []
    attachPoints: []
  - name: bald_air
    boundsData:
    - {x: 0, y: -0.5, z: 0}
    - {x: 34, y: 21, z: 0}
    untrimmedBoundsData:
    - {x: 0, y: -0.5, z: 0}
    - {x: 34, y: 21, z: 0}
    texelSize: {x: 1, y: 1}
    positions:
    - {x: -17, y: -11, z: 0}
    - {x: 17, y: -11, z: 0}
    - {x: -17, y: 10, z: 0}
    - {x: 17, y: 10, z: 0}
    normals: []
    tangents: []
    uvs:
    - {x: 0.003908203, y: 0.4550801}
    - {x: 0.07031055, y: 0.4550801}
    - {x: 0.003908203, y: 0.49609178}
    - {x: 0.07031055, y: 0.49609178}
    normalizedUvs:
    - {x: 0, y: 0}
    - {x: 1, y: 0}
    - {x: 0, y: 1}
    - {x: 1, y: 1}
    indices: 000000000300000001000000020000000300000000000000
    material: {fileID: 2100000, guid: 6d1ce1d2ce6ed244982b112d9ab07e49, type: 2}
    materialId: 0
    materialIndexData: 000000000000000006000000
    sourceTextureGUID: 38d92400497af00469ed1439a0027563
    extractRegion: 0
    regionX: 0
    regionY: 0
    regionW: 0
    regionH: 0
    flipped: 0
    complexGeometry: 0
    physicsEngine: 0
    colliderType: 0
    customColliders: []
    colliderVertices: []
    colliderIndicesFwd: 
    colliderIndicesBack: 
    colliderConvex: 0
    colliderSmoothSphereCollisions: 0
    polygonCollider2D: []
    edgeCollider2D: []
    attachPoints: []
  - name: bald_eye
    boundsData:
    - {x: 0, y: -0.5, z: 0}
    - {x: 78, y: 49, z: 0}
    untrimmedBoundsData:
    - {x: 0, y: -0.5, z: 0}
    - {x: 78, y: 49, z: 0}
    texelSize: {x: 1, y: 1}
    positions:
    - {x: -39, y: -25, z: 0}
    - {x: 39, y: -25, z: 0}
    - {x: -39, y: 24, z: 0}
    - {x: 39, y: 24, z: 0}
    normals: []
    tangents: []
    uvs:
    - {x: 0.4160176, y: 0.57031447}
    - {x: 0.5683574, y: 0.57031447}
    - {x: 0.4160176, y: 0.66601366}
    - {x: 0.5683574, y: 0.66601366}
    normalizedUvs:
    - {x: 0, y: 0}
    - {x: 1, y: 0}
    - {x: 0, y: 1}
    - {x: 1, y: 1}
    indices: 000000000300000001000000020000000300000000000000
    material: {fileID: 2100000, guid: 6d1ce1d2ce6ed244982b112d9ab07e49, type: 2}
    materialId: 0
    materialIndexData: 000000000000000006000000
    sourceTextureGUID: 5e2dcfef94294a24da5b249e50dffcfd
    extractRegion: 0
    regionX: 0
    regionY: 0
    regionW: 0
    regionH: 0
    flipped: 0
    complexGeometry: 0
    physicsEngine: 0
    colliderType: 0
    customColliders: []
    colliderVertices: []
    colliderIndicesFwd: 
    colliderIndicesBack: 
    colliderConvex: 0
    colliderSmoothSphereCollisions: 0
    polygonCollider2D: []
    edgeCollider2D: []
    attachPoints: []
  - name: bald_body
    boundsData:
    - {x: 0.5, y: 0, z: 0}
    - {x: 127, y: 96, z: 0}
    untrimmedBoundsData:
    - {x: 0.5, y: 0, z: 0}
    - {x: 127, y: 96, z: 0}
    texelSize: {x: 1, y: 1}
    positions:
    - {x: -63, y: -48, z: 0}
    - {x: 64, y: -48, z: 0}
    - {x: -63, y: 48, z: 0}
    - {x: 64, y: 48, z: 0}
    normals: []
    tangents: []
    uvs:
    - {x: 0.003908203, y: 0.5273457}
    - {x: 0.003908203, y: 0.77538866}
    - {x: 0.1914043, y: 0.5273457}
    - {x: 0.1914043, y: 0.77538866}
    normalizedUvs:
    - {x: 0, y: 0}
    - {x: 0, y: 1}
    - {x: 1, y: 0}
    - {x: 1, y: 1}
    indices: 000000000300000001000000020000000300000000000000
    material: {fileID: 2100000, guid: 6d1ce1d2ce6ed244982b112d9ab07e49, type: 2}
    materialId: 0
    materialIndexData: 000000000000000006000000
    sourceTextureGUID: 1853977ded59e8d439c93d2f9c849152
    extractRegion: 0
    regionX: 0
    regionY: 0
    regionW: 0
    regionH: 0
    flipped: 1
    complexGeometry: 0
    physicsEngine: 0
    colliderType: 0
    customColliders: []
    colliderVertices: []
    colliderIndicesFwd: 
    colliderIndicesBack: 
    colliderConvex: 0
    colliderSmoothSphereCollisions: 0
    polygonCollider2D: []
    edgeCollider2D: []
    attachPoints: []
  - name: bald_hair
    boundsData:
    - {x: 0.5, y: -0.5, z: 0}
    - {x: 101, y: 55, z: 0}
    untrimmedBoundsData:
    - {x: 0.5, y: -0.5, z: 0}
    - {x: 101, y: 55, z: 0}
    texelSize: {x: 1, y: 1}
    positions:
    - {x: -50, y: -28, z: 0}
    - {x: 51, y: -28, z: 0}
    - {x: -50, y: 27, z: 0}
    - {x: 51, y: 27, z: 0}
    normals: []
    tangents: []
    uvs:
    - {x: 0.003908203, y: 0.33984572}
    - {x: 0.20116992, y: 0.33984572}
    - {x: 0.003908203, y: 0.44726366}
    - {x: 0.20116992, y: 0.44726366}
    normalizedUvs:
    - {x: 0, y: 0}
    - {x: 1, y: 0}
    - {x: 0, y: 1}
    - {x: 1, y: 1}
    indices: 000000000300000001000000020000000300000000000000
    material: {fileID: 2100000, guid: 6d1ce1d2ce6ed244982b112d9ab07e49, type: 2}
    materialId: 0
    materialIndexData: 000000000000000006000000
    sourceTextureGUID: 7e484681330b4654a8321a770e3e9d42
    extractRegion: 0
    regionX: 0
    regionY: 0
    regionW: 0
    regionH: 0
    flipped: 0
    complexGeometry: 0
    physicsEngine: 0
    colliderType: 0
    customColliders: []
    colliderVertices: []
    colliderIndicesFwd: 
    colliderIndicesBack: 
    colliderConvex: 0
    colliderSmoothSphereCollisions: 0
    polygonCollider2D: []
    edgeCollider2D: []
    attachPoints: []
  - name: bald_emb
    boundsData:
    - {x: 0.5, y: -0.5, z: 0}
    - {x: 103, y: 121, z: 0}
    untrimmedBoundsData:
    - {x: 0.5, y: -0.5, z: 0}
    - {x: 103, y: 121, z: 0}
    texelSize: {x: 1, y: 1}
    positions:
    - {x: -51, y: -61, z: 0}
    - {x: 52, y: -61, z: 0}
    - {x: -51, y: 60, z: 0}
    - {x: 52, y: 60, z: 0}
    normals: []
    tangents: []
    uvs:
    - {x: 0.7460957, y: 0.57617384}
    - {x: 0.7460957, y: 0.7773418}
    - {x: 0.9824199, y: 0.57617384}
    - {x: 0.9824199, y: 0.7773418}
    normalizedUvs:
    - {x: 0, y: 0}
    - {x: 0, y: 1}
    - {x: 1, y: 0}
    - {x: 1, y: 1}
    indices: 000000000300000001000000020000000300000000000000
    material: {fileID: 2100000, guid: 6d1ce1d2ce6ed244982b112d9ab07e49, type: 2}
    materialId: 0
    materialIndexData: 000000000000000006000000
    sourceTextureGUID: 9ac95a6e62fa35b48a4187ea44e236ca
    extractRegion: 0
    regionX: 0
    regionY: 0
    regionW: 0
    regionH: 0
    flipped: 1
    complexGeometry: 0
    physicsEngine: 0
    colliderType: 0
    customColliders: []
    colliderVertices: []
    colliderIndicesFwd: 
    colliderIndicesBack: 
    colliderConvex: 0
    colliderSmoothSphereCollisions: 0
    polygonCollider2D: []
    edgeCollider2D: []
    attachPoints: []
  - name: bald_angel
    boundsData:
    - {x: 0.5, y: 0, z: 0}
    - {x: 79, y: 92, z: 0}
    untrimmedBoundsData:
    - {x: 0.5, y: 0, z: 0}
    - {x: 79, y: 92, z: 0}
    texelSize: {x: 1, y: 1}
    positions:
    - {x: -39, y: -46, z: 0}
    - {x: 40, y: -46, z: 0}
    - {x: -39, y: 46, z: 0}
    - {x: 40, y: 46, z: 0}
    normals: []
    tangents: []
    uvs:
    - {x: 0.2460957, y: 0.33984572}
    - {x: 0.40038866, y: 0.33984572}
    - {x: 0.2460957, y: 0.5195293}
    - {x: 0.40038866, y: 0.5195293}
    normalizedUvs:
    - {x: 0, y: 0}
    - {x: 1, y: 0}
    - {x: 0, y: 1}
    - {x: 1, y: 1}
    indices: 000000000300000001000000020000000300000000000000
    material: {fileID: 2100000, guid: 6d1ce1d2ce6ed244982b112d9ab07e49, type: 2}
    materialId: 0
    materialIndexData: 000000000000000006000000
    sourceTextureGUID: ec833914f4542d6449a9eaa0db5db3e7
    extractRegion: 0
    regionX: 0
    regionY: 0
    regionW: 0
    regionH: 0
    flipped: 0
    complexGeometry: 0
    physicsEngine: 0
    colliderType: 0
    customColliders: []
    colliderVertices: []
    colliderIndicesFwd: 
    colliderIndicesBack: 
    colliderConvex: 0
    colliderSmoothSphereCollisions: 0
    polygonCollider2D: []
    edgeCollider2D: []
    attachPoints: []
  - name: bald_light
    boundsData:
    - {x: 0.5, y: -0.5, z: 0}
    - {x: 47, y: 47, z: 0}
    untrimmedBoundsData:
    - {x: 0.5, y: -0.5, z: 0}
    - {x: 47, y: 47, z: 0}
    texelSize: {x: 1, y: 1}
    positions:
    - {x: -23, y: -24, z: 0}
    - {x: 24, y: -24, z: 0}
    - {x: -23, y: 23, z: 0}
    - {x: 24, y: 23, z: 0}
    normals: []
    tangents: []
    uvs:
    - {x: 0.57617384, y: 0.57031447}
    - {x: 0.6679668, y: 0.57031447}
    - {x: 0.57617384, y: 0.6621074}
    - {x: 0.6679668, y: 0.6621074}
    normalizedUvs:
    - {x: 0, y: 0}
    - {x: 1, y: 0}
    - {x: 0, y: 1}
    - {x: 1, y: 1}
    indices: 000000000300000001000000020000000300000000000000
    material: {fileID: 2100000, guid: 6d1ce1d2ce6ed244982b112d9ab07e49, type: 2}
    materialId: 0
    materialIndexData: 000000000000000006000000
    sourceTextureGUID: 8380c35cde89be044b733329dcf793bc
    extractRegion: 0
    regionX: 0
    regionY: 0
    regionW: 0
    regionH: 0
    flipped: 0
    complexGeometry: 0
    physicsEngine: 0
    colliderType: 0
    customColliders: []
    colliderVertices: []
    colliderIndicesFwd: 
    colliderIndicesBack: 
    colliderConvex: 0
    colliderSmoothSphereCollisions: 0
    polygonCollider2D: []
    edgeCollider2D: []
    attachPoints: []
  - name: Smoke2
    boundsData:
    - {x: 0, y: -0.5, z: 0}
    - {x: 128, y: 121, z: 0}
    untrimmedBoundsData:
    - {x: 0, y: -0.5, z: 0}
    - {x: 128, y: 121, z: 0}
    texelSize: {x: 1, y: 1}
    positions:
    - {x: -64, y: -61, z: 0}
    - {x: 64, y: -61, z: 0}
    - {x: -64, y: 60, z: 0}
    - {x: 64, y: 60, z: 0}
    normals: []
    tangents: []
    uvs:
    - {x: 0.7539082, y: 0.31836134}
    - {x: 0.7539082, y: 0.5683574}
    - {x: 0.9902324, y: 0.31836134}
    - {x: 0.9902324, y: 0.5683574}
    normalizedUvs:
    - {x: 0, y: 0}
    - {x: 0, y: 1}
    - {x: 1, y: 0}
    - {x: 1, y: 1}
    indices: 000000000300000001000000020000000300000000000000
    material: {fileID: 2100000, guid: 6d1ce1d2ce6ed244982b112d9ab07e49, type: 2}
    materialId: 0
    materialIndexData: 000000000000000006000000
    sourceTextureGUID: 29568a56dafe7bb42b9f934f7417e674
    extractRegion: 0
    regionX: 0
    regionY: 0
    regionW: 0
    regionH: 0
    flipped: 1
    complexGeometry: 0
    physicsEngine: 0
    colliderType: 0
    customColliders: []
    colliderVertices: []
    colliderIndicesFwd: 
    colliderIndicesBack: 
    colliderConvex: 0
    colliderSmoothSphereCollisions: 0
    polygonCollider2D: []
    edgeCollider2D: []
    attachPoints: []
  - name: Smoke1
    boundsData:
    - {x: 0.5, y: 0, z: 0}
    - {x: 107, y: 110, z: 0}
    untrimmedBoundsData:
    - {x: 0.5, y: 0, z: 0}
    - {x: 107, y: 110, z: 0}
    texelSize: {x: 1, y: 1}
    positions:
    - {x: -53, y: -55, z: 0}
    - {x: 54, y: -55, z: 0}
    - {x: -53, y: 55, z: 0}
    - {x: 54, y: 55, z: 0}
    normals: []
    tangents: []
    uvs:
    - {x: 0.1992207, y: 0.5273457}
    - {x: 0.40820116, y: 0.5273457}
    - {x: 0.1992207, y: 0.74218553}
    - {x: 0.40820116, y: 0.74218553}
    normalizedUvs:
    - {x: 0, y: 0}
    - {x: 1, y: 0}
    - {x: 0, y: 1}
    - {x: 1, y: 1}
    indices: 000000000300000001000000020000000300000000000000
    material: {fileID: 2100000, guid: 6d1ce1d2ce6ed244982b112d9ab07e49, type: 2}
    materialId: 0
    materialIndexData: 000000000000000006000000
    sourceTextureGUID: 62ff8c383f4efca45b6bd6ea0314e6ae
    extractRegion: 0
    regionX: 0
    regionY: 0
    regionW: 0
    regionH: 0
    flipped: 0
    complexGeometry: 0
    physicsEngine: 0
    colliderType: 0
    customColliders: []
    colliderVertices: []
    colliderIndicesFwd: 
    colliderIndicesBack: 
    colliderConvex: 0
    colliderSmoothSphereCollisions: 0
    polygonCollider2D: []
    edgeCollider2D: []
    attachPoints: []
  premultipliedAlpha: 0
  material: {fileID: 0}
  materials:
  - {fileID: 2100000, guid: 6d1ce1d2ce6ed244982b112d9ab07e49, type: 2}
  textures: []
  pngTextures:
  - {fileID: 4900000, guid: e45ce90aba8d9e34380de09ddc57c9c5, type: 3}
  materialPngTextureId: 00000000
  textureFilterMode: 1
  textureMipMaps: 0
  allowMultipleAtlases: 0
  spriteCollectionGUID: d8ba8ffbe07901b4dadd6cc2235820c3
  spriteCollectionName: LadderCollections
  assetName: 
  loadable: 0
  invOrthoSize: 2
  halfTargetHeight: 0.5
  buildKey: 1677480665
  dataGuid: ffa97c78184ddb84fba921b52424339e
  managedSpriteCollection: 0
  hasPlatformData: 0
  spriteCollectionPlatforms: []
  spriteCollectionPlatformGUIDs: []
