%YAML 1.1
%TAG !u! tag:unity3d.com,2011:
--- !u!1001 &100100000
Prefab:
  m_ObjectHideFlags: 1
  serializedVersion: 2
  m_Modification:
    m_TransformParent: {fileID: 0}
    m_Modifications: []
    m_RemovedComponents: []
  m_ParentPrefab: {fileID: 0}
  m_RootGameObject: {fileID: 1485839098770576}
  m_IsPrefabParent: 1
--- !u!1 &1485839098770576
GameObject:
  m_ObjectHideFlags: 0
  m_PrefabParentObject: {fileID: 0}
  m_PrefabInternal: {fileID: 100100000}
  serializedVersion: 5
  m_Component:
  - component: {fileID: 4344798100443440}
  - component: {fileID: 114340599241970290}
  m_Layer: 0
  m_Name: StageReadyCollection
  m_TagString: Untagged
  m_Icon: {fileID: 0}
  m_NavMeshLayer: 0
  m_StaticEditorFlags: 0
  m_IsActive: 1
--- !u!4 &4344798100443440
Transform:
  m_ObjectHideFlags: 1
  m_PrefabParentObject: {fileID: 0}
  m_PrefabInternal: {fileID: 100100000}
  m_GameObject: {fileID: 1485839098770576}
  m_LocalRotation: {x: 0, y: 0, z: 0, w: 1}
  m_LocalPosition: {x: 0, y: 0, z: 0}
  m_LocalScale: {x: 1, y: 1, z: 1}
  m_Children: []
  m_Father: {fileID: 0}
  m_RootOrder: 0
  m_LocalEulerAnglesHint: {x: 0, y: 0, z: 0}
--- !u!114 &114340599241970290
MonoBehaviour:
  m_ObjectHideFlags: 1
  m_PrefabParentObject: {fileID: 0}
  m_PrefabInternal: {fileID: 100100000}
  m_GameObject: {fileID: 1485839098770576}
  m_Enabled: 1
  m_EditorHideFlags: 0
  m_Script: {fileID: 11500000, guid: d546f34a90531a14eaba82a43b05b86b, type: 3}
  m_Name: 
  m_EditorClassIdentifier: 
  version: 3
  materialIdsValid: 1
  needMaterialInstance: 1
  spriteDefinitions:
  - name: ready_ready
    boundsData:
    - {x: 0, y: -0.5, z: 0}
    - {x: 440, y: 109, z: 0}
    untrimmedBoundsData:
    - {x: 0, y: -0.5, z: 0}
    - {x: 440, y: 109, z: 0}
    texelSize: {x: 1, y: 1}
    positions:
    - {x: -220, y: -55, z: 0}
    - {x: 220, y: -55, z: 0}
    - {x: -220, y: 54, z: 0}
    - {x: 220, y: 54, z: 0}
    normals: []
    tangents: []
    uvs:
    - {x: 0.39160255, y: 0.0019541015}
    - {x: 0.8212881, y: 0.0019541015}
    - {x: 0.39160255, y: 0.10839746}
    - {x: 0.8212881, y: 0.10839746}
    normalizedUvs:
    - {x: 0, y: 0}
    - {x: 1, y: 0}
    - {x: 0, y: 1}
    - {x: 1, y: 1}
    indices: 000000000300000001000000020000000300000000000000
    material: {fileID: 2100000, guid: 31c354576f0ec484c80226d0a4cbeb7b, type: 2}
    materialId: 0
    materialIndexData: 000000000000000006000000
    sourceTextureGUID: 8b3bab4c4e11f4a499826e8358a4a299
    extractRegion: 0
    regionX: 0
    regionY: 0
    regionW: 0
    regionH: 0
    flipped: 0
    complexGeometry: 0
    physicsEngine: 0
    colliderType: 0
    customColliders: []
    colliderVertices: []
    colliderIndicesFwd: 
    colliderIndicesBack: 
    colliderConvex: 0
    colliderSmoothSphereCollisions: 0
    polygonCollider2D: []
    edgeCollider2D: []
    attachPoints: []
  - name: go_ready
    boundsData:
    - {x: 0.5, y: 0, z: 0}
    - {x: 395, y: 158, z: 0}
    untrimmedBoundsData:
    - {x: 0.5, y: 0, z: 0}
    - {x: 395, y: 158, z: 0}
    texelSize: {x: 1, y: 1}
    positions:
    - {x: -197, y: -79, z: 0}
    - {x: 198, y: -79, z: 0}
    - {x: -197, y: 79, z: 0}
    - {x: 198, y: 79, z: 0}
    normals: []
    tangents: []
    uvs:
    - {x: 0.0019541015, y: 0.0019541015}
    - {x: 0.38769433, y: 0.0019541015}
    - {x: 0.0019541015, y: 0.15624902}
    - {x: 0.38769433, y: 0.15624902}
    normalizedUvs:
    - {x: 0, y: 0}
    - {x: 1, y: 0}
    - {x: 0, y: 1}
    - {x: 1, y: 1}
    indices: 000000000300000001000000020000000300000000000000
    material: {fileID: 2100000, guid: 31c354576f0ec484c80226d0a4cbeb7b, type: 2}
    materialId: 0
    materialIndexData: 000000000000000006000000
    sourceTextureGUID: 7846c27cafb4db8479e1d33bf157d00b
    extractRegion: 0
    regionX: 0
    regionY: 0
    regionW: 0
    regionH: 0
    flipped: 0
    complexGeometry: 0
    physicsEngine: 0
    colliderType: 0
    customColliders: []
    colliderVertices: []
    colliderIndicesFwd: 
    colliderIndicesBack: 
    colliderConvex: 0
    colliderSmoothSphereCollisions: 0
    polygonCollider2D: []
    edgeCollider2D: []
    attachPoints: []
  - name: stage_ready
    boundsData:
    - {x: 0, y: -0.5, z: 0}
    - {x: 400, y: 93, z: 0}
    untrimmedBoundsData:
    - {x: 0, y: -0.5, z: 0}
    - {x: 400, y: 93, z: 0}
    texelSize: {x: 1, y: 1}
    positions:
    - {x: -200, y: -47, z: 0}
    - {x: 200, y: -47, z: 0}
    - {x: -200, y: 46, z: 0}
    - {x: 200, y: 46, z: 0}
    normals: []
    tangents: []
    uvs:
    - {x: 0.39160255, y: 0.11230566}
    - {x: 0.7822256, y: 0.11230566}
    - {x: 0.39160255, y: 0.20312402}
    - {x: 0.7822256, y: 0.20312402}
    normalizedUvs:
    - {x: 0, y: 0}
    - {x: 1, y: 0}
    - {x: 0, y: 1}
    - {x: 1, y: 1}
    indices: 000000000300000001000000020000000300000000000000
    material: {fileID: 2100000, guid: 31c354576f0ec484c80226d0a4cbeb7b, type: 2}
    materialId: 0
    materialIndexData: 000000000000000006000000
    sourceTextureGUID: 8eec2acd23da2724ab298577dd669799
    extractRegion: 0
    regionX: 0
    regionY: 0
    regionW: 0
    regionH: 0
    flipped: 0
    complexGeometry: 0
    physicsEngine: 0
    colliderType: 0
    customColliders: []
    colliderVertices: []
    colliderIndicesFwd: 
    colliderIndicesBack: 
    colliderConvex: 0
    colliderSmoothSphereCollisions: 0
    polygonCollider2D: []
    edgeCollider2D: []
    attachPoints: []
  - name: Album_text
    boundsData:
    - {x: 0.5, y: 0, z: 0}
    - {x: 317, y: 76, z: 0}
    untrimmedBoundsData:
    - {x: 0.5, y: 0, z: 0}
    - {x: 317, y: 76, z: 0}
    texelSize: {x: 1, y: 1}
    positions:
    - {x: -158, y: -38, z: 0}
    - {x: 159, y: -38, z: 0}
    - {x: -158, y: 38, z: 0}
    - {x: 159, y: 38, z: 0}
    normals: []
    tangents: []
    uvs:
    - {x: 0.9179697, y: 0.0019541015}
    - {x: 0.9179697, y: 0.31152245}
    - {x: 0.99218655, y: 0.0019541015}
    - {x: 0.99218655, y: 0.31152245}
    normalizedUvs:
    - {x: 0, y: 0}
    - {x: 0, y: 1}
    - {x: 1, y: 0}
    - {x: 1, y: 1}
    indices: 000000000300000001000000020000000300000000000000
    material: {fileID: 2100000, guid: 31c354576f0ec484c80226d0a4cbeb7b, type: 2}
    materialId: 0
    materialIndexData: 000000000000000006000000
    sourceTextureGUID: 45dc0de3382228c43aaf34e228d1c574
    extractRegion: 0
    regionX: 0
    regionY: 0
    regionW: 0
    regionH: 0
    flipped: 1
    complexGeometry: 0
    physicsEngine: 0
    colliderType: 0
    customColliders: []
    colliderVertices: []
    colliderIndicesFwd: 
    colliderIndicesBack: 
    colliderConvex: 0
    colliderSmoothSphereCollisions: 0
    polygonCollider2D: []
    edgeCollider2D: []
    attachPoints: []
  - name: tutorial
    boundsData:
    - {x: 0, y: -0.5, z: 0}
    - {x: 510, y: 91, z: 0}
    untrimmedBoundsData:
    - {x: 0, y: -0.5, z: 0}
    - {x: 510, y: 91, z: 0}
    texelSize: {x: 1, y: 1}
    positions:
    - {x: -255, y: -46, z: 0}
    - {x: 255, y: -46, z: 0}
    - {x: -255, y: 45, z: 0}
    - {x: 255, y: 45, z: 0}
    normals: []
    tangents: []
    uvs:
    - {x: 0.82519627, y: 0.0019541015}
    - {x: 0.82519627, y: 0.49999902}
    - {x: 0.91406155, y: 0.0019541015}
    - {x: 0.91406155, y: 0.49999902}
    normalizedUvs:
    - {x: 0, y: 0}
    - {x: 0, y: 1}
    - {x: 1, y: 0}
    - {x: 1, y: 1}
    indices: 000000000300000001000000020000000300000000000000
    material: {fileID: 2100000, guid: 31c354576f0ec484c80226d0a4cbeb7b, type: 2}
    materialId: 0
    materialIndexData: 000000000000000006000000
    sourceTextureGUID: 9c0d1faa530523c488b6ce287e1a4f75
    extractRegion: 0
    regionX: 0
    regionY: 0
    regionW: 0
    regionH: 0
    flipped: 1
    complexGeometry: 0
    physicsEngine: 0
    colliderType: 0
    customColliders: []
    colliderVertices: []
    colliderIndicesFwd: 
    colliderIndicesBack: 
    colliderConvex: 0
    colliderSmoothSphereCollisions: 0
    polygonCollider2D: []
    edgeCollider2D: []
    attachPoints: []
  - name: 
    boundsData:
    - {x: 31, y: -31, z: 0}
    - {x: 64, y: 64, z: 0}
    untrimmedBoundsData:
    - {x: 31, y: -31, z: 0}
    - {x: 64, y: 64, z: 0}
    texelSize: {x: 1, y: 1}
    positions:
    - {x: -1, y: -63, z: 0}
    - {x: 63, y: -63, z: 0}
    - {x: -1, y: 1, z: 0}
    - {x: 63, y: 1, z: 0}
    normals: []
    tangents: []
    uvs:
    - {x: 0.9960947, y: 0.0019541015}
    - {x: 0.9980459, y: 0.0019541015}
    - {x: 0.9960947, y: 0.0039052735}
    - {x: 0.9980459, y: 0.0039052735}
    normalizedUvs:
    - {x: 0, y: 0}
    - {x: 1, y: 0}
    - {x: 0, y: 1}
    - {x: 1, y: 1}
    indices: 000000000300000001000000020000000300000000000000
    material: {fileID: 2100000, guid: 31c354576f0ec484c80226d0a4cbeb7b, type: 2}
    materialId: 0
    materialIndexData: 000000000000000006000000
    sourceTextureGUID: 
    extractRegion: 0
    regionX: 0
    regionY: 0
    regionW: 0
    regionH: 0
    flipped: 0
    complexGeometry: 0
    physicsEngine: 0
    colliderType: 0
    customColliders: []
    colliderVertices: []
    colliderIndicesFwd: 
    colliderIndicesBack: 
    colliderConvex: 0
    colliderSmoothSphereCollisions: 0
    polygonCollider2D: []
    edgeCollider2D: []
    attachPoints: []
  - name: 
    boundsData:
    - {x: 31, y: -31, z: 0}
    - {x: 64, y: 64, z: 0}
    untrimmedBoundsData:
    - {x: 31, y: -31, z: 0}
    - {x: 64, y: 64, z: 0}
    texelSize: {x: 1, y: 1}
    positions:
    - {x: -1, y: -63, z: 0}
    - {x: 63, y: -63, z: 0}
    - {x: -1, y: 1, z: 0}
    - {x: 63, y: 1, z: 0}
    normals: []
    tangents: []
    uvs:
    - {x: 0.9960947, y: 0.0019541015}
    - {x: 0.9980459, y: 0.0019541015}
    - {x: 0.9960947, y: 0.0039052735}
    - {x: 0.9980459, y: 0.0039052735}
    normalizedUvs:
    - {x: 0, y: 0}
    - {x: 1, y: 0}
    - {x: 0, y: 1}
    - {x: 1, y: 1}
    indices: 000000000300000001000000020000000300000000000000
    material: {fileID: 2100000, guid: 31c354576f0ec484c80226d0a4cbeb7b, type: 2}
    materialId: 0
    materialIndexData: 000000000000000006000000
    sourceTextureGUID: 
    extractRegion: 0
    regionX: 0
    regionY: 0
    regionW: 0
    regionH: 0
    flipped: 0
    complexGeometry: 0
    physicsEngine: 0
    colliderType: 0
    customColliders: []
    colliderVertices: []
    colliderIndicesFwd: 
    colliderIndicesBack: 
    colliderConvex: 0
    colliderSmoothSphereCollisions: 0
    polygonCollider2D: []
    edgeCollider2D: []
    attachPoints: []
  - name: 
    boundsData:
    - {x: 31, y: -31, z: 0}
    - {x: 64, y: 64, z: 0}
    untrimmedBoundsData:
    - {x: 31, y: -31, z: 0}
    - {x: 64, y: 64, z: 0}
    texelSize: {x: 1, y: 1}
    positions:
    - {x: -1, y: -63, z: 0}
    - {x: 63, y: -63, z: 0}
    - {x: -1, y: 1, z: 0}
    - {x: 63, y: 1, z: 0}
    normals: []
    tangents: []
    uvs:
    - {x: 0.9960947, y: 0.0019541015}
    - {x: 0.9980459, y: 0.0019541015}
    - {x: 0.9960947, y: 0.0039052735}
    - {x: 0.9980459, y: 0.0039052735}
    normalizedUvs:
    - {x: 0, y: 0}
    - {x: 1, y: 0}
    - {x: 0, y: 1}
    - {x: 1, y: 1}
    indices: 000000000300000001000000020000000300000000000000
    material: {fileID: 2100000, guid: 31c354576f0ec484c80226d0a4cbeb7b, type: 2}
    materialId: 0
    materialIndexData: 000000000000000006000000
    sourceTextureGUID: 
    extractRegion: 0
    regionX: 0
    regionY: 0
    regionW: 0
    regionH: 0
    flipped: 0
    complexGeometry: 0
    physicsEngine: 0
    colliderType: 0
    customColliders: []
    colliderVertices: []
    colliderIndicesFwd: 
    colliderIndicesBack: 
    colliderConvex: 0
    colliderSmoothSphereCollisions: 0
    polygonCollider2D: []
    edgeCollider2D: []
    attachPoints: []
  - name: 
    boundsData:
    - {x: 31, y: -31, z: 0}
    - {x: 64, y: 64, z: 0}
    untrimmedBoundsData:
    - {x: 31, y: -31, z: 0}
    - {x: 64, y: 64, z: 0}
    texelSize: {x: 1, y: 1}
    positions:
    - {x: -1, y: -63, z: 0}
    - {x: 63, y: -63, z: 0}
    - {x: -1, y: 1, z: 0}
    - {x: 63, y: 1, z: 0}
    normals: []
    tangents: []
    uvs:
    - {x: 0.9960947, y: 0.0019541015}
    - {x: 0.9980459, y: 0.0019541015}
    - {x: 0.9960947, y: 0.0039052735}
    - {x: 0.9980459, y: 0.0039052735}
    normalizedUvs:
    - {x: 0, y: 0}
    - {x: 1, y: 0}
    - {x: 0, y: 1}
    - {x: 1, y: 1}
    indices: 000000000300000001000000020000000300000000000000
    material: {fileID: 2100000, guid: 31c354576f0ec484c80226d0a4cbeb7b, type: 2}
    materialId: 0
    materialIndexData: 000000000000000006000000
    sourceTextureGUID: 
    extractRegion: 0
    regionX: 0
    regionY: 0
    regionW: 0
    regionH: 0
    flipped: 0
    complexGeometry: 0
    physicsEngine: 0
    colliderType: 0
    customColliders: []
    colliderVertices: []
    colliderIndicesFwd: 
    colliderIndicesBack: 
    colliderConvex: 0
    colliderSmoothSphereCollisions: 0
    polygonCollider2D: []
    edgeCollider2D: []
    attachPoints: []
  - name: 2
    boundsData:
    - {x: 0.5, y: 0, z: 0}
    - {x: 105, y: 124, z: 0}
    untrimmedBoundsData:
    - {x: 0.5, y: 0, z: 0}
    - {x: 105, y: 124, z: 0}
    texelSize: {x: 1, y: 1}
    positions:
    - {x: -52, y: -62, z: 0}
    - {x: 53, y: -62, z: 0}
    - {x: -52, y: 62, z: 0}
    - {x: 53, y: 62, z: 0}
    normals: []
    tangents: []
    uvs:
    - {x: 0.0019541015, y: 0.16015723}
    - {x: 0.0019541015, y: 0.26269433}
    - {x: 0.1230459, y: 0.16015723}
    - {x: 0.1230459, y: 0.26269433}
    normalizedUvs:
    - {x: 0, y: 0}
    - {x: 0, y: 1}
    - {x: 1, y: 0}
    - {x: 1, y: 1}
    indices: 000000000300000001000000020000000300000000000000
    material: {fileID: 2100000, guid: 31c354576f0ec484c80226d0a4cbeb7b, type: 2}
    materialId: 0
    materialIndexData: 000000000000000006000000
    sourceTextureGUID: cd7688e33127e402f9b52b2d5c4068e1
    extractRegion: 0
    regionX: 0
    regionY: 0
    regionW: 0
    regionH: 0
    flipped: 1
    complexGeometry: 0
    physicsEngine: 0
    colliderType: 0
    customColliders: []
    colliderVertices: []
    colliderIndicesFwd: 
    colliderIndicesBack: 
    colliderConvex: 0
    colliderSmoothSphereCollisions: 0
    polygonCollider2D: []
    edgeCollider2D: []
    attachPoints: []
  - name: 7
    boundsData:
    - {x: -0.5, y: -0.5, z: 0}
    - {x: 99, y: 121, z: 0}
    untrimmedBoundsData:
    - {x: 0, y: -0.5, z: 0}
    - {x: 100, y: 121, z: 0}
    texelSize: {x: 1, y: 1}
    positions:
    - {x: -50, y: -61, z: 0}
    - {x: 49, y: -61, z: 0}
    - {x: -50, y: 60, z: 0}
    - {x: 49, y: 60, z: 0}
    normals: []
    tangents: []
    uvs:
    - {x: 0.2548838, y: 0.16015723}
    - {x: 0.2548838, y: 0.25683495}
    - {x: 0.3730459, y: 0.16015723}
    - {x: 0.3730459, y: 0.25683495}
    normalizedUvs:
    - {x: 0, y: 0}
    - {x: 0, y: 1}
    - {x: 1, y: 0}
    - {x: 1, y: 1}
    indices: 000000000300000001000000020000000300000000000000
    material: {fileID: 2100000, guid: 31c354576f0ec484c80226d0a4cbeb7b, type: 2}
    materialId: 0
    materialIndexData: 000000000000000006000000
    sourceTextureGUID: 950eeda74b67b4bf3b485053030bc867
    extractRegion: 0
    regionX: 0
    regionY: 0
    regionW: 0
    regionH: 0
    flipped: 1
    complexGeometry: 0
    physicsEngine: 0
    colliderType: 0
    customColliders: []
    colliderVertices: []
    colliderIndicesFwd: 
    colliderIndicesBack: 
    colliderConvex: 0
    colliderSmoothSphereCollisions: 0
    polygonCollider2D: []
    edgeCollider2D: []
    attachPoints: []
  - name: 5
    boundsData:
    - {x: 0, y: 0, z: 0}
    - {x: 96, y: 124, z: 0}
    untrimmedBoundsData:
    - {x: 0.5, y: 0, z: 0}
    - {x: 97, y: 124, z: 0}
    texelSize: {x: 1, y: 1}
    positions:
    - {x: -48, y: -62, z: 0}
    - {x: 48, y: -62, z: 0}
    - {x: -48, y: 62, z: 0}
    - {x: 48, y: 62, z: 0}
    normals: []
    tangents: []
    uvs:
    - {x: 0.12695411, y: 0.25781348}
    - {x: 0.12695411, y: 0.35156152}
    - {x: 0.24804589, y: 0.25781348}
    - {x: 0.24804589, y: 0.35156152}
    normalizedUvs:
    - {x: 0, y: 0}
    - {x: 0, y: 1}
    - {x: 1, y: 0}
    - {x: 1, y: 1}
    indices: 000000000300000001000000020000000300000000000000
    material: {fileID: 2100000, guid: 31c354576f0ec484c80226d0a4cbeb7b, type: 2}
    materialId: 0
    materialIndexData: 000000000000000006000000
    sourceTextureGUID: a99192387899c4925ae64a8f78b50334
    extractRegion: 0
    regionX: 0
    regionY: 0
    regionW: 0
    regionH: 0
    flipped: 1
    complexGeometry: 0
    physicsEngine: 0
    colliderType: 0
    customColliders: []
    colliderVertices: []
    colliderIndicesFwd: 
    colliderIndicesBack: 
    colliderConvex: 0
    colliderSmoothSphereCollisions: 0
    polygonCollider2D: []
    edgeCollider2D: []
    attachPoints: []
  - name: 6
    boundsData:
    - {x: 0.5, y: 0, z: 0}
    - {x: 89, y: 124, z: 0}
    untrimmedBoundsData:
    - {x: 0.5, y: 0, z: 0}
    - {x: 89, y: 124, z: 0}
    texelSize: {x: 1, y: 1}
    positions:
    - {x: -44, y: -62, z: 0}
    - {x: 45, y: -62, z: 0}
    - {x: -44, y: 62, z: 0}
    - {x: 45, y: 62, z: 0}
    normals: []
    tangents: []
    uvs:
    - {x: 0.09668066, y: 0.35546973}
    - {x: 0.09668066, y: 0.44238183}
    - {x: 0.21777245, y: 0.35546973}
    - {x: 0.21777245, y: 0.44238183}
    normalizedUvs:
    - {x: 0, y: 0}
    - {x: 0, y: 1}
    - {x: 1, y: 0}
    - {x: 1, y: 1}
    indices: 000000000300000001000000020000000300000000000000
    material: {fileID: 2100000, guid: 31c354576f0ec484c80226d0a4cbeb7b, type: 2}
    materialId: 0
    materialIndexData: 000000000000000006000000
    sourceTextureGUID: cbd276f45a7a14d5f94df7a5124e2caf
    extractRegion: 0
    regionX: 0
    regionY: 0
    regionW: 0
    regionH: 0
    flipped: 1
    complexGeometry: 0
    physicsEngine: 0
    colliderType: 0
    customColliders: []
    colliderVertices: []
    colliderIndicesFwd: 
    colliderIndicesBack: 
    colliderConvex: 0
    colliderSmoothSphereCollisions: 0
    polygonCollider2D: []
    edgeCollider2D: []
    attachPoints: []
  - name: 3
    boundsData:
    - {x: 0, y: -0.5, z: 0}
    - {x: 96, y: 127, z: 0}
    untrimmedBoundsData:
    - {x: 0.5, y: -0.5, z: 0}
    - {x: 97, y: 127, z: 0}
    texelSize: {x: 1, y: 1}
    positions:
    - {x: -48, y: -64, z: 0}
    - {x: 48, y: -64, z: 0}
    - {x: -48, y: 63, z: 0}
    - {x: 48, y: 63, z: 0}
    normals: []
    tangents: []
    uvs:
    - {x: 0.12695411, y: 0.16015723}
    - {x: 0.12695411, y: 0.25390527}
    - {x: 0.25097558, y: 0.16015723}
    - {x: 0.25097558, y: 0.25390527}
    normalizedUvs:
    - {x: 0, y: 0}
    - {x: 0, y: 1}
    - {x: 1, y: 0}
    - {x: 1, y: 1}
    indices: 000000000300000001000000020000000300000000000000
    material: {fileID: 2100000, guid: 31c354576f0ec484c80226d0a4cbeb7b, type: 2}
    materialId: 0
    materialIndexData: 000000000000000006000000
    sourceTextureGUID: bdb311031fbe64d52be588c26ef9b0ba
    extractRegion: 0
    regionX: 0
    regionY: 0
    regionW: 0
    regionH: 0
    flipped: 1
    complexGeometry: 0
    physicsEngine: 0
    colliderType: 0
    customColliders: []
    colliderVertices: []
    colliderIndicesFwd: 
    colliderIndicesBack: 
    colliderConvex: 0
    colliderSmoothSphereCollisions: 0
    polygonCollider2D: []
    edgeCollider2D: []
    attachPoints: []
  - name: 0
    boundsData:
    - {x: 0, y: -0.5, z: 0}
    - {x: 92, y: 127, z: 0}
    untrimmedBoundsData:
    - {x: 0, y: -0.5, z: 0}
    - {x: 92, y: 127, z: 0}
    texelSize: {x: 1, y: 1}
    positions:
    - {x: -46, y: -64, z: 0}
    - {x: 46, y: -64, z: 0}
    - {x: -46, y: 63, z: 0}
    - {x: 46, y: 63, z: 0}
    normals: []
    tangents: []
    uvs:
    - {x: 0.2519541, y: 0.26074317}
    - {x: 0.3417959, y: 0.26074317}
    - {x: 0.2519541, y: 0.38476464}
    - {x: 0.3417959, y: 0.38476464}
    normalizedUvs:
    - {x: 0, y: 0}
    - {x: 1, y: 0}
    - {x: 0, y: 1}
    - {x: 1, y: 1}
    indices: 000000000300000001000000020000000300000000000000
    material: {fileID: 2100000, guid: 31c354576f0ec484c80226d0a4cbeb7b, type: 2}
    materialId: 0
    materialIndexData: 000000000000000006000000
    sourceTextureGUID: 7195027349f97417b8e63be33f278d1e
    extractRegion: 0
    regionX: 0
    regionY: 0
    regionW: 0
    regionH: 0
    flipped: 0
    complexGeometry: 0
    physicsEngine: 0
    colliderType: 0
    customColliders: []
    colliderVertices: []
    colliderIndicesFwd: 
    colliderIndicesBack: 
    colliderConvex: 0
    colliderSmoothSphereCollisions: 0
    polygonCollider2D: []
    edgeCollider2D: []
    attachPoints: []
  - name: 9
    boundsData:
    - {x: 0.5, y: 0, z: 0}
    - {x: 89, y: 124, z: 0}
    untrimmedBoundsData:
    - {x: 0.5, y: 0, z: 0}
    - {x: 89, y: 124, z: 0}
    texelSize: {x: 1, y: 1}
    positions:
    - {x: -44, y: -62, z: 0}
    - {x: 45, y: -62, z: 0}
    - {x: -44, y: 62, z: 0}
    - {x: 45, y: 62, z: 0}
    normals: []
    tangents: []
    uvs:
    - {x: 0.0019541015, y: 0.39453223}
    - {x: 0.08886621, y: 0.39453223}
    - {x: 0.0019541015, y: 0.51562405}
    - {x: 0.08886621, y: 0.51562405}
    normalizedUvs:
    - {x: 0, y: 0}
    - {x: 1, y: 0}
    - {x: 0, y: 1}
    - {x: 1, y: 1}
    indices: 000000000300000001000000020000000300000000000000
    material: {fileID: 2100000, guid: 31c354576f0ec484c80226d0a4cbeb7b, type: 2}
    materialId: 0
    materialIndexData: 000000000000000006000000
    sourceTextureGUID: 7f14dbc6fe559460c8891b13fa0ff445
    extractRegion: 0
    regionX: 0
    regionY: 0
    regionW: 0
    regionH: 0
    flipped: 0
    complexGeometry: 0
    physicsEngine: 0
    colliderType: 0
    customColliders: []
    colliderVertices: []
    colliderIndicesFwd: 
    colliderIndicesBack: 
    colliderConvex: 0
    colliderSmoothSphereCollisions: 0
    polygonCollider2D: []
    edgeCollider2D: []
    attachPoints: []
  - name: 8
    boundsData:
    - {x: -0.5, y: -0.5, z: 0}
    - {x: 93, y: 127, z: 0}
    untrimmedBoundsData:
    - {x: 0, y: -0.5, z: 0}
    - {x: 94, y: 127, z: 0}
    texelSize: {x: 1, y: 1}
    positions:
    - {x: -47, y: -64, z: 0}
    - {x: 46, y: -64, z: 0}
    - {x: -47, y: 63, z: 0}
    - {x: 46, y: 63, z: 0}
    normals: []
    tangents: []
    uvs:
    - {x: 0.0019541015, y: 0.26660255}
    - {x: 0.09277246, y: 0.26660255}
    - {x: 0.0019541015, y: 0.39062402}
    - {x: 0.09277246, y: 0.39062402}
    normalizedUvs:
    - {x: 0, y: 0}
    - {x: 1, y: 0}
    - {x: 0, y: 1}
    - {x: 1, y: 1}
    indices: 000000000300000001000000020000000300000000000000
    material: {fileID: 2100000, guid: 31c354576f0ec484c80226d0a4cbeb7b, type: 2}
    materialId: 0
    materialIndexData: 000000000000000006000000
    sourceTextureGUID: d8df1719b5ac14c89a680180e4396ada
    extractRegion: 0
    regionX: 0
    regionY: 0
    regionW: 0
    regionH: 0
    flipped: 0
    complexGeometry: 0
    physicsEngine: 0
    colliderType: 0
    customColliders: []
    colliderVertices: []
    colliderIndicesFwd: 
    colliderIndicesBack: 
    colliderConvex: 0
    colliderSmoothSphereCollisions: 0
    polygonCollider2D: []
    edgeCollider2D: []
    attachPoints: []
  - name: 1
    boundsData:
    - {x: 0.5, y: -0.5, z: 0}
    - {x: 51, y: 121, z: 0}
    untrimmedBoundsData:
    - {x: 0.5, y: -0.5, z: 0}
    - {x: 51, y: 121, z: 0}
    texelSize: {x: 1, y: 1}
    positions:
    - {x: -25, y: -61, z: 0}
    - {x: 26, y: -61, z: 0}
    - {x: -25, y: 60, z: 0}
    - {x: 26, y: 60, z: 0}
    normals: []
    tangents: []
    uvs:
    - {x: 0.9179697, y: 0.31543067}
    - {x: 0.9677725, y: 0.31543067}
    - {x: 0.9179697, y: 0.43359277}
    - {x: 0.9677725, y: 0.43359277}
    normalizedUvs:
    - {x: 0, y: 0}
    - {x: 1, y: 0}
    - {x: 0, y: 1}
    - {x: 1, y: 1}
    indices: 000000000300000001000000020000000300000000000000
    material: {fileID: 2100000, guid: 31c354576f0ec484c80226d0a4cbeb7b, type: 2}
    materialId: 0
    materialIndexData: 000000000000000006000000
    sourceTextureGUID: 67557dba4c5514eaa984bb39efbd10d0
    extractRegion: 0
    regionX: 0
    regionY: 0
    regionW: 0
    regionH: 0
    flipped: 0
    complexGeometry: 0
    physicsEngine: 0
    colliderType: 0
    customColliders: []
    colliderVertices: []
    colliderIndicesFwd: 
    colliderIndicesBack: 
    colliderConvex: 0
    colliderSmoothSphereCollisions: 0
    polygonCollider2D: []
    edgeCollider2D: []
    attachPoints: []
  - name: 4
    boundsData:
    - {x: 0.5, y: -0.5, z: 0}
    - {x: 97, y: 121, z: 0}
    untrimmedBoundsData:
    - {x: 0.5, y: -0.5, z: 0}
    - {x: 97, y: 121, z: 0}
    texelSize: {x: 1, y: 1}
    positions:
    - {x: -48, y: -61, z: 0}
    - {x: 49, y: -61, z: 0}
    - {x: -48, y: 60, z: 0}
    - {x: 49, y: 60, z: 0}
    normals: []
    tangents: []
    uvs:
    - {x: 0.3769541, y: 0.20703223}
    - {x: 0.3769541, y: 0.30175683}
    - {x: 0.4951162, y: 0.20703223}
    - {x: 0.4951162, y: 0.30175683}
    normalizedUvs:
    - {x: 0, y: 0}
    - {x: 0, y: 1}
    - {x: 1, y: 0}
    - {x: 1, y: 1}
    indices: 000000000300000001000000020000000300000000000000
    material: {fileID: 2100000, guid: 31c354576f0ec484c80226d0a4cbeb7b, type: 2}
    materialId: 0
    materialIndexData: 000000000000000006000000
    sourceTextureGUID: 4c7b8c9f68b8f46f38d79af9d754324c
    extractRegion: 0
    regionX: 0
    regionY: 0
    regionW: 0
    regionH: 0
    flipped: 1
    complexGeometry: 0
    physicsEngine: 0
    colliderType: 0
    customColliders: []
    colliderVertices: []
    colliderIndicesFwd: 
    colliderIndicesBack: 
    colliderConvex: 0
    colliderSmoothSphereCollisions: 0
    polygonCollider2D: []
    edgeCollider2D: []
    attachPoints: []
  premultipliedAlpha: 0
  material: {fileID: 0}
  materials:
  - {fileID: 2100000, guid: 31c354576f0ec484c80226d0a4cbeb7b, type: 2}
  textures: []
  pngTextures:
  - {fileID: 4900000, guid: 1558786a24f13ba45bc2085281a20626, type: 3}
  materialPngTextureId: 00000000
  textureFilterMode: 1
  textureMipMaps: 0
  allowMultipleAtlases: 0
  spriteCollectionGUID: 3ed5f9ee1a9511240902661b1a935e93
  spriteCollectionName: StageReadyCollection
  assetName: 
  loadable: 0
  invOrthoSize: 2
  halfTargetHeight: 0.5
  buildKey: 2093925564
  dataGuid: f7d162c5123650d41bdb668a59aaadb3
  managedSpriteCollection: 0
  hasPlatformData: 0
  spriteCollectionPlatforms: []
  spriteCollectionPlatformGUIDs: []
